EESchema Schematic File Version 4
EELAYER 30 0
EELAYER END
$Descr A4 11693 8268
encoding utf-8
Sheet 2 9
Title ""
Date ""
Rev ""
Comp ""
Comment1 ""
Comment2 ""
Comment3 ""
Comment4 ""
$EndDescr
Text HLabel 1450 1100 0    60   Input ~ 0
IsolatedPower12V
Text HLabel 1500 2450 0    60   Input ~ 0
IsolatedPowerGnd
$Comp
L antaveiv:B1212S U1
U 1 1 5DB5EC41
P 4700 2100
F 0 "U1" H 4700 1900 39  0000 C CNN
F 1 "B1212S" H 4700 2300 39  0001 C CNN
F 2 "kicad-footprints-antaveiv:DCDC_B_S-1W" H 3800 2400 39  0001 C CNN
F 3 "" H 3800 2400 39  0001 C CNN
	1    4700 2100
	1    0    0    -1  
$EndComp
$Comp
L antaveiv:B1212S U3
U 1 1 5DB5ED12
P 4700 3750
F 0 "U3" H 4700 3550 39  0000 C CNN
F 1 "B1212S" H 4700 3950 39  0001 C CNN
F 2 "kicad-footprints-antaveiv:DCDC_B_S-1W" H 3800 4050 39  0001 C CNN
F 3 "" H 3800 4050 39  0001 C CNN
	1    4700 3750
	1    0    0    -1  
$EndComp
Wire Wire Line
	5350 4050 5350 4100
$Comp
L Device:CP C3
U 1 1 5DB5EF59
P 3250 3900
F 0 "C3" H 3275 4000 50  0000 L CNN
F 1 "10uF 50V" H 3275 3800 50  0000 L CNN
F 2 "Capacitor_SMD:CP_Elec_5x5.8" H 3288 3750 50  0001 C CNN
F 3 "" H 3250 3900 50  0001 C CNN
	1    3250 3900
	1    0    0    -1  
$EndComp
Wire Wire Line
	5350 2400 5350 2450
$Comp
L power:GND #PWR016
U 1 1 5DB5F0DB
P 7300 4200
F 0 "#PWR016" H 7300 3950 50  0001 C CNN
F 1 "GND" H 7300 4050 50  0000 C CNN
F 2 "" H 7300 4200 50  0001 C CNN
F 3 "" H 7300 4200 50  0001 C CNN
	1    7300 4200
	1    0    0    -1  
$EndComp
Connection ~ 5350 4100
$Comp
L Device:C C4
U 1 1 5DB7457A
P 4000 2250
F 0 "C4" H 4025 2350 50  0000 L CNN
F 1 "2.2uF 35V" H 4025 2150 50  0000 L CNN
F 2 "Capacitor_SMD:C_0805_2012Metric" H 4038 2100 50  0001 C CNN
F 3 "" H 4000 2250 50  0001 C CNN
	1    4000 2250
	1    0    0    -1  
$EndComp
Text Notes 3650 3100 0    60   ~ 0
2.2uF at 12V \nsupply is recommended\nby MORNSUN
$Comp
L Device:C C10
U 1 1 5DB7486F
P 4000 3900
F 0 "C10" H 4025 4000 50  0000 L CNN
F 1 "2.2uF 35V" H 4025 3800 50  0000 L CNN
F 2 "Capacitor_SMD:C_0805_2012Metric" H 4038 3750 50  0001 C CNN
F 3 "" H 4000 3900 50  0001 C CNN
	1    4000 3900
	1    0    0    -1  
$EndComp
Wire Wire Line
	2100 4100 2150 4100
Wire Wire Line
	4000 4100 4000 4050
Wire Wire Line
	3800 3700 4000 3700
Wire Wire Line
	4000 3700 4000 3750
Wire Wire Line
	1500 2450 1650 2450
Wire Wire Line
	4000 2450 4000 2400
Wire Wire Line
	3800 2050 4000 2050
Wire Wire Line
	4000 2050 4000 2100
$Comp
L Device:Ferrite_Bead FB1
U 1 1 5DB74A64
P 3650 2050
F 0 "FB1" V 3500 2075 50  0000 C CNN
F 1 "Ferrite_Bead" V 3800 2050 50  0000 C CNN
F 2 "Resistor_SMD:R_0603_1608Metric" V 3580 2050 50  0001 C CNN
F 3 "" H 3650 2050 50  0001 C CNN
	1    3650 2050
	0    1    1    0   
$EndComp
$Comp
L Device:Ferrite_Bead FB3
U 1 1 5DB74AEB
P 3650 3700
F 0 "FB3" V 3500 3725 50  0000 C CNN
F 1 "Ferrite_Bead" V 3800 3700 50  0000 C CNN
F 2 "Resistor_SMD:R_0603_1608Metric" V 3580 3700 50  0001 C CNN
F 3 "" H 3650 3700 50  0001 C CNN
	1    3650 3700
	0    1    1    0   
$EndComp
Connection ~ 4000 2050
Connection ~ 4000 3700
Connection ~ 4000 2450
Wire Wire Line
	2150 2450 2150 4100
Connection ~ 2150 2450
Connection ~ 2150 4100
Connection ~ 4000 4100
$Comp
L Device:C C11
U 1 1 5DB74F7E
P 5350 3900
F 0 "C11" H 5375 4000 50  0000 L CNN
F 1 "2.2uF 35V" H 5375 3800 50  0000 L CNN
F 2 "Capacitor_SMD:C_0805_2012Metric" H 5388 3750 50  0001 C CNN
F 3 "" H 5350 3900 50  0001 C CNN
	1    5350 3900
	1    0    0    -1  
$EndComp
$Comp
L Device:C C5
U 1 1 5DB74FE2
P 5350 2250
F 0 "C5" H 5375 2350 50  0000 L CNN
F 1 "2.2uF 35V" H 5375 2150 50  0000 L CNN
F 2 "Capacitor_SMD:C_0805_2012Metric" H 5388 2100 50  0001 C CNN
F 3 "" H 5350 2250 50  0001 C CNN
	1    5350 2250
	1    0    0    -1  
$EndComp
Wire Wire Line
	5350 2050 5350 2100
Connection ~ 5350 3700
$Comp
L Device:Ferrite_Bead FB2
U 1 1 5DB75410
P 6700 2050
F 0 "FB2" V 6550 2075 50  0000 C CNN
F 1 "Ferrite_Bead" V 6850 2050 50  0000 C CNN
F 2 "Resistor_SMD:R_0603_1608Metric" V 6630 2050 50  0001 C CNN
F 3 "" H 6700 2050 50  0001 C CNN
	1    6700 2050
	0    1    1    0   
$EndComp
$Comp
L Device:Ferrite_Bead FB4
U 1 1 5DB75556
P 6700 3700
F 0 "FB4" V 6550 3725 50  0000 C CNN
F 1 "Ferrite_Bead" V 6850 3700 50  0000 C CNN
F 2 "Resistor_SMD:R_0603_1608Metric" V 6630 3700 50  0001 C CNN
F 3 "" H 6700 3700 50  0001 C CNN
	1    6700 3700
	0    1    1    0   
$EndComp
Connection ~ 5350 2050
$Comp
L power:+12V #PWR013
U 1 1 5DB7580C
P 7300 3650
F 0 "#PWR013" H 7300 3500 50  0001 C CNN
F 1 "+12V" H 7300 3790 50  0000 C CNN
F 2 "" H 7300 3650 50  0001 C CNN
F 3 "" H 7300 3650 50  0001 C CNN
	1    7300 3650
	1    0    0    -1  
$EndComp
Wire Wire Line
	6850 3700 7000 3700
$Comp
L power:+24V #PWR07
U 1 1 5DB758A2
P 7600 2050
F 0 "#PWR07" H 7600 1900 50  0001 C CNN
F 1 "+24V" H 7600 2190 50  0000 C CNN
F 2 "" H 7600 2050 50  0001 C CNN
F 3 "" H 7600 2050 50  0001 C CNN
	1    7600 2050
	1    0    0    -1  
$EndComp
$Comp
L Device:R_Small R4
U 1 1 5DC36F32
P 6150 2250
F 0 "R4" V 6230 2250 50  0000 C CNN
F 1 "1K" V 6150 2250 50  0000 C CNN
F 2 "Resistor_SMD:R_0603_1608Metric" V 6080 2250 50  0001 C CNN
F 3 "" H 6150 2250 50  0001 C CNN
	1    6150 2250
	1    0    0    -1  
$EndComp
Connection ~ 6150 2050
$Comp
L Device:R_Small R14
U 1 1 5DC370A5
P 6150 3900
F 0 "R14" V 6230 3900 50  0000 C CNN
F 1 "1K_NM" V 6150 3900 50  0000 C CNN
F 2 "Resistor_SMD:R_0603_1608Metric" V 6080 3900 50  0001 C CNN
F 3 "" H 6150 3900 50  0001 C CNN
	1    6150 3900
	1    0    0    -1  
$EndComp
Connection ~ 6150 3700
Text Notes 6350 4300 1    60   ~ 0
provide some load to converter, needs at least 10% load
$Comp
L Device:C C12
U 1 1 5DC37CD9
P 5850 3900
F 0 "C12" H 5875 4000 50  0000 L CNN
F 1 "10nF" H 5875 3800 50  0000 L CNN
F 2 "Capacitor_SMD:C_0603_1608Metric" H 5888 3750 50  0001 C CNN
F 3 "" H 5850 3900 50  0001 C CNN
	1    5850 3900
	1    0    0    -1  
$EndComp
$Comp
L Device:C C6
U 1 1 5DC37D5F
P 5850 2250
F 0 "C6" H 5875 2350 50  0000 L CNN
F 1 "10nF" H 5875 2150 50  0000 L CNN
F 2 "Capacitor_SMD:C_0603_1608Metric" H 5888 2100 50  0001 C CNN
F 3 "" H 5850 2250 50  0001 C CNN
	1    5850 2250
	1    0    0    -1  
$EndComp
Wire Wire Line
	5850 2050 5850 2100
Connection ~ 5850 2050
Wire Wire Line
	5850 2400 5850 2450
Connection ~ 5850 2450
Wire Wire Line
	5850 3700 5850 3750
Connection ~ 5850 3700
Wire Wire Line
	7300 3650 7300 3700
$Comp
L Device:C C16
U 1 1 5DC829BF
P 7300 3950
F 0 "C16" H 7325 4050 50  0000 L CNN
F 1 "0.1uF" H 7325 3850 50  0000 L CNN
F 2 "Capacitor_SMD:C_0603_1608Metric" H 7338 3800 50  0001 C CNN
F 3 "" H 7300 3950 50  0001 C CNN
	1    7300 3950
	1    0    0    -1  
$EndComp
Connection ~ 7300 3700
Wire Wire Line
	7600 3700 7600 3800
Connection ~ 7600 3700
Wire Wire Line
	8100 4000 8100 4150
Wire Wire Line
	7600 4100 7600 4150
$Comp
L Device:C C13
U 1 1 5DC82EF1
P 8700 3850
F 0 "C13" H 8725 3950 50  0000 L CNN
F 1 "1uF" H 8725 3750 50  0000 L CNN
F 2 "Capacitor_SMD:C_0603_1608Metric" H 8738 3700 50  0001 C CNN
F 3 "" H 8700 3850 50  0001 C CNN
	1    8700 3850
	1    0    0    -1  
$EndComp
Wire Wire Line
	8850 3700 8850 3650
Connection ~ 8700 3700
$Comp
L power:+5V #PWR014
U 1 1 5DC8315F
P 8850 3650
F 0 "#PWR014" H 8850 3500 50  0001 C CNN
F 1 "+5V" H 8850 3790 50  0000 C CNN
F 2 "" H 8850 3650 50  0001 C CNN
F 3 "" H 8850 3650 50  0001 C CNN
	1    8850 3650
	1    0    0    -1  
$EndComp
$Comp
L Connector_Generic:Conn_01x01 J15
U 1 1 5DDD76B3
P 1900 4100
F 0 "J15" H 1900 4200 50  0000 C CNN
F 1 "Conn_01x01" H 1900 4000 50  0000 C CNN
F 2 "Connector_PinHeader_2.54mm:PinHeader_1x01_P2.54mm_Vertical" H 1900 4100 50  0001 C CNN
F 3 "" H 1900 4100 50  0001 C CNN
	1    1900 4100
	-1   0    0    1   
$EndComp
Text Notes 1600 4350 0    60   ~ 0
test point
$Comp
L Regulator_Linear:LD3985G18R_TSOT23 U4
U 1 1 5DDECE47
P 9400 3800
F 0 "U4" H 9240 4020 50  0000 C CNN
F 1 "LD3985G18R_TSOT23" H 9400 4020 50  0000 L CNN
F 2 "Package_TO_SOT_SMD:TSOT-23-5" H 9400 4125 50  0001 C CIN
F 3 "" H 9400 3850 50  0001 C CNN
	1    9400 3800
	1    0    0    -1  
$EndComp
$Comp
L Device:C C18
U 1 1 5DDECF5F
P 9850 3950
F 0 "C18" H 9875 4050 50  0000 L CNN
F 1 "10nF" H 9875 3850 50  0000 L CNN
F 2 "Capacitor_SMD:C_0603_1608Metric" H 9888 3800 50  0001 C CNN
F 3 "" H 9850 3950 50  0001 C CNN
	1    9850 3950
	1    0    0    -1  
$EndComp
Wire Wire Line
	9850 4100 9850 4150
Wire Wire Line
	9700 3800 9850 3800
$Comp
L Device:C C14
U 1 1 5DDED750
P 10250 3900
F 0 "C14" H 10275 4000 50  0000 L CNN
F 1 "1uF" H 10275 3800 50  0000 L CNN
F 2 "Capacitor_SMD:C_0603_1608Metric" H 10288 3750 50  0001 C CNN
F 3 "" H 10250 3900 50  0001 C CNN
	1    10250 3900
	1    0    0    1   
$EndComp
Wire Wire Line
	9700 3700 10250 3700
Wire Wire Line
	10250 3750 10250 3700
Connection ~ 10250 3700
Wire Wire Line
	10250 4150 10250 4050
Wire Wire Line
	5350 4150 5850 4150
Connection ~ 9850 4150
Wire Wire Line
	9400 4100 9400 4150
Connection ~ 9400 4150
$Comp
L Connector:TestPoint_Alt TP1
U 1 1 5DDEE4E4
P 7050 2000
F 0 "TP1" H 7050 2300 50  0000 C BNN
F 1 "TEST" H 7050 2250 50  0000 C CNN
F 2 "TestPoint:TestPoint_Pad_D1.0mm" H 7050 2000 50  0001 C CNN
F 3 "" H 7050 2000 50  0001 C CNN
	1    7050 2000
	1    0    0    -1  
$EndComp
Wire Wire Line
	7050 2000 7050 2050
Connection ~ 7050 2050
Connection ~ 8850 3700
$Comp
L power:+3V0 #PWR015
U 1 1 5DDEE876
P 10850 3700
F 0 "#PWR015" H 10850 3550 50  0001 C CNN
F 1 "+3V0" H 10850 3840 50  0000 C CNN
F 2 "" H 10850 3700 50  0000 C CNN
F 3 "" H 10850 3700 50  0000 C CNN
	1    10850 3700
	1    0    0    -1  
$EndComp
Wire Wire Line
	8400 3700 8700 3700
Wire Wire Line
	7300 4200 7300 4150
Connection ~ 7300 4150
Connection ~ 7600 4150
Connection ~ 8100 4150
Wire Wire Line
	8700 4000 8700 4150
Connection ~ 8700 4150
Wire Wire Line
	9100 3800 9050 3800
Wire Wire Line
	9050 3800 9050 3700
Connection ~ 9050 3700
Wire Wire Line
	2650 2050 2850 2050
Wire Wire Line
	5350 4100 5350 4150
Wire Wire Line
	4000 2050 4200 2050
Wire Wire Line
	5350 2450 5850 2450
Wire Wire Line
	5350 3700 5850 3700
Wire Wire Line
	5350 3700 5350 3750
Wire Wire Line
	5350 2050 5850 2050
Wire Wire Line
	6150 2050 6550 2050
Wire Wire Line
	6150 3700 6550 3700
Wire Wire Line
	5850 2050 6150 2050
Wire Wire Line
	5850 2450 6150 2450
Wire Wire Line
	5850 3700 6150 3700
Wire Wire Line
	7300 3700 7600 3700
Wire Wire Line
	7600 3700 7800 3700
Wire Wire Line
	8700 3700 8850 3700
Wire Wire Line
	10250 3700 10600 3700
Wire Wire Line
	9850 4150 10250 4150
Wire Wire Line
	9400 4150 9850 4150
Wire Wire Line
	7050 2050 6850 2050
Wire Wire Line
	8850 3700 9050 3700
Wire Wire Line
	7300 4150 7600 4150
Wire Wire Line
	7600 4150 8100 4150
Wire Wire Line
	8100 4150 8400 4150
Wire Wire Line
	8700 4150 9400 4150
Wire Wire Line
	9050 3700 9100 3700
Connection ~ 6150 4150
Wire Wire Line
	6150 4150 7000 4150
Wire Wire Line
	5850 4150 5850 4050
Connection ~ 5850 4150
Wire Wire Line
	5850 4150 6150 4150
$Comp
L Connector:TestPoint_Alt TP2
U 1 1 5DEC2D65
P 7000 3650
F 0 "TP2" H 7000 3950 50  0000 C BNN
F 1 "TEST" H 7000 3900 50  0000 C CNN
F 2 "TestPoint:TestPoint_Pad_D1.0mm" H 7000 3650 50  0001 C CNN
F 3 "" H 7000 3650 50  0001 C CNN
	1    7000 3650
	1    0    0    -1  
$EndComp
Wire Wire Line
	7000 3650 7000 3700
Connection ~ 7000 3700
Wire Wire Line
	7000 3700 7300 3700
Wire Wire Line
	6150 2050 6150 2150
Wire Wire Line
	6150 2350 6150 2450
Wire Wire Line
	6150 3700 6150 3800
Wire Wire Line
	6150 4000 6150 4150
$Comp
L Regulator_Linear:LD1117S50TR_SOT223 U2
U 1 1 5E180828
P 8100 3700
F 0 "U2" H 8100 3942 50  0000 C CNN
F 1 "LD1117S50TR" H 8100 3851 50  0000 C CNN
F 2 "Package_TO_SOT_SMD:SOT-223-3_TabPin2" H 8100 3900 50  0001 C CNN
F 3 "http://www.st.com/st-web-ui/static/active/en/resource/technical/document/datasheet/CD00000544.pdf" H 8200 3450 50  0001 C CNN
	1    8100 3700
	1    0    0    -1  
$EndComp
$Comp
L Connector:TestPoint_Alt TP3
U 1 1 5E19877B
P 8700 3650
F 0 "TP3" H 8700 3950 50  0000 C BNN
F 1 "TEST" H 8700 3900 50  0000 C CNN
F 2 "TestPoint:TestPoint_Pad_D1.0mm" H 8700 3650 50  0001 C CNN
F 3 "" H 8700 3650 50  0001 C CNN
	1    8700 3650
	1    0    0    -1  
$EndComp
Wire Wire Line
	8700 3650 8700 3700
$Comp
L Device:C C7
U 1 1 5E1A8929
P 7050 2250
F 0 "C7" H 7075 2350 50  0000 L CNN
F 1 "1uF" H 7075 2150 50  0000 L CNN
F 2 "Capacitor_SMD:C_0603_1608Metric" H 7088 2100 50  0001 C CNN
F 3 "" H 7050 2250 50  0001 C CNN
	1    7050 2250
	1    0    0    -1  
$EndComp
$Comp
L Device:C C8
U 1 1 5E1AC1AF
P 7300 2250
F 0 "C8" H 7325 2350 50  0000 L CNN
F 1 "0.1uF" H 7325 2150 50  0000 L CNN
F 2 "Capacitor_SMD:C_0603_1608Metric" H 7338 2100 50  0001 C CNN
F 3 "" H 7300 2250 50  0001 C CNN
	1    7300 2250
	1    0    0    -1  
$EndComp
Wire Wire Line
	7300 2400 7300 2450
Wire Wire Line
	7300 2450 7050 2450
Connection ~ 6150 2450
Wire Wire Line
	7050 2400 7050 2450
Connection ~ 7050 2450
Wire Wire Line
	7050 2450 6150 2450
Wire Wire Line
	5150 3700 5200 3700
Wire Wire Line
	5150 2450 5200 2450
Wire Wire Line
	5200 2450 5200 3700
Connection ~ 5200 3700
Wire Wire Line
	5200 3700 5350 3700
Wire Wire Line
	7300 2100 7300 2050
Connection ~ 7300 2050
Wire Wire Line
	7300 2050 7050 2050
Wire Wire Line
	7050 2100 7050 2050
$Comp
L Device:C C9
U 1 1 5E1C27CA
P 7600 2250
F 0 "C9" H 7625 2350 50  0000 L CNN
F 1 "10nF" H 7625 2150 50  0000 L CNN
F 2 "Capacitor_SMD:C_0603_1608Metric" H 7638 2100 50  0001 C CNN
F 3 "" H 7600 2250 50  0001 C CNN
	1    7600 2250
	1    0    0    -1  
$EndComp
Wire Wire Line
	7300 2450 7600 2450
Wire Wire Line
	7600 2450 7600 2400
Connection ~ 7300 2450
Wire Wire Line
	7600 2050 7600 2100
Connection ~ 7600 2050
Wire Wire Line
	7600 2050 7300 2050
$Comp
L power:GND #PWR08
U 1 1 5E1CA945
P 6150 2500
F 0 "#PWR08" H 6150 2250 50  0001 C CNN
F 1 "GND" H 6150 2350 50  0000 C CNN
F 2 "" H 6150 2500 50  0001 C CNN
F 3 "" H 6150 2500 50  0001 C CNN
	1    6150 2500
	1    0    0    -1  
$EndComp
Wire Wire Line
	6150 2450 6150 2500
$Comp
L Device:C C15
U 1 1 5E1CF138
P 7000 3950
F 0 "C15" H 7025 4050 50  0000 L CNN
F 1 "1uF" H 7025 3850 50  0000 L CNN
F 2 "Capacitor_SMD:C_0603_1608Metric" H 7038 3800 50  0001 C CNN
F 3 "" H 7000 3950 50  0001 C CNN
	1    7000 3950
	1    0    0    -1  
$EndComp
$Comp
L Device:C C17
U 1 1 5E1CFA15
P 7600 3950
F 0 "C17" H 7625 4050 50  0000 L CNN
F 1 "10nF" H 7625 3850 50  0000 L CNN
F 2 "Capacitor_SMD:C_0603_1608Metric" H 7638 3800 50  0001 C CNN
F 3 "" H 7600 3950 50  0001 C CNN
	1    7600 3950
	1    0    0    -1  
$EndComp
Wire Wire Line
	7300 3700 7300 3800
Wire Wire Line
	7000 3700 7000 3800
Wire Wire Line
	7000 4100 7000 4150
Connection ~ 7000 4150
Wire Wire Line
	7000 4150 7300 4150
Wire Wire Line
	7300 4150 7300 4100
$Comp
L Device:Polyfuse_Small F1
U 1 1 5E1AA127
P 2950 2050
F 0 "F1" V 2745 2050 50  0000 C CNN
F 1 "100mA" V 2836 2050 50  0000 C CNN
F 2 "Resistor_SMD:R_1210_3225Metric" H 3000 1850 50  0001 L CNN
F 3 "~" H 2950 2050 50  0001 C CNN
	1    2950 2050
	0    1    1    0   
$EndComp
$Comp
L power:GND #PWR?
U 1 1 5E2FEACE
P 1100 6300
AR Path="/5E564C74/5E2FEACE" Ref="#PWR?"  Part="1" 
AR Path="/5E16FCC2/5E2FEACE" Ref="#PWR?"  Part="1" 
AR Path="/5E19D482/5E2FEACE" Ref="#PWR?"  Part="1" 
AR Path="/5DB5CB48/5E2FEACE" Ref="#PWR09"  Part="1" 
F 0 "#PWR09" H 1100 6050 50  0001 C CNN
F 1 "GND" H 1100 6150 50  0000 C CNN
F 2 "" H 1100 6300 50  0001 C CNN
F 3 "" H 1100 6300 50  0001 C CNN
	1    1100 6300
	1    0    0    -1  
$EndComp
$Comp
L power:GND #PWR?
U 1 1 5E33CE8E
P 1550 5950
AR Path="/5E564C74/5E33CE8E" Ref="#PWR?"  Part="1" 
AR Path="/5E16FCC2/5E33CE8E" Ref="#PWR?"  Part="1" 
AR Path="/5E19D482/5E33CE8E" Ref="#PWR?"  Part="1" 
AR Path="/5DB5CB48/5E33CE8E" Ref="#PWR011"  Part="1" 
F 0 "#PWR011" H 1550 5700 50  0001 C CNN
F 1 "GND" H 1550 5800 50  0000 C CNN
F 2 "" H 1550 5950 50  0001 C CNN
F 3 "" H 1550 5950 50  0001 C CNN
	1    1550 5950
	-1   0    0    -1  
$EndComp
Wire Wire Line
	1550 5900 1550 5950
$Comp
L power:GND #PWR?
U 1 1 5E3602F7
P 2000 5600
AR Path="/5E564C74/5E3602F7" Ref="#PWR?"  Part="1" 
AR Path="/5E16FCC2/5E3602F7" Ref="#PWR?"  Part="1" 
AR Path="/5E19D482/5E3602F7" Ref="#PWR?"  Part="1" 
AR Path="/5DB5CB48/5E3602F7" Ref="#PWR012"  Part="1" 
F 0 "#PWR012" H 2000 5350 50  0001 C CNN
F 1 "GND" H 2000 5450 50  0000 C CNN
F 2 "" H 2000 5600 50  0001 C CNN
F 3 "" H 2000 5600 50  0001 C CNN
	1    2000 5600
	-1   0    0    -1  
$EndComp
Wire Wire Line
	2000 5550 2000 5600
Wire Wire Line
	2000 5250 2000 5200
$Comp
L Connector:TestPoint_Alt TP48
U 1 1 5E5C7AE9
P 10600 3700
F 0 "TP48" H 10600 4000 50  0000 C BNN
F 1 "TEST" H 10600 3950 50  0000 C CNN
F 2 "TestPoint:TestPoint_Pad_D1.0mm" H 10600 3700 50  0001 C CNN
F 3 "" H 10600 3700 50  0001 C CNN
	1    10600 3700
	1    0    0    -1  
$EndComp
Connection ~ 10600 3700
Wire Wire Line
	10600 3700 10850 3700
$Comp
L Regulator_Linear:LD1117S50TR_SOT223 U21
U 1 1 5E8B0DE0
P 2350 1750
F 0 "U21" H 2350 1992 50  0000 C CNN
F 1 "LD1117S50TR" H 2350 1901 50  0000 C CNN
F 2 "Package_TO_SOT_SMD:SOT-223-3_TabPin2" H 2350 1950 50  0001 C CNN
F 3 "http://www.st.com/st-web-ui/static/active/en/resource/technical/document/datasheet/CD00000544.pdf" H 2450 1500 50  0001 C CNN
	1    2350 1750
	-1   0    0    -1  
$EndComp
$Comp
L Device:C C71
U 1 1 5E8BA30C
P 2000 1950
F 0 "C71" H 2025 2050 50  0000 L CNN
F 1 "1uF" H 2025 1850 50  0000 L CNN
F 2 "Capacitor_SMD:C_0603_1608Metric" H 2038 1800 50  0001 C CNN
F 3 "" H 2000 1950 50  0001 C CNN
	1    2000 1950
	1    0    0    -1  
$EndComp
Text HLabel 1400 1750 0    60   Output ~ 0
IsolatedPower5V
Wire Wire Line
	1400 1750 1750 1750
Wire Wire Line
	2000 1750 2000 1800
Connection ~ 2000 1750
Wire Wire Line
	2000 1750 2050 1750
Wire Wire Line
	2350 2050 2350 2100
Wire Wire Line
	2350 2100 2150 2100
Wire Wire Line
	2150 4100 3250 4100
Wire Wire Line
	1450 1100 1650 1100
Wire Wire Line
	2650 1100 2650 1750
Wire Wire Line
	2650 1750 2650 2050
Connection ~ 2650 1750
Wire Wire Line
	2150 2450 2150 2100
Connection ~ 2150 2100
Wire Wire Line
	2150 2100 2000 2100
$Comp
L Device:D_TVS D?
U 1 1 5F0B46BD
P 1650 1300
AR Path="/5DC24124/5F0B46BD" Ref="D?"  Part="1" 
AR Path="/5F0B46BD" Ref="D?"  Part="1" 
AR Path="/5DB5CB48/5F0B46BD" Ref="D13"  Part="1" 
F 0 "D13" H 1650 1400 50  0000 C CNN
F 1 "CGA0402MLC-24G" H 1650 1200 50  0001 C CNN
F 2 "Resistor_SMD:R_0402_1005Metric" H 1650 1300 50  0001 C CNN
F 3 "" H 1650 1300 50  0001 C CNN
	1    1650 1300
	0    -1   1    0   
$EndComp
$Comp
L Device:D_TVS D?
U 1 1 5F0B9904
P 1750 1950
AR Path="/5DC24124/5F0B9904" Ref="D?"  Part="1" 
AR Path="/5F0B9904" Ref="D?"  Part="1" 
AR Path="/5DB5CB48/5F0B9904" Ref="D14"  Part="1" 
F 0 "D14" H 1750 2050 50  0000 C CNN
F 1 "CGA0402MLC-24G" H 1750 1850 50  0001 C CNN
F 2 "Resistor_SMD:R_0402_1005Metric" H 1750 1950 50  0001 C CNN
F 3 "" H 1750 1950 50  0001 C CNN
	1    1750 1950
	0    -1   1    0   
$EndComp
Wire Wire Line
	1750 2100 1750 2450
Connection ~ 1750 2450
Wire Wire Line
	1750 2450 2150 2450
Wire Wire Line
	1650 1450 1650 2450
Connection ~ 1650 2450
Wire Wire Line
	1650 2450 1750 2450
Wire Wire Line
	1650 1150 1650 1100
Connection ~ 1650 1100
Wire Wire Line
	1650 1100 2650 1100
Wire Wire Line
	1750 1800 1750 1750
Connection ~ 1750 1750
Wire Wire Line
	1750 1750 2000 1750
$Comp
L Connector:TestPoint_Alt TP53
U 1 1 5E818BDA
P 4200 2050
F 0 "TP53" H 4200 2350 50  0000 C BNN
F 1 "TEST" H 4200 2300 50  0000 C CNN
F 2 "TestPoint:TestPoint_Pad_D1.0mm" H 4200 2050 50  0001 C CNN
F 3 "" H 4200 2050 50  0001 C CNN
	1    4200 2050
	1    0    0    -1  
$EndComp
Connection ~ 4200 2050
Wire Wire Line
	4200 2050 4250 2050
Wire Wire Line
	5150 4100 5350 4100
Wire Wire Line
	5150 2050 5350 2050
Wire Wire Line
	4000 2450 4250 2450
Wire Wire Line
	4000 3700 4250 3700
$Comp
L Device:CP C?
U 1 1 5F180EF8
P 8400 3950
AR Path="/5E19D482/5F180EF8" Ref="C?"  Part="1" 
AR Path="/5DB5CB48/5F180EF8" Ref="C85"  Part="1" 
F 0 "C85" H 8425 4050 50  0000 L CNN
F 1 "10uF 50V" H 8425 3850 50  0000 L CNN
F 2 "Capacitor_SMD:CP_Elec_5x5.8" H 8438 3800 50  0001 C CNN
F 3 "" H 8400 3950 50  0001 C CNN
	1    8400 3950
	1    0    0    -1  
$EndComp
Wire Wire Line
	8400 4100 8400 4150
Connection ~ 8400 4150
Wire Wire Line
	8400 4150 8700 4150
Wire Wire Line
	8400 3800 8400 3700
Connection ~ 8400 3700
$Comp
L Device:CP C?
U 1 1 600866A1
P 10600 3900
AR Path="/5E19D482/600866A1" Ref="C?"  Part="1" 
AR Path="/5DB5CB48/600866A1" Ref="C118"  Part="1" 
F 0 "C118" H 10625 4000 50  0000 L CNN
F 1 "10uF 50V" H 10625 3800 50  0000 L CNN
F 2 "Capacitor_SMD:CP_Elec_5x5.8" H 10638 3750 50  0001 C CNN
F 3 "" H 10600 3900 50  0001 C CNN
	1    10600 3900
	1    0    0    -1  
$EndComp
Wire Wire Line
	10600 4050 10600 4150
Wire Wire Line
	10600 4150 10250 4150
Connection ~ 10250 4150
Wire Wire Line
	10600 3750 10600 3700
Wire Wire Line
	4000 4100 4250 4100
$Comp
L power:+24V #PWR0108
U 1 1 60C2948D
P 1100 4850
F 0 "#PWR0108" H 1100 4700 50  0001 C CNN
F 1 "+24V" H 1100 4990 50  0000 C CNN
F 2 "" H 1100 4850 50  0001 C CNN
F 3 "" H 1100 4850 50  0001 C CNN
	1    1100 4850
	1    0    0    -1  
$EndComp
Wire Wire Line
	1100 4850 1100 4900
$Comp
L power:+12V #PWR0181
U 1 1 60C7E5B7
P 1550 4850
F 0 "#PWR0181" H 1550 4700 50  0001 C CNN
F 1 "+12V" H 1550 4990 50  0000 C CNN
F 2 "" H 1550 4850 50  0001 C CNN
F 3 "" H 1550 4850 50  0001 C CNN
	1    1550 4850
	1    0    0    -1  
$EndComp
$Comp
L power:+5V #PWR0187
U 1 1 60CA9E45
P 2000 4850
F 0 "#PWR0187" H 2000 4700 50  0001 C CNN
F 1 "+5V" H 2000 4990 50  0000 C CNN
F 2 "" H 2000 4850 50  0001 C CNN
F 3 "" H 2000 4850 50  0001 C CNN
	1    2000 4850
	1    0    0    -1  
$EndComp
$Comp
L power:+3V0 #PWR0206
U 1 1 60CC6274
P 2550 4850
F 0 "#PWR0206" H 2550 4700 50  0001 C CNN
F 1 "+3V0" H 2550 4990 50  0000 C CNN
F 2 "" H 2550 4850 50  0000 C CNN
F 3 "" H 2550 4850 50  0000 C CNN
	1    2550 4850
	1    0    0    -1  
$EndComp
Wire Wire Line
	2000 4850 2000 4900
Wire Wire Line
	2550 4850 2550 4900
$Comp
L power:VDDA #PWR?
U 1 1 60D4F119
P 3100 4850
AR Path="/5DC5AE9C/60D4F119" Ref="#PWR?"  Part="1" 
AR Path="/5DB5CB48/60D4F119" Ref="#PWR0215"  Part="1" 
F 0 "#PWR0215" H 3100 4700 50  0001 C CNN
F 1 "VDDA" H 3100 5000 50  0000 C CNN
F 2 "" H 3100 4850 50  0001 C CNN
F 3 "" H 3100 4850 50  0001 C CNN
	1    3100 4850
	1    0    0    -1  
$EndComp
$Comp
L power:VSSA #PWR?
U 1 1 60D4F11F
P 3650 4850
AR Path="/5DC5AE9C/60D4F11F" Ref="#PWR?"  Part="1" 
AR Path="/5DB5CB48/60D4F11F" Ref="#PWR0222"  Part="1" 
F 0 "#PWR0222" H 3650 4700 50  0001 C CNN
F 1 "VSSA" H 3650 5000 50  0000 C CNN
F 2 "" H 3650 4850 50  0001 C CNN
F 3 "" H 3650 4850 50  0001 C CNN
	1    3650 4850
	1    0    0    -1  
$EndComp
$Comp
L power:+3V0 #PWR0230
U 1 1 60DA0766
P 3650 5700
F 0 "#PWR0230" H 3650 5550 50  0001 C CNN
F 1 "+3V0" H 3650 5840 50  0000 C CNN
F 2 "" H 3650 5700 50  0000 C CNN
F 3 "" H 3650 5700 50  0000 C CNN
	1    3650 5700
	-1   0    0    1   
$EndComp
Wire Wire Line
	3650 4900 3650 4850
Wire Wire Line
	3650 5700 3650 5650
$Comp
L power:GND #PWR?
U 1 1 60DE8653
P 4150 5700
AR Path="/5E564C74/60DE8653" Ref="#PWR?"  Part="1" 
AR Path="/5E16FCC2/60DE8653" Ref="#PWR?"  Part="1" 
AR Path="/5E19D482/60DE8653" Ref="#PWR?"  Part="1" 
AR Path="/5DB5CB48/60DE8653" Ref="#PWR0249"  Part="1" 
F 0 "#PWR0249" H 4150 5450 50  0001 C CNN
F 1 "GND" H 4150 5550 50  0000 C CNN
F 2 "" H 4150 5700 50  0001 C CNN
F 3 "" H 4150 5700 50  0001 C CNN
	1    4150 5700
	1    0    0    -1  
$EndComp
$Comp
L power:-5V #PWR?
U 1 1 60E1B5CD
P 4150 4850
AR Path="/5E564C74/60E1B5CD" Ref="#PWR?"  Part="1" 
AR Path="/5E16FCC2/60E1B5CD" Ref="#PWR?"  Part="1" 
AR Path="/5E19D482/60E1B5CD" Ref="#PWR?"  Part="1" 
AR Path="/5DB5CB48/60E1B5CD" Ref="#PWR0250"  Part="1" 
F 0 "#PWR0250" H 4150 4950 50  0001 C CNN
F 1 "-5V" H 4150 5000 50  0000 C CNN
F 2 "" H 4150 4850 50  0001 C CNN
F 3 "" H 4150 4850 50  0001 C CNN
	1    4150 4850
	1    0    0    -1  
$EndComp
Wire Wire Line
	4150 4850 4150 4900
Wire Wire Line
	4150 5600 4150 5700
Wire Wire Line
	4150 5200 4150 5300
Wire Wire Line
	3600 5300 3600 5250
$Comp
L Device:R R?
U 1 1 60DE864C
P 4150 5450
AR Path="/5E19D482/60DE864C" Ref="R?"  Part="1" 
AR Path="/5DB5CB48/60DE864C" Ref="R71"  Part="1" 
F 0 "R71" H 4220 5496 50  0000 L CNN
F 1 "10K" H 4220 5405 50  0000 L CNN
F 2 "Resistor_SMD:R_0603_1608Metric" V 4080 5450 50  0001 C CNN
F 3 "~" H 4150 5450 50  0001 C CNN
	1    4150 5450
	-1   0    0    -1  
$EndComp
$Comp
L Device:LED D?
U 1 1 60DE8646
P 4150 5050
AR Path="/5E19D482/60DE8646" Ref="D?"  Part="1" 
AR Path="/5DB5CB48/60DE8646" Ref="D30"  Part="1" 
F 0 "D30" V 4097 5128 50  0000 L CNN
F 1 "LED" V 4188 5128 50  0000 L CNN
F 2 "Resistor_SMD:R_0603_1608Metric" H 4150 5050 50  0001 C CNN
F 3 "~" H 4150 5050 50  0001 C CNN
	1    4150 5050
	0    1    1    0   
$EndComp
Wire Wire Line
	3700 5250 3700 5300
Wire Wire Line
	3650 5650 3700 5650
Connection ~ 3650 5650
Wire Wire Line
	3650 5650 3600 5650
Wire Wire Line
	3600 5650 3600 5600
Wire Wire Line
	3700 5650 3700 5600
Wire Wire Line
	3650 5200 3650 5250
Wire Wire Line
	3650 5250 3700 5250
Wire Wire Line
	3600 5250 3650 5250
Connection ~ 3650 5250
$Comp
L Device:R R?
U 1 1 60D4F113
P 3600 5450
AR Path="/5E19D482/60D4F113" Ref="R?"  Part="1" 
AR Path="/5DB5CB48/60D4F113" Ref="R48"  Part="1" 
AR Path="/5DC5AE9C/60D4F113" Ref="R?"  Part="1" 
F 0 "R48" H 3530 5404 50  0000 R CNN
F 1 "10K" H 3530 5495 50  0000 R CNN
F 2 "Resistor_SMD:R_0603_1608Metric" V 3530 5450 50  0001 C CNN
F 3 "~" H 3600 5450 50  0001 C CNN
	1    3600 5450
	1    0    0    -1  
$EndComp
$Comp
L Device:R R?
U 1 1 5E360303
P 3700 5450
AR Path="/5E19D482/5E360303" Ref="R?"  Part="1" 
AR Path="/5DB5CB48/5E360303" Ref="R8"  Part="1" 
F 0 "R8" V 3907 5450 50  0000 C CNN
F 1 "10K" V 3816 5450 50  0000 C CNN
F 2 "Resistor_SMD:R_0603_1608Metric" V 3630 5450 50  0001 C CNN
F 3 "~" H 3700 5450 50  0001 C CNN
	1    3700 5450
	1    0    0    -1  
$EndComp
$Comp
L Device:LED D?
U 1 1 60DA0F90
P 3650 5050
AR Path="/5E19D482/60DA0F90" Ref="D?"  Part="1" 
AR Path="/5DB5CB48/60DA0F90" Ref="D28"  Part="1" 
AR Path="/5DC5AE9C/60DA0F90" Ref="D?"  Part="1" 
F 0 "D28" V 3689 4933 50  0000 R CNN
F 1 "LED" V 3598 4933 50  0000 R CNN
F 2 "Resistor_SMD:R_0603_1608Metric" H 3650 5050 50  0001 C CNN
F 3 "~" H 3650 5050 50  0001 C CNN
	1    3650 5050
	0    1    1    0   
$EndComp
Wire Wire Line
	3100 4900 3100 4850
Wire Wire Line
	3150 5250 3150 5300
Wire Wire Line
	3100 5250 3150 5250
Wire Wire Line
	3100 5250 3050 5250
Connection ~ 3100 5250
Wire Wire Line
	3100 5200 3100 5250
Wire Wire Line
	3050 5250 3050 5300
Wire Wire Line
	3050 5600 3050 5650
$Comp
L power:GND #PWR?
U 1 1 60D9E1FC
P 3050 5650
AR Path="/5E564C74/60D9E1FC" Ref="#PWR?"  Part="1" 
AR Path="/5E16FCC2/60D9E1FC" Ref="#PWR?"  Part="1" 
AR Path="/5E19D482/60D9E1FC" Ref="#PWR?"  Part="1" 
AR Path="/5DB5CB48/60D9E1FC" Ref="#PWR0229"  Part="1" 
F 0 "#PWR0229" H 3050 5400 50  0001 C CNN
F 1 "GND" H 3050 5500 50  0000 C CNN
F 2 "" H 3050 5650 50  0001 C CNN
F 3 "" H 3050 5650 50  0001 C CNN
	1    3050 5650
	-1   0    0    -1  
$EndComp
Connection ~ 3050 5650
Wire Wire Line
	3050 5650 3150 5650
Wire Wire Line
	3150 5650 3150 5600
$Comp
L Device:R R?
U 1 1 60D4F10D
P 3150 5450
AR Path="/5E19D482/60D4F10D" Ref="R?"  Part="1" 
AR Path="/5DB5CB48/60D4F10D" Ref="R39"  Part="1" 
AR Path="/5DC5AE9C/60D4F10D" Ref="R?"  Part="1" 
F 0 "R39" H 3080 5404 50  0000 R CNN
F 1 "10K" H 3080 5495 50  0000 R CNN
F 2 "Resistor_SMD:R_0603_1608Metric" V 3080 5450 50  0001 C CNN
F 3 "~" H 3150 5450 50  0001 C CNN
	1    3150 5450
	-1   0    0    -1  
$EndComp
$Comp
L Device:R R?
U 1 1 60D4F107
P 3050 5450
AR Path="/5E19D482/60D4F107" Ref="R?"  Part="1" 
AR Path="/5DB5CB48/60D4F107" Ref="R9"  Part="1" 
AR Path="/5DC5AE9C/60D4F107" Ref="R?"  Part="1" 
F 0 "R9" H 2980 5404 50  0000 R CNN
F 1 "10K" H 2980 5495 50  0000 R CNN
F 2 "Resistor_SMD:R_0603_1608Metric" V 2980 5450 50  0001 C CNN
F 3 "~" H 3050 5450 50  0001 C CNN
	1    3050 5450
	1    0    0    -1  
$EndComp
$Comp
L Device:LED D?
U 1 1 60D4F101
P 3100 5050
AR Path="/5E19D482/60D4F101" Ref="D?"  Part="1" 
AR Path="/5DB5CB48/60D4F101" Ref="D12"  Part="1" 
AR Path="/5DC5AE9C/60D4F101" Ref="D?"  Part="1" 
F 0 "D12" V 3139 4933 50  0000 R CNN
F 1 "LED" V 3048 4933 50  0000 R CNN
F 2 "Resistor_SMD:R_0603_1608Metric" H 3100 5050 50  0001 C CNN
F 3 "~" H 3100 5050 50  0001 C CNN
	1    3100 5050
	0    -1   -1   0   
$EndComp
Wire Wire Line
	2500 5250 2550 5250
Wire Wire Line
	2600 5250 2550 5250
Connection ~ 2550 5250
Wire Wire Line
	2550 5250 2550 5200
Wire Wire Line
	2600 5650 2500 5650
$Comp
L power:GND #PWR?
U 1 1 5E3AB9F8
P 2500 5650
AR Path="/5E564C74/5E3AB9F8" Ref="#PWR?"  Part="1" 
AR Path="/5E16FCC2/5E3AB9F8" Ref="#PWR?"  Part="1" 
AR Path="/5E19D482/5E3AB9F8" Ref="#PWR?"  Part="1" 
AR Path="/5DB5CB48/5E3AB9F8" Ref="#PWR010"  Part="1" 
F 0 "#PWR010" H 2500 5400 50  0001 C CNN
F 1 "GND" H 2500 5500 50  0000 C CNN
F 2 "" H 2500 5650 50  0001 C CNN
F 3 "" H 2500 5650 50  0001 C CNN
	1    2500 5650
	-1   0    0    -1  
$EndComp
$Comp
L Device:LED D?
U 1 1 5E3AAA14
P 2550 5050
AR Path="/5E19D482/5E3AAA14" Ref="D?"  Part="1" 
AR Path="/5DB5CB48/5E3AAA14" Ref="D8"  Part="1" 
F 0 "D8" V 2589 4933 50  0000 R CNN
F 1 "LED" V 2498 4933 50  0000 R CNN
F 2 "Resistor_SMD:R_0603_1608Metric" H 2550 5050 50  0001 C CNN
F 3 "~" H 2550 5050 50  0001 C CNN
	1    2550 5050
	0    -1   -1   0   
$EndComp
Connection ~ 2500 5650
Wire Wire Line
	2500 5600 2500 5650
Wire Wire Line
	2600 5650 2600 5600
Wire Wire Line
	2500 5300 2500 5250
Wire Wire Line
	2600 5300 2600 5250
$Comp
L Device:R R?
U 1 1 6029A820
P 2500 5450
AR Path="/5E19D482/6029A820" Ref="R?"  Part="1" 
AR Path="/5DB5CB48/6029A820" Ref="R64"  Part="1" 
F 0 "R64" H 2430 5404 50  0000 R CNN
F 1 "10K" H 2430 5495 50  0000 R CNN
F 2 "Resistor_SMD:R_0603_1608Metric" V 2430 5450 50  0001 C CNN
F 3 "~" H 2500 5450 50  0001 C CNN
	1    2500 5450
	1    0    0    1   
$EndComp
$Comp
L Device:R R?
U 1 1 5E3AB3F0
P 2600 5450
AR Path="/5E19D482/5E3AB3F0" Ref="R?"  Part="1" 
AR Path="/5DB5CB48/5E3AB3F0" Ref="R12"  Part="1" 
F 0 "R12" H 2530 5404 50  0000 R CNN
F 1 "10K" H 2530 5495 50  0000 R CNN
F 2 "Resistor_SMD:R_0603_1608Metric" V 2530 5450 50  0001 C CNN
F 3 "~" H 2600 5450 50  0001 C CNN
	1    2600 5450
	-1   0    0    -1  
$EndComp
$Comp
L Device:R R?
U 1 1 5E3602FD
P 2000 5400
AR Path="/5E19D482/5E3602FD" Ref="R?"  Part="1" 
AR Path="/5DB5CB48/5E3602FD" Ref="R13"  Part="1" 
F 0 "R13" V 2207 5400 50  0000 C CNN
F 1 "10K" V 2116 5400 50  0000 C CNN
F 2 "Resistor_SMD:R_0603_1608Metric" V 1930 5400 50  0001 C CNN
F 3 "~" H 2000 5400 50  0001 C CNN
	1    2000 5400
	1    0    0    1   
$EndComp
$Comp
L Device:LED D?
U 1 1 5E3602EB
P 2000 5050
AR Path="/5E19D482/5E3602EB" Ref="D?"  Part="1" 
AR Path="/5DB5CB48/5E3602EB" Ref="D7"  Part="1" 
F 0 "D7" V 2039 4933 50  0000 R CNN
F 1 "LED" V 1948 4933 50  0000 R CNN
F 2 "Resistor_SMD:R_0603_1608Metric" H 2000 5050 50  0001 C CNN
F 3 "~" H 2000 5050 50  0001 C CNN
	1    2000 5050
	0    -1   -1   0   
$EndComp
Wire Wire Line
	1550 4850 1550 4900
Wire Wire Line
	1550 5250 1550 5200
Wire Wire Line
	1550 5600 1550 5550
$Comp
L Device:R R?
U 1 1 5E33CE9A
P 1550 5750
AR Path="/5E19D482/5E33CE9A" Ref="R?"  Part="1" 
AR Path="/5DB5CB48/5E33CE9A" Ref="R11"  Part="1" 
F 0 "R11" V 1343 5750 50  0000 C CNN
F 1 "10K" V 1434 5750 50  0000 C CNN
F 2 "Resistor_SMD:R_0603_1608Metric" V 1480 5750 50  0001 C CNN
F 3 "~" H 1550 5750 50  0001 C CNN
	1    1550 5750
	-1   0    0    1   
$EndComp
$Comp
L Device:R R?
U 1 1 5E33CE94
P 1550 5400
AR Path="/5E19D482/5E33CE94" Ref="R?"  Part="1" 
AR Path="/5DB5CB48/5E33CE94" Ref="R10"  Part="1" 
F 0 "R10" V 1343 5400 50  0000 C CNN
F 1 "10K" V 1434 5400 50  0000 C CNN
F 2 "Resistor_SMD:R_0603_1608Metric" V 1480 5400 50  0001 C CNN
F 3 "~" H 1550 5400 50  0001 C CNN
	1    1550 5400
	-1   0    0    1   
$EndComp
$Comp
L Device:LED D?
U 1 1 5E33CE82
P 1550 5050
AR Path="/5E19D482/5E33CE82" Ref="D?"  Part="1" 
AR Path="/5DB5CB48/5E33CE82" Ref="D6"  Part="1" 
F 0 "D6" V 1589 4933 50  0000 R CNN
F 1 "LED" V 1498 4933 50  0000 R CNN
F 2 "Resistor_SMD:R_0603_1608Metric" H 1550 5050 50  0001 C CNN
F 3 "~" H 1550 5050 50  0001 C CNN
	1    1550 5050
	0    -1   -1   0   
$EndComp
$Comp
L Device:LED D?
U 1 1 5E2FEAC1
P 1100 5050
AR Path="/5E19D482/5E2FEAC1" Ref="D?"  Part="1" 
AR Path="/5DB5CB48/5E2FEAC1" Ref="D5"  Part="1" 
F 0 "D5" V 1139 4933 50  0000 R CNN
F 1 "LED" V 1048 4933 50  0000 R CNN
F 2 "Resistor_SMD:R_0603_1608Metric" H 1100 5050 50  0001 C CNN
F 3 "~" H 1100 5050 50  0001 C CNN
	1    1100 5050
	0    -1   -1   0   
$EndComp
Wire Wire Line
	1100 6300 1100 6250
Wire Wire Line
	1100 5950 1100 5900
Wire Wire Line
	1100 5600 1100 5550
Wire Wire Line
	1100 5200 1100 5250
$Comp
L Device:R R?
U 1 1 602A68C0
P 1100 5400
AR Path="/5E19D482/602A68C0" Ref="R?"  Part="1" 
AR Path="/5DB5CB48/602A68C0" Ref="R5"  Part="1" 
F 0 "R5" V 893 5400 50  0000 C CNN
F 1 "10K" V 984 5400 50  0000 C CNN
F 2 "Resistor_SMD:R_0603_1608Metric" V 1030 5400 50  0001 C CNN
F 3 "~" H 1100 5400 50  0001 C CNN
	1    1100 5400
	-1   0    0    1   
$EndComp
$Comp
L Device:R R?
U 1 1 5E3273F9
P 1100 6100
AR Path="/5E19D482/5E3273F9" Ref="R?"  Part="1" 
AR Path="/5DB5CB48/5E3273F9" Ref="R7"  Part="1" 
F 0 "R7" V 893 6100 50  0000 C CNN
F 1 "10K" V 984 6100 50  0000 C CNN
F 2 "Resistor_SMD:R_0603_1608Metric" V 1030 6100 50  0001 C CNN
F 3 "~" H 1100 6100 50  0001 C CNN
	1    1100 6100
	-1   0    0    1   
$EndComp
$Comp
L Device:R R?
U 1 1 5E325FC0
P 1100 5750
AR Path="/5E19D482/5E325FC0" Ref="R?"  Part="1" 
AR Path="/5DB5CB48/5E325FC0" Ref="R6"  Part="1" 
F 0 "R6" V 893 5750 50  0000 C CNN
F 1 "10K" V 984 5750 50  0000 C CNN
F 2 "Resistor_SMD:R_0603_1608Metric" V 1030 5750 50  0001 C CNN
F 3 "~" H 1100 5750 50  0001 C CNN
	1    1100 5750
	-1   0    0    1   
$EndComp
$Comp
L Device:R_Small R80
U 1 1 612EAE78
P 8250 2850
F 0 "R80" V 8330 2850 50  0000 C CNN
F 1 "0R_NM" V 8250 2850 50  0000 C CNN
F 2 "Resistor_SMD:R_0603_1608Metric" V 8180 2850 50  0001 C CNN
F 3 "" H 8250 2850 50  0001 C CNN
	1    8250 2850
	1    0    0    -1  
$EndComp
Wire Wire Line
	8250 2750 8250 2050
Wire Wire Line
	8250 2050 7600 2050
Wire Wire Line
	8250 2950 7600 2950
Wire Wire Line
	7600 2950 7600 3700
Text Notes 7750 2700 0    60   ~ 0
for 10V max input, 24V converter and parts would not be mounted
$Comp
L Device:Polyfuse_Small F3
U 1 1 615B76D5
P 2950 3700
F 0 "F3" V 2745 3700 50  0000 C CNN
F 1 "100mA" V 2836 3700 50  0000 C CNN
F 2 "Resistor_SMD:R_1210_3225Metric" H 3000 3500 50  0001 L CNN
F 3 "~" H 2950 3700 50  0001 C CNN
	1    2950 3700
	0    1    1    0   
$EndComp
Wire Wire Line
	3050 3700 3250 3700
Wire Wire Line
	3250 3750 3250 3700
Connection ~ 3250 3700
Wire Wire Line
	3250 3700 3500 3700
Wire Wire Line
	3250 4050 3250 4100
Connection ~ 3250 4100
Wire Wire Line
	3250 4100 4000 4100
Wire Wire Line
	2850 3700 2650 3700
Wire Wire Line
	2650 3700 2650 2050
Connection ~ 2650 2050
Wire Wire Line
	3050 2050 3500 2050
Wire Wire Line
	2150 2450 4000 2450
$EndSCHEMATC
