EESchema Schematic File Version 4
EELAYER 30 0
EELAYER END
$Descr A4 11693 8268
encoding utf-8
Sheet 6 9
Title ""
Date ""
Rev ""
Comp ""
Comment1 ""
Comment2 ""
Comment3 ""
Comment4 ""
$EndDescr
$Comp
L Connector_Generic:Conn_01x03 J20
U 1 1 5DC8FCA5
P 3250 6900
F 0 "J20" H 3250 7100 50  0000 C CNN
F 1 "Conn_01x03" H 3250 6700 50  0001 C CNN
F 2 "Connector_PinHeader_2.54mm:PinHeader_1x03_P2.54mm_Vertical" H 3250 6900 50  0001 C CNN
F 3 "" H 3250 6900 50  0001 C CNN
	1    3250 6900
	0    -1   1    0   
$EndComp
Wire Wire Line
	2850 6700 2850 6650
Wire Wire Line
	3150 6650 3150 6700
$Comp
L Connector:TestPoint_Alt TP26
U 1 1 5DC8FCA7
P 7650 4950
F 0 "TP26" H 7650 5250 50  0000 C BNN
F 1 "TEST" H 7650 5200 50  0000 C CNN
F 2 "TestPoint:TestPoint_Pad_D1.0mm" H 7650 4950 50  0001 C CNN
F 3 "" H 7650 4950 50  0001 C CNN
	1    7650 4950
	1    0    0    -1  
$EndComp
Text HLabel 8100 5000 2    60   Output ~ 0
B
Text HLabel 8100 5600 2    60   Output ~ 0
A
Text HLabel 8100 4350 2    60   Output ~ 0
IsolatedSupply5V
Text HLabel 8100 6000 2    60   Output ~ 0
IsolatedSupplyGnd
Wire Wire Line
	6950 5150 7200 5150
Wire Wire Line
	6950 5450 7100 5450
$Comp
L Device:R_Small R50
U 1 1 5DD9B01B
P 7100 4650
F 0 "R50" H 7130 4670 50  0000 L CNN
F 1 "4K7_NM" H 7130 4610 50  0000 L CNN
F 2 "Resistor_SMD:R_0603_1608Metric" H 7100 4650 50  0001 C CNN
F 3 "" H 7100 4650 50  0001 C CNN
	1    7100 4650
	1    0    0    -1  
$EndComp
Wire Wire Line
	7100 4750 7100 5450
$Comp
L Device:R_Small R51
U 1 1 5DD9B1BC
P 7650 5450
F 0 "R51" H 7680 5470 50  0000 L CNN
F 1 "120R_NM" H 7680 5410 50  0000 L CNN
F 2 "Resistor_SMD:R_0603_1608Metric" H 7650 5450 50  0001 C CNN
F 3 "" H 7650 5450 50  0001 C CNN
	1    7650 5450
	1    0    0    -1  
$EndComp
$Comp
L Device:R_Small R52
U 1 1 5DD9B2C1
P 7200 5850
F 0 "R52" H 7230 5870 50  0000 L CNN
F 1 "4K7_NM" H 7230 5810 50  0000 L CNN
F 2 "Resistor_SMD:R_0603_1608Metric" H 7200 5850 50  0001 C CNN
F 3 "" H 7200 5850 50  0001 C CNN
	1    7200 5850
	1    0    0    -1  
$EndComp
Wire Wire Line
	7200 5150 7200 5750
Wire Wire Line
	7200 5950 7200 6000
Connection ~ 7200 6000
Text HLabel 2850 6300 0    60   Input ~ 0
DE~RE
$Comp
L Connector:TestPoint_Alt TP25
U 1 1 5DE89EEE
P 3450 5100
F 0 "TP25" H 3508 5218 50  0000 L CNN
F 1 "TestPoint_Alt" H 3508 5127 50  0000 L CNN
F 2 "TestPoint:TestPoint_Pad_D1.0mm" H 3650 5100 50  0001 C CNN
F 3 "~" H 3650 5100 50  0001 C CNN
	1    3450 5100
	1    0    0    -1  
$EndComp
$Comp
L Connector:TestPoint_Alt TP27
U 1 1 5DE6FB73
P 3450 5300
F 0 "TP27" H 3508 5418 50  0000 L CNN
F 1 "TestPoint_Alt" H 3508 5327 50  0000 L CNN
F 2 "TestPoint:TestPoint_Pad_D1.0mm" H 3650 5300 50  0001 C CNN
F 3 "~" H 3650 5300 50  0001 C CNN
	1    3450 5300
	-1   0    0    1   
$EndComp
$Comp
L power:GND #PWR065
U 1 1 5DE70178
P 2850 6700
F 0 "#PWR065" H 2850 6450 50  0001 C CNN
F 1 "GND" H 2855 6527 50  0000 C CNN
F 2 "" H 2850 6700 50  0001 C CNN
F 3 "" H 2850 6700 50  0001 C CNN
	1    2850 6700
	1    0    0    -1  
$EndComp
Wire Wire Line
	7200 6000 8100 6000
$Comp
L Device:C_Small C?
U 1 1 5F8BCABF
P 4300 4700
AR Path="/5E56828B/5F8BCABF" Ref="C?"  Part="1" 
AR Path="/5E568147/5F8BCABF" Ref="C?"  Part="1" 
AR Path="/5DC456A4/5F8BCABF" Ref="C36"  Part="1" 
F 0 "C36" H 4310 4770 50  0000 L CNN
F 1 "0.1uF" H 4310 4620 50  0000 L CNN
F 2 "Capacitor_SMD:C_0603_1608Metric" H 4300 4700 50  0001 C CNN
F 3 "" H 4300 4700 50  0001 C CNN
	1    4300 4700
	1    0    0    -1  
$EndComp
$Comp
L Interface_UART:ST485EBDR U13
U 1 1 5E212FB5
P 6550 5250
F 0 "U13" H 6550 5831 50  0000 C CNN
F 1 "ST485EBDR" H 6550 5740 50  0000 C CNN
F 2 "Package_SO:SOIC-8_3.9x4.9mm_P1.27mm" H 6550 4350 50  0001 C CNN
F 3 "http://www.st.com/resource/en/datasheet/st485eb.pdf" H 6550 5300 50  0001 C CNN
	1    6550 5250
	1    0    0    -1  
$EndComp
$Comp
L Device:C_Small C?
U 1 1 5E22004F
P 6000 4500
AR Path="/5E56828B/5E22004F" Ref="C?"  Part="1" 
AR Path="/5E568147/5E22004F" Ref="C?"  Part="1" 
AR Path="/5DC456A4/5E22004F" Ref="C35"  Part="1" 
F 0 "C35" H 6010 4570 50  0000 L CNN
F 1 "0.1uF" H 6010 4420 50  0000 L CNN
F 2 "Capacitor_SMD:C_0603_1608Metric" H 6000 4500 50  0001 C CNN
F 3 "" H 6000 4500 50  0001 C CNN
	1    6000 4500
	1    0    0    -1  
$EndComp
$Comp
L Connector:TestPoint_Alt TP28
U 1 1 5E222C01
P 7650 5650
F 0 "TP28" H 7650 5950 50  0000 C BNN
F 1 "TEST" H 7650 5900 50  0000 C CNN
F 2 "TestPoint:TestPoint_Pad_D1.0mm" H 7650 5650 50  0001 C CNN
F 3 "" H 7650 5650 50  0001 C CNN
	1    7650 5650
	-1   0    0    1   
$EndComp
Wire Wire Line
	6550 4350 6550 4850
$Comp
L Isolator:ISO7320C U?
U 1 1 5E24B439
P 5050 5050
AR Path="/5E5681AD/5E24B439" Ref="U?"  Part="1" 
AR Path="/5E568147/5E24B439" Ref="U?"  Part="1" 
AR Path="/5DC456A4/5E24B439" Ref="U12"  Part="1" 
F 0 "U12" H 5050 5475 50  0000 C CNN
F 1 "SI8621AB-B-IS" H 5050 5400 50  0000 C CNN
F 2 "Package_SO:SOIC-8_3.9x4.9mm_P1.27mm" H 5050 4700 50  0001 C CIN
F 3 "" H 5050 5050 50  0001 C CNN
	1    5050 5050
	1    0    0    -1  
$EndComp
$Comp
L power:+3V0 #PWR?
U 1 1 5E24B43F
P 4600 4600
AR Path="/5E5681AD/5E24B43F" Ref="#PWR?"  Part="1" 
AR Path="/5E568147/5E24B43F" Ref="#PWR?"  Part="1" 
AR Path="/5DC456A4/5E24B43F" Ref="#PWR062"  Part="1" 
F 0 "#PWR062" H 4600 4450 50  0001 C CNN
F 1 "+3V0" H 4600 4740 50  0000 C CNN
F 2 "" H 4600 4600 50  0000 C CNN
F 3 "" H 4600 4600 50  0000 C CNN
	1    4600 4600
	1    0    0    -1  
$EndComp
$Comp
L power:GND #PWR?
U 1 1 5E24B445
P 4300 4950
AR Path="/5E5681AD/5E24B445" Ref="#PWR?"  Part="1" 
AR Path="/5E568147/5E24B445" Ref="#PWR?"  Part="1" 
AR Path="/5DC456A4/5E24B445" Ref="#PWR063"  Part="1" 
F 0 "#PWR063" H 4300 4700 50  0001 C CNN
F 1 "GND" H 4300 4800 50  0000 C CNN
F 2 "" H 4300 4950 50  0001 C CNN
F 3 "" H 4300 4950 50  0001 C CNN
	1    4300 4950
	1    0    0    -1  
$EndComp
Wire Wire Line
	4650 4850 4600 4850
Wire Wire Line
	3450 5300 3450 5250
Connection ~ 3450 5250
Wire Wire Line
	3450 5100 3450 5150
Connection ~ 3450 5150
Text HLabel 2850 6200 0    60   Output ~ 0
RX
Text HLabel 2950 5250 0    60   Input ~ 0
TX
Wire Wire Line
	3450 5250 4650 5250
Wire Wire Line
	3450 5150 4650 5150
Wire Wire Line
	2950 5250 3250 5250
$Comp
L Isolator:ISO7320C U?
U 1 1 5E24DA5E
P 5050 6100
AR Path="/5E5681AD/5E24DA5E" Ref="U?"  Part="1" 
AR Path="/5E568147/5E24DA5E" Ref="U?"  Part="1" 
AR Path="/5DC456A4/5E24DA5E" Ref="U14"  Part="1" 
F 0 "U14" H 5050 6525 50  0000 C CNN
F 1 "SI8621AB-B-IS" H 5050 6450 50  0000 C CNN
F 2 "Package_SO:SOIC-8_3.9x4.9mm_P1.27mm" H 5050 5750 50  0001 C CIN
F 3 "" H 5050 6100 50  0001 C CNN
	1    5050 6100
	1    0    0    -1  
$EndComp
$Comp
L power:+3V0 #PWR?
U 1 1 5E24E306
P 4600 5550
AR Path="/5E5681AD/5E24E306" Ref="#PWR?"  Part="1" 
AR Path="/5E568147/5E24E306" Ref="#PWR?"  Part="1" 
AR Path="/5DC456A4/5E24E306" Ref="#PWR064"  Part="1" 
F 0 "#PWR064" H 4600 5400 50  0001 C CNN
F 1 "+3V0" H 4600 5690 50  0000 C CNN
F 2 "" H 4600 5550 50  0000 C CNN
F 3 "" H 4600 5550 50  0000 C CNN
	1    4600 5550
	1    0    0    -1  
$EndComp
$Comp
L Device:C_Small C?
U 1 1 5E24E956
P 4300 5700
AR Path="/5E56828B/5E24E956" Ref="C?"  Part="1" 
AR Path="/5E568147/5E24E956" Ref="C?"  Part="1" 
AR Path="/5DC456A4/5E24E956" Ref="C37"  Part="1" 
F 0 "C37" H 4310 5770 50  0000 L CNN
F 1 "0.1uF" H 4310 5620 50  0000 L CNN
F 2 "Capacitor_SMD:C_0603_1608Metric" H 4300 5700 50  0001 C CNN
F 3 "" H 4300 5700 50  0001 C CNN
	1    4300 5700
	1    0    0    -1  
$EndComp
$Comp
L power:GND #PWR066
U 1 1 5E24EE4D
P 4300 6000
F 0 "#PWR066" H 4300 5750 50  0001 C CNN
F 1 "GND" H 4300 5850 50  0000 C CNN
F 2 "" H 4300 6000 50  0001 C CNN
F 3 "" H 4300 6000 50  0001 C CNN
	1    4300 6000
	1    0    0    -1  
$EndComp
Wire Wire Line
	2850 6300 3600 6300
Wire Wire Line
	4300 6000 4650 6000
Wire Wire Line
	4300 5800 4300 6000
Connection ~ 4300 6000
Wire Wire Line
	4300 5600 4600 5600
Wire Wire Line
	4600 5600 4600 5550
Wire Wire Line
	4600 5600 4600 5900
Wire Wire Line
	4600 5900 4650 5900
Connection ~ 4600 5600
Wire Wire Line
	6150 5350 6100 5350
Wire Wire Line
	6100 5350 6100 5250
Wire Wire Line
	6100 5250 6150 5250
Wire Wire Line
	6100 5350 6100 6300
Wire Wire Line
	6100 6300 5450 6300
Connection ~ 6100 5350
Wire Wire Line
	6150 5150 5450 5150
Wire Wire Line
	6150 5450 5600 5450
Wire Wire Line
	5600 5450 5600 5250
Wire Wire Line
	5600 5250 5450 5250
Wire Wire Line
	4600 4850 4600 4600
Wire Wire Line
	4600 4600 4300 4600
Connection ~ 4600 4600
Wire Wire Line
	4300 4800 4300 4950
Connection ~ 4300 4950
Wire Wire Line
	4300 4950 4650 4950
Wire Wire Line
	6550 4350 6000 4350
Wire Wire Line
	6000 4350 6000 4400
Connection ~ 6550 4350
Wire Wire Line
	6550 4350 7100 4350
Wire Wire Line
	5450 4950 6000 4950
Wire Wire Line
	6000 4950 6000 4600
Wire Wire Line
	6000 4350 5850 4350
Wire Wire Line
	5450 4350 5450 4850
Connection ~ 6000 4350
Wire Wire Line
	5450 5900 5850 5900
Wire Wire Line
	5850 5900 5850 4350
Connection ~ 5850 4350
Wire Wire Line
	5850 4350 5450 4350
Wire Wire Line
	5450 6000 6000 6000
Wire Wire Line
	6550 5750 6550 6000
Connection ~ 6550 6000
Wire Wire Line
	6550 6000 7200 6000
Wire Wire Line
	7100 4550 7100 4350
Connection ~ 7100 4350
Wire Wire Line
	7100 4350 8100 4350
Text HLabel 2950 5150 0    50   Output ~ 0
Trigger
Text HLabel 5450 6200 2    50   Input ~ 0
IsolatedTrigger
Wire Wire Line
	3250 5250 3250 6700
Connection ~ 3250 5250
Wire Wire Line
	3250 5250 3450 5250
Wire Wire Line
	3150 6650 2850 6650
$Comp
L Connector:TestPoint_Alt TP29
U 1 1 5E44C7D4
P 3600 6150
F 0 "TP29" H 3658 6268 50  0000 L CNN
F 1 "TestPoint_Alt" H 3658 6177 50  0000 L CNN
F 2 "TestPoint:TestPoint_Pad_D1.0mm" H 3800 6150 50  0001 C CNN
F 3 "~" H 3800 6150 50  0001 C CNN
	1    3600 6150
	1    0    0    -1  
$EndComp
Wire Wire Line
	3600 6150 3600 6200
Connection ~ 3600 6200
Wire Wire Line
	3600 6200 4650 6200
$Comp
L Connector:TestPoint_Alt TP30
U 1 1 5E452852
P 3600 6350
F 0 "TP30" H 3658 6468 50  0000 L CNN
F 1 "TestPoint_Alt" H 3658 6377 50  0000 L CNN
F 2 "TestPoint:TestPoint_Pad_D1.0mm" H 3800 6350 50  0001 C CNN
F 3 "~" H 3800 6350 50  0001 C CNN
	1    3600 6350
	-1   0    0    1   
$EndComp
Wire Wire Line
	3600 6300 3600 6350
Connection ~ 3600 6300
Wire Wire Line
	3600 6300 4650 6300
Wire Wire Line
	6000 4950 6000 6000
Connection ~ 6000 4950
Connection ~ 6000 6000
Wire Wire Line
	6000 6000 6550 6000
$Comp
L Connector_Generic:Conn_01x02 J24
U 1 1 5E4A3DF6
P 7850 5150
F 0 "J24" H 7930 5142 50  0000 L CNN
F 1 "Conn_01x02" H 7930 5051 50  0000 L CNN
F 2 "Connector_PinHeader_2.54mm:PinHeader_1x02_P2.54mm_Vertical" H 7850 5150 50  0001 C CNN
F 3 "~" H 7850 5150 50  0001 C CNN
	1    7850 5150
	1    0    0    -1  
$EndComp
Connection ~ 7200 5150
Connection ~ 7100 5450
Wire Wire Line
	7200 5150 7200 5000
Wire Wire Line
	7200 5000 7650 5000
Wire Wire Line
	7100 5450 7100 5600
Wire Wire Line
	7100 5600 7650 5600
Wire Wire Line
	7650 5650 7650 5600
Connection ~ 7650 5600
Wire Wire Line
	7650 5600 8100 5600
Wire Wire Line
	7650 4950 7650 5000
Connection ~ 7650 5000
Wire Wire Line
	7650 5000 8100 5000
Wire Wire Line
	7650 5000 7650 5150
Wire Wire Line
	7650 5250 7650 5350
Wire Wire Line
	7650 5550 7650 5600
Wire Wire Line
	2950 5150 3450 5150
Wire Wire Line
	2850 6200 3350 6200
Wire Wire Line
	3350 6700 3350 6200
Connection ~ 3350 6200
Wire Wire Line
	3350 6200 3600 6200
$EndSCHEMATC
