EESchema Schematic File Version 4
EELAYER 30 0
EELAYER END
$Descr A3 16535 11693
encoding utf-8
Sheet 7 9
Title ""
Date ""
Rev ""
Comp ""
Comment1 ""
Comment2 ""
Comment3 ""
Comment4 ""
$EndDescr
$Comp
L power:GND #PWR089
U 1 1 5DC5B48A
P 8050 6400
F 0 "#PWR089" H 8050 6150 50  0001 C CNN
F 1 "GND" H 8050 6250 50  0000 C CNN
F 2 "" H 8050 6400 50  0001 C CNN
F 3 "" H 8050 6400 50  0001 C CNN
	1    8050 6400
	1    0    0    -1  
$EndComp
$Comp
L power:GND #PWR070
U 1 1 5DC5B48B
P 6500 1800
F 0 "#PWR070" H 6500 1550 50  0001 C CNN
F 1 "GND" H 6500 1650 50  0000 C CNN
F 2 "" H 6500 1800 50  0001 C CNN
F 3 "" H 6500 1800 50  0001 C CNN
	1    6500 1800
	1    0    0    -1  
$EndComp
$Comp
L Device:C_Small C41
U 1 1 5DC5B48C
P 7550 1650
F 0 "C41" H 7560 1720 50  0000 L CNN
F 1 "0.1uF" H 7560 1570 50  0000 L CNN
F 2 "Capacitor_SMD:C_0603_1608Metric" H 7550 1650 50  0001 C CNN
F 3 "" H 7550 1650 50  0001 C CNN
	1    7550 1650
	1    0    0    1   
$EndComp
$Comp
L Device:C_Small C40
U 1 1 5DC5B48D
P 7200 1650
F 0 "C40" H 7210 1720 50  0000 L CNN
F 1 "0.1uF" H 7210 1570 50  0000 L CNN
F 2 "Capacitor_SMD:C_0603_1608Metric" H 7200 1650 50  0001 C CNN
F 3 "" H 7200 1650 50  0001 C CNN
	1    7200 1650
	1    0    0    -1  
$EndComp
$Comp
L Device:C_Small C39
U 1 1 5DC5B48E
P 6850 1650
F 0 "C39" H 6860 1720 50  0000 L CNN
F 1 "0.1uF" H 6860 1570 50  0000 L CNN
F 2 "Capacitor_SMD:C_0603_1608Metric" H 6850 1650 50  0001 C CNN
F 3 "" H 6850 1650 50  0001 C CNN
	1    6850 1650
	1    0    0    -1  
$EndComp
$Comp
L Device:C_Small C38
U 1 1 5DC5B48F
P 6500 1650
F 0 "C38" H 6510 1720 50  0000 L CNN
F 1 "4.7uF 10V" H 6510 1570 50  0000 L CNN
F 2 "Capacitor_SMD:C_0603_1608Metric" H 6500 1650 50  0001 C CNN
F 3 "" H 6500 1650 50  0001 C CNN
	1    6500 1650
	1    0    0    -1  
$EndComp
$Comp
L power:GND #PWR071
U 1 1 5DC5B490
P 6850 1800
F 0 "#PWR071" H 6850 1550 50  0001 C CNN
F 1 "GND" H 6850 1650 50  0000 C CNN
F 2 "" H 6850 1800 50  0001 C CNN
F 3 "" H 6850 1800 50  0001 C CNN
	1    6850 1800
	1    0    0    -1  
$EndComp
$Comp
L power:GND #PWR072
U 1 1 5DC5B491
P 7200 1800
F 0 "#PWR072" H 7200 1550 50  0001 C CNN
F 1 "GND" H 7200 1650 50  0000 C CNN
F 2 "" H 7200 1800 50  0001 C CNN
F 3 "" H 7200 1800 50  0001 C CNN
	1    7200 1800
	1    0    0    -1  
$EndComp
$Comp
L power:GND #PWR073
U 1 1 5DC5B492
P 7550 1800
F 0 "#PWR073" H 7550 1550 50  0001 C CNN
F 1 "GND" H 7550 1650 50  0000 C CNN
F 2 "" H 7550 1800 50  0001 C CNN
F 3 "" H 7550 1800 50  0001 C CNN
	1    7550 1800
	1    0    0    -1  
$EndComp
$Comp
L Device:C_Small C42
U 1 1 5DC5B493
P 8400 1650
F 0 "C42" H 8410 1720 50  0000 L CNN
F 1 "10nF" H 8410 1570 50  0000 L CNN
F 2 "Capacitor_SMD:C_0603_1608Metric" H 8400 1650 50  0001 C CNN
F 3 "" H 8400 1650 50  0001 C CNN
	1    8400 1650
	1    0    0    -1  
$EndComp
$Comp
L power:GND #PWR074
U 1 1 5DC5B494
P 8400 1800
F 0 "#PWR074" H 8400 1550 50  0001 C CNN
F 1 "GND" H 8400 1650 50  0000 C CNN
F 2 "" H 8400 1800 50  0001 C CNN
F 3 "" H 8400 1800 50  0001 C CNN
	1    8400 1800
	1    0    0    -1  
$EndComp
$Comp
L power:+3V0 #PWR069
U 1 1 5DC5B495
P 6250 1500
F 0 "#PWR069" H 6250 1350 50  0001 C CNN
F 1 "+3V0" H 6250 1640 50  0000 C CNN
F 2 "" H 6250 1500 50  0000 C CNN
F 3 "" H 6250 1500 50  0000 C CNN
	1    6250 1500
	1    0    0    -1  
$EndComp
$Comp
L Device:Crystal_GND24 Y1
U 1 1 5DC5B496
P 3100 2650
F 0 "Y1" H 3225 2850 50  0000 L CNN
F 1 "16MHz" H 3225 2775 50  0000 L CNN
F 2 "Crystal:Crystal_SMD_TXC_7M-4Pin_3.2x2.5mm" H 3100 2650 50  0001 C CNN
F 3 "" H 3100 2650 50  0001 C CNN
	1    3100 2650
	1    0    0    -1  
$EndComp
$Comp
L Device:C_Small C46
U 1 1 5DC5B497
P 3400 2800
F 0 "C46" H 3410 2870 50  0000 L CNN
F 1 "10pF" H 3410 2720 50  0000 L CNN
F 2 "Capacitor_SMD:C_0603_1608Metric" H 3400 2800 50  0001 C CNN
F 3 "" H 3400 2800 50  0001 C CNN
	1    3400 2800
	1    0    0    -1  
$EndComp
$Comp
L power:GND #PWR082
U 1 1 5DC5B498
P 3400 2950
F 0 "#PWR082" H 3400 2700 50  0001 C CNN
F 1 "GND" H 3400 2800 50  0000 C CNN
F 2 "" H 3400 2950 50  0001 C CNN
F 3 "" H 3400 2950 50  0001 C CNN
	1    3400 2950
	1    0    0    -1  
$EndComp
$Comp
L power:GND #PWR078
U 1 1 5DC5B499
P 2850 2400
F 0 "#PWR078" H 2850 2150 50  0001 C CNN
F 1 "GND" H 2850 2250 50  0000 C CNN
F 2 "" H 2850 2400 50  0001 C CNN
F 3 "" H 2850 2400 50  0001 C CNN
	1    2850 2400
	1    0    0    -1  
$EndComp
$Comp
L power:GND #PWR081
U 1 1 5DC5B49A
P 3100 2950
F 0 "#PWR081" H 3100 2700 50  0001 C CNN
F 1 "GND" H 3100 2800 50  0000 C CNN
F 2 "" H 3100 2950 50  0001 C CNN
F 3 "" H 3100 2950 50  0001 C CNN
	1    3100 2950
	1    0    0    -1  
$EndComp
$Comp
L Device:C_Small C45
U 1 1 5DC5B49B
P 2700 2800
F 0 "C45" H 2710 2870 50  0000 L CNN
F 1 "10pF" H 2710 2720 50  0000 L CNN
F 2 "Capacitor_SMD:C_0603_1608Metric" H 2700 2800 50  0001 C CNN
F 3 "" H 2700 2800 50  0001 C CNN
	1    2700 2800
	1    0    0    -1  
$EndComp
$Comp
L power:GND #PWR080
U 1 1 5DC5B49C
P 2700 2950
F 0 "#PWR080" H 2700 2700 50  0001 C CNN
F 1 "GND" H 2700 2800 50  0000 C CNN
F 2 "" H 2700 2950 50  0001 C CNN
F 3 "" H 2700 2950 50  0001 C CNN
	1    2700 2950
	1    0    0    -1  
$EndComp
$Comp
L Connector:TestPoint_Alt TP36
U 1 1 5DC5B49D
P 3650 6950
F 0 "TP36" H 3650 7250 50  0000 C BNN
F 1 "TEST" H 3650 7200 50  0000 C CNN
F 2 "TestPoint:TestPoint_Pad_D1.0mm" H 3650 6950 50  0001 C CNN
F 3 "" H 3650 6950 50  0001 C CNN
	1    3650 6950
	1    0    0    -1  
$EndComp
$Comp
L Connector:TestPoint_Alt TP33
U 1 1 5DC5B49E
P 4000 2450
F 0 "TP33" H 4000 2750 50  0000 C BNN
F 1 "TEST" H 4000 2700 50  0000 C CNN
F 2 "TestPoint:TestPoint_Pad_D1.0mm" H 4000 2450 50  0001 C CNN
F 3 "" H 4000 2450 50  0001 C CNN
	1    4000 2450
	1    0    0    -1  
$EndComp
$Comp
L Device:C_Small C43
U 1 1 5DC5B49F
P 8650 1650
F 0 "C43" H 8660 1720 50  0000 L CNN
F 1 "0.1uF" H 8660 1570 50  0000 L CNN
F 2 "Capacitor_SMD:C_0603_1608Metric" H 8650 1650 50  0001 C CNN
F 3 "" H 8650 1650 50  0001 C CNN
	1    8650 1650
	1    0    0    -1  
$EndComp
$Comp
L power:GND #PWR075
U 1 1 5DC5B4A0
P 8650 1800
F 0 "#PWR075" H 8650 1550 50  0001 C CNN
F 1 "GND" H 8650 1650 50  0000 C CNN
F 2 "" H 8650 1800 50  0001 C CNN
F 3 "" H 8650 1800 50  0001 C CNN
	1    8650 1800
	1    0    0    -1  
$EndComp
$Comp
L Device:R_Small R53
U 1 1 5DC5B4AF
P 8950 1000
F 0 "R53" H 8980 1020 50  0000 L CNN
F 1 "100R" H 8980 960 50  0000 L CNN
F 2 "Resistor_SMD:R_0603_1608Metric" H 8950 1000 50  0001 C CNN
F 3 "" H 8950 1000 50  0001 C CNN
	1    8950 1000
	-1   0    0    1   
$EndComp
$Comp
L power:GND #PWR076
U 1 1 5DC5B4B0
P 8950 1800
F 0 "#PWR076" H 8950 1550 50  0001 C CNN
F 1 "GND" H 8950 1650 50  0000 C CNN
F 2 "" H 8950 1800 50  0001 C CNN
F 3 "" H 8950 1800 50  0001 C CNN
	1    8950 1800
	1    0    0    -1  
$EndComp
$Comp
L Device:R_Small R54
U 1 1 5DC5B4B2
P 8100 1200
F 0 "R54" H 8130 1220 50  0000 L CNN
F 1 "0R_NM" H 8130 1160 50  0000 L CNN
F 2 "Resistor_SMD:R_0603_1608Metric" H 8100 1200 50  0001 C CNN
F 3 "" H 8100 1200 50  0001 C CNN
	1    8100 1200
	0    -1   -1   0   
$EndComp
$Comp
L power:GND #PWR079
U 1 1 5DC5B4BA
P 3850 2650
F 0 "#PWR079" H 3850 2400 50  0001 C CNN
F 1 "GND" H 3850 2500 50  0000 C CNN
F 2 "" H 3850 2650 50  0001 C CNN
F 3 "" H 3850 2650 50  0001 C CNN
	1    3850 2650
	1    0    0    -1  
$EndComp
$Comp
L power:GND #PWR084
U 1 1 5DC5B4BB
P 14150 5150
F 0 "#PWR084" H 14150 4900 50  0001 C CNN
F 1 "GND" H 14150 5000 50  0000 C CNN
F 2 "" H 14150 5150 50  0001 C CNN
F 3 "" H 14150 5150 50  0001 C CNN
	1    14150 5150
	1    0    0    -1  
$EndComp
$Comp
L Device:R_Small R65
U 1 1 5DC5B4BC
P 13950 5050
F 0 "R65" H 13980 5070 50  0000 L CNN
F 1 "100R" H 13980 5010 50  0000 L CNN
F 2 "Resistor_SMD:R_0603_1608Metric" H 13950 5050 50  0001 C CNN
F 3 "" H 13950 5050 50  0001 C CNN
	1    13950 5050
	0    -1   -1   0   
$EndComp
$Comp
L Device:R_Small R66
U 1 1 5DC5B4BD
P 13950 5400
F 0 "R66" H 13980 5420 50  0000 L CNN
F 1 "100R" H 13980 5360 50  0000 L CNN
F 2 "Resistor_SMD:R_0603_1608Metric" H 13950 5400 50  0001 C CNN
F 3 "" H 13950 5400 50  0001 C CNN
	1    13950 5400
	0    -1   -1   0   
$EndComp
$Comp
L Connector_Generic:Conn_01x03 J21
U 1 1 5DC5B4BE
P 14600 5600
F 0 "J21" H 14600 5800 50  0000 C CNN
F 1 "Conn_01x03" H 14600 5400 50  0001 C CNN
F 2 "Connector_PinHeader_2.54mm:PinHeader_1x03_P2.54mm_Vertical" H 14600 5600 50  0001 C CNN
F 3 "" H 14600 5600 50  0001 C CNN
	1    14600 5600
	0    1    1    0   
$EndComp
$Comp
L Device:D_TVS D10
U 1 1 5DC5B4BF
P 13450 5650
F 0 "D10" H 13450 5750 50  0000 C CNN
F 1 "CGA0402MLC-05G" H 13450 5550 50  0001 C CNN
F 2 "Resistor_SMD:R_0402_1005Metric" H 13450 5650 50  0001 C CNN
F 3 "" H 13450 5650 50  0001 C CNN
	1    13450 5650
	0    1    1    0   
$EndComp
$Comp
L power:GND #PWR087
U 1 1 5DC5B4C0
P 13450 5850
F 0 "#PWR087" H 13450 5600 50  0001 C CNN
F 1 "GND" H 13450 5700 50  0000 C CNN
F 2 "" H 13450 5850 50  0001 C CNN
F 3 "" H 13450 5850 50  0001 C CNN
	1    13450 5850
	1    0    0    -1  
$EndComp
$Comp
L Device:D_TVS D11
U 1 1 5DC5B4C1
P 13750 5650
F 0 "D11" H 13750 5750 50  0000 C CNN
F 1 "CGA0402MLC-05G" H 13750 5550 50  0001 C CNN
F 2 "Resistor_SMD:R_0402_1005Metric" H 13750 5650 50  0001 C CNN
F 3 "" H 13750 5650 50  0001 C CNN
	1    13750 5650
	0    1    1    0   
$EndComp
$Comp
L power:GND #PWR088
U 1 1 5DC5B4C2
P 13750 5850
F 0 "#PWR088" H 13750 5600 50  0001 C CNN
F 1 "GND" H 13750 5700 50  0000 C CNN
F 2 "" H 13750 5850 50  0001 C CNN
F 3 "" H 13750 5850 50  0001 C CNN
	1    13750 5850
	1    0    0    -1  
$EndComp
Text Notes 14650 5200 0    60   ~ 0
SWD
Text Label 3850 2650 0    60   ~ 0
BOOT0
Text Label 4000 2450 0    60   ~ 0
NRST
Text Label 13350 5050 0    60   ~ 0
SWDIO
Text Label 13350 5150 0    60   ~ 0
SWCLK
$Comp
L Connector:TestPoint_Alt TP31
U 1 1 5DC5B4CB
P 8500 1150
F 0 "TP31" H 8500 1450 50  0000 C BNN
F 1 "TEST" H 8500 1400 50  0000 C CNN
F 2 "TestPoint:TestPoint_Pad_D1.0mm" H 8500 1150 50  0001 C CNN
F 3 "" H 8500 1150 50  0001 C CNN
	1    8500 1150
	1    0    0    -1  
$EndComp
Text Label 13850 8350 0    60   ~ 0
NTC1
$Comp
L Device:C_Small C51
U 1 1 5DC5B4EC
P 13850 8500
F 0 "C51" H 13860 8570 50  0000 L CNN
F 1 "0.1uF" H 13860 8420 50  0000 L CNN
F 2 "Capacitor_SMD:C_0603_1608Metric" H 13850 8500 50  0001 C CNN
F 3 "" H 13850 8500 50  0001 C CNN
	1    13850 8500
	1    0    0    -1  
$EndComp
Wire Wire Line
	2900 3150 4150 3150
Connection ~ 8500 1200
Wire Wire Line
	8500 1200 8500 1150
Wire Wire Line
	7950 6350 8050 6350
Connection ~ 13450 5050
Wire Wire Line
	13450 5050 13450 5500
Connection ~ 13750 5400
Wire Wire Line
	13750 5400 13750 5500
Wire Wire Line
	13750 5850 13750 5800
Wire Wire Line
	13450 5850 13450 5800
Wire Wire Line
	13700 5150 12150 5150
Wire Wire Line
	13700 5400 13700 5150
Wire Wire Line
	12150 5050 13450 5050
Wire Wire Line
	13700 5400 13750 5400
Wire Wire Line
	14150 5150 14600 5150
Wire Wire Line
	14300 5400 14050 5400
Wire Wire Line
	14300 5250 14300 5400
Wire Wire Line
	14300 5250 14700 5250
Wire Wire Line
	3850 2650 4150 2650
Connection ~ 8950 850 
Wire Wire Line
	8950 800  8950 850 
Wire Wire Line
	8950 1100 8950 1200
Wire Wire Line
	8650 1500 8650 1550
Wire Wire Line
	8650 1750 8650 1800
Connection ~ 8400 1500
Connection ~ 8050 6350
Wire Wire Line
	7950 5650 7950 6350
Wire Wire Line
	4000 2450 4150 2450
Connection ~ 8050 1500
Wire Wire Line
	8150 1500 8150 2050
Connection ~ 2900 2650
Wire Wire Line
	2900 2650 2900 3150
Wire Wire Line
	2700 2900 2700 2950
Wire Wire Line
	2700 2650 2900 2650
Wire Wire Line
	2700 2700 2700 2650
Wire Wire Line
	3100 2850 3100 2950
Wire Wire Line
	2850 2350 2850 2400
Wire Wire Line
	3100 2350 2850 2350
Wire Wire Line
	3100 2450 3100 2350
Wire Wire Line
	3400 2900 3400 2950
Connection ~ 3400 2650
Wire Wire Line
	3400 2650 3400 2700
Wire Wire Line
	3250 2650 3400 2650
Wire Wire Line
	3700 2650 3700 3050
Wire Wire Line
	3700 3050 4150 3050
Wire Wire Line
	8400 1800 8400 1750
Wire Wire Line
	8400 1500 8400 1550
Connection ~ 8250 1500
Wire Wire Line
	8250 1500 8400 1500
Connection ~ 7550 1500
Wire Wire Line
	7550 1500 7550 1550
Connection ~ 7200 1500
Wire Wire Line
	7200 1500 7200 1550
Connection ~ 6850 1500
Wire Wire Line
	6850 1500 6850 1550
Wire Wire Line
	6500 1800 6500 1750
Wire Wire Line
	6850 1800 6850 1750
Wire Wire Line
	7200 1800 7200 1750
Wire Wire Line
	7550 1800 7550 1750
Connection ~ 7950 1500
Wire Wire Line
	7950 1200 7950 1500
Wire Wire Line
	8050 1500 8050 2050
Connection ~ 6500 1500
Wire Wire Line
	6250 1500 6500 1500
Wire Wire Line
	8150 5650 8150 6350
Wire Wire Line
	8050 5650 8050 6350
Wire Wire Line
	14700 5250 14700 5400
Wire Wire Line
	14600 5150 14600 5400
Wire Wire Line
	14500 5050 14500 5400
$Comp
L power:VDDA #PWR068
U 1 1 5DC60509
P 8350 1150
F 0 "#PWR068" H 8350 1000 50  0001 C CNN
F 1 "VDDA" H 8350 1300 50  0000 C CNN
F 2 "" H 8350 1150 50  0001 C CNN
F 3 "" H 8350 1150 50  0001 C CNN
	1    8350 1150
	1    0    0    -1  
$EndComp
$Comp
L Reference_Voltage:LM4040DBZ-3 U15
U 1 1 5DC73466
P 8950 1400
F 0 "U15" H 8950 1500 50  0000 C CNN
F 1 "LM4040CIM3-3.0" H 8950 1275 50  0000 C CNN
F 2 "Package_TO_SOT_SMD:SOT-23" H 8950 1200 50  0001 C CIN
F 3 "" H 8950 1400 50  0001 C CIN
	1    8950 1400
	0    -1   -1   0   
$EndComp
Wire Wire Line
	7950 1200 8000 1200
Wire Wire Line
	8200 1200 8250 1200
Wire Wire Line
	8250 1200 8250 1500
Wire Wire Line
	8950 1800 8950 1550
Connection ~ 8250 1200
Wire Wire Line
	8350 1150 8350 1200
Connection ~ 8350 1200
Connection ~ 8950 1200
$Comp
L Device:C_Small C44
U 1 1 5DC74DA4
P 9250 1650
F 0 "C44" H 9260 1720 50  0000 L CNN
F 1 "0.1uF" H 9260 1570 50  0000 L CNN
F 2 "Capacitor_SMD:C_0603_1608Metric" H 9250 1650 50  0001 C CNN
F 3 "" H 9250 1650 50  0001 C CNN
	1    9250 1650
	1    0    0    -1  
$EndComp
$Comp
L power:GND #PWR077
U 1 1 5DC74ED2
P 9250 1800
F 0 "#PWR077" H 9250 1550 50  0001 C CNN
F 1 "GND" H 9250 1650 50  0000 C CNN
F 2 "" H 9250 1800 50  0001 C CNN
F 3 "" H 9250 1800 50  0001 C CNN
	1    9250 1800
	1    0    0    -1  
$EndComp
Wire Wire Line
	9250 1800 9250 1750
Wire Wire Line
	9250 1550 9250 850 
Wire Wire Line
	9250 850  8950 850 
Text Notes 6550 850  0    60   ~ 0
use bandgap reference or +3V supply
Text HLabel 4150 4250 0    60   Output ~ 0
FanPwm
Text HLabel 4150 4150 0    60   Input ~ 0
FanTacho
Wire Wire Line
	8250 5650 8250 5950
$Comp
L power:VSSA #PWR086
U 1 1 5DC786A3
P 8550 5900
F 0 "#PWR086" H 8550 5750 50  0001 C CNN
F 1 "VSSA" H 8550 6050 50  0000 C CNN
F 2 "" H 8550 5900 50  0001 C CNN
F 3 "" H 8550 5900 50  0001 C CNN
	1    8550 5900
	1    0    0    -1  
$EndComp
Text HLabel 12150 4050 2    60   Input ~ 0
UartRx
Text HLabel 2050 4450 0    60   Input ~ 0
UsbRx
Text HLabel 12150 3950 2    60   Output ~ 0
UartTx
Text HLabel 2050 4350 0    60   Output ~ 0
UsbTx
Text HLabel 4150 3850 0    60   Input ~ 0
CurrentMeas_20A_4
Text HLabel 12150 4150 2    60   Input ~ 0
CurrentMeas_0.2A
Text HLabel 4150 5150 0    60   Input ~ 0
VoltMeas
Text HLabel 4150 3450 0    60   Output ~ 0
DE~RE
NoConn ~ 4150 2850
Wire Wire Line
	8500 1200 8700 1200
Wire Wire Line
	13450 5050 13850 5050
Wire Wire Line
	13750 5400 13850 5400
Wire Wire Line
	8950 850  8950 900 
Wire Wire Line
	8400 1500 8650 1500
Wire Wire Line
	8050 6350 8150 6350
Wire Wire Line
	8050 1500 8150 1500
Wire Wire Line
	2900 2650 2950 2650
Wire Wire Line
	3400 2650 3700 2650
Wire Wire Line
	8250 1500 8250 2050
Wire Wire Line
	7550 1500 7950 1500
Wire Wire Line
	7200 1500 7550 1500
Wire Wire Line
	6850 1500 7200 1500
Wire Wire Line
	7950 1500 7950 2050
Wire Wire Line
	7950 1500 8050 1500
Wire Wire Line
	6500 1500 6500 1550
Wire Wire Line
	6500 1500 6850 1500
Wire Wire Line
	8250 1200 8350 1200
Wire Wire Line
	8350 1200 8500 1200
Wire Wire Line
	8950 1200 8950 1250
Text HLabel 4150 3950 0    60   Output ~ 0
RangeOn_0.02A
Text HLabel 4150 3350 0    60   Input ~ 0
Trigger
$Comp
L antaveiv:STM32L152C8TxA U?
U 1 1 5DC868B9
P 8150 3850
AR Path="/5DC868B9" Ref="U?"  Part="1" 
AR Path="/5DC5AE9C/5DC868B9" Ref="U16"  Part="1" 
F 0 "U16" H 4250 5575 50  0000 L BNN
F 1 "STM32L152C8TxA" H 12050 5575 50  0000 R BNN
F 2 "Package_QFP:LQFP-48_7x7mm_P0.5mm" H 12050 5525 50  0001 R TNN
F 3 "" H 8150 3850 50  0001 C CNN
	1    8150 3850
	1    0    0    -1  
$EndComp
$Comp
L power:+5V #PWR0142
U 1 1 6025988E
P 8950 800
F 0 "#PWR0142" H 8950 650 50  0001 C CNN
F 1 "+5V" H 8965 973 50  0000 C CNN
F 2 "" H 8950 800 50  0001 C CNN
F 3 "" H 8950 800 50  0001 C CNN
	1    8950 800 
	1    0    0    -1  
$EndComp
Text HLabel 12150 3750 2    60   Input ~ 0
CurrentMeas_2A
Text HLabel 12150 4650 2    60   Output ~ 0
RangeOn_20A
$Comp
L Device:R_Small R67
U 1 1 5DC77DFC
P 8550 6150
F 0 "R67" H 8580 6170 50  0000 L CNN
F 1 "0R" H 8580 6110 50  0000 L CNN
F 2 "Resistor_SMD:R_0603_1608Metric" H 8550 6150 50  0001 C CNN
F 3 "" H 8550 6150 50  0001 C CNN
	1    8550 6150
	1    0    0    -1  
$EndComp
$Comp
L Device:R_Small R106
U 1 1 60C294BB
P 3800 7000
F 0 "R106" H 3830 7020 50  0000 L CNN
F 1 "10K" H 3830 6960 50  0000 L CNN
F 2 "Resistor_SMD:R_0603_1608Metric" H 3800 7000 50  0001 C CNN
F 3 "" H 3800 7000 50  0001 C CNN
	1    3800 7000
	0    1    1    0   
$EndComp
$Comp
L Device:C_Small C?
U 1 1 60C353B2
P 3950 7150
AR Path="/5DC24124/60C353B2" Ref="C?"  Part="1" 
AR Path="/5DC5AE9C/60C353B2" Ref="C82"  Part="1" 
F 0 "C82" H 3960 7220 50  0000 L CNN
F 1 "1uF" H 3960 7070 50  0000 L CNN
F 2 "Capacitor_SMD:C_0603_1608Metric" H 3950 7150 50  0001 C CNN
F 3 "" H 3950 7150 50  0000 C CNN
	1    3950 7150
	1    0    0    -1  
$EndComp
$Comp
L Device:C_Small C?
U 1 1 60C363A2
P 4300 7150
AR Path="/5DC24124/60C363A2" Ref="C?"  Part="1" 
AR Path="/5DC5AE9C/60C363A2" Ref="C83"  Part="1" 
F 0 "C83" H 4310 7220 50  0000 L CNN
F 1 "0.1uF" H 4310 7070 50  0000 L CNN
F 2 "Capacitor_SMD:C_0603_1608Metric" H 4300 7150 50  0001 C CNN
F 3 "" H 4300 7150 50  0000 C CNN
	1    4300 7150
	1    0    0    -1  
$EndComp
$Comp
L Device:R_Small R111
U 1 1 60C36728
P 4150 7000
F 0 "R111" H 4180 7020 50  0000 L CNN
F 1 "1K" H 4180 6960 50  0000 L CNN
F 2 "Resistor_SMD:R_0603_1608Metric" H 4150 7000 50  0001 C CNN
F 3 "" H 4150 7000 50  0001 C CNN
	1    4150 7000
	0    1    1    0   
$EndComp
$Comp
L power:GND #PWR?
U 1 1 60C37DA9
P 3950 7300
AR Path="/5DC24124/60C37DA9" Ref="#PWR?"  Part="1" 
AR Path="/5DC5AE9C/60C37DA9" Ref="#PWR0231"  Part="1" 
F 0 "#PWR0231" H 3950 7050 50  0001 C CNN
F 1 "GND" H 3950 7150 50  0000 C CNN
F 2 "" H 3950 7300 50  0000 C CNN
F 3 "" H 3950 7300 50  0000 C CNN
	1    3950 7300
	1    0    0    -1  
$EndComp
$Comp
L power:GND #PWR?
U 1 1 60C385E8
P 4300 7300
AR Path="/5DC24124/60C385E8" Ref="#PWR?"  Part="1" 
AR Path="/5DC5AE9C/60C385E8" Ref="#PWR0232"  Part="1" 
F 0 "#PWR0232" H 4300 7050 50  0001 C CNN
F 1 "GND" H 4300 7150 50  0000 C CNN
F 2 "" H 4300 7300 50  0000 C CNN
F 3 "" H 4300 7300 50  0000 C CNN
	1    4300 7300
	1    0    0    -1  
$EndComp
Wire Wire Line
	4250 7000 4300 7000
Wire Wire Line
	4300 7050 4300 7000
Connection ~ 4300 7000
Wire Wire Line
	3900 7000 3950 7000
Wire Wire Line
	3950 7050 3950 7000
Connection ~ 3950 7000
Wire Wire Line
	3950 7000 4050 7000
$Comp
L Device:R_Small R116
U 1 1 60C70C7D
P 4750 7150
F 0 "R116" H 4780 7170 50  0000 L CNN
F 1 "560R" H 4780 7110 50  0000 L CNN
F 2 "Resistor_SMD:R_0603_1608Metric" H 4750 7150 50  0001 C CNN
F 3 "" H 4750 7150 50  0001 C CNN
	1    4750 7150
	-1   0    0    1   
$EndComp
Wire Wire Line
	4300 7000 4750 7000
Wire Wire Line
	4750 7050 4750 7000
Connection ~ 4750 7000
Wire Wire Line
	4750 7000 4850 7000
$Comp
L power:GND #PWR?
U 1 1 60C8E880
P 5050 7300
AR Path="/5DC24124/60C8E880" Ref="#PWR?"  Part="1" 
AR Path="/5DC5AE9C/60C8E880" Ref="#PWR0233"  Part="1" 
F 0 "#PWR0233" H 5050 7050 50  0001 C CNN
F 1 "GND" H 5050 7150 50  0000 C CNN
F 2 "" H 5050 7300 50  0000 C CNN
F 3 "" H 5050 7300 50  0000 C CNN
	1    5050 7300
	1    0    0    -1  
$EndComp
Wire Wire Line
	4750 7250 4750 7300
Wire Wire Line
	4300 7250 4300 7300
Wire Wire Line
	3950 7250 3950 7300
Text Notes 3750 6900 0    60   ~ 0
RC filter and divider
Wire Wire Line
	3700 7000 3650 7000
$Comp
L Device:R_Small R119
U 1 1 60CD0ADF
P 3800 8950
F 0 "R119" H 3830 8970 50  0000 L CNN
F 1 "10K" H 3830 8910 50  0000 L CNN
F 2 "Resistor_SMD:R_0603_1608Metric" H 3800 8950 50  0001 C CNN
F 3 "" H 3800 8950 50  0001 C CNN
	1    3800 8950
	0    1    1    0   
$EndComp
$Comp
L Device:C_Small C?
U 1 1 60CD0AE5
P 3950 9100
AR Path="/5DC24124/60CD0AE5" Ref="C?"  Part="1" 
AR Path="/5DC5AE9C/60CD0AE5" Ref="C84"  Part="1" 
F 0 "C84" H 3960 9170 50  0000 L CNN
F 1 "1uF" H 3960 9020 50  0000 L CNN
F 2 "Capacitor_SMD:C_0603_1608Metric" H 3950 9100 50  0001 C CNN
F 3 "" H 3950 9100 50  0000 C CNN
	1    3950 9100
	1    0    0    -1  
$EndComp
$Comp
L Device:C_Small C?
U 1 1 60CD0AEB
P 4300 9100
AR Path="/5DC24124/60CD0AEB" Ref="C?"  Part="1" 
AR Path="/5DC5AE9C/60CD0AEB" Ref="C86"  Part="1" 
F 0 "C86" H 4310 9170 50  0000 L CNN
F 1 "0.1uF" H 4310 9020 50  0000 L CNN
F 2 "Capacitor_SMD:C_0603_1608Metric" H 4300 9100 50  0001 C CNN
F 3 "" H 4300 9100 50  0000 C CNN
	1    4300 9100
	1    0    0    -1  
$EndComp
$Comp
L Device:R_Small R120
U 1 1 60CD0AF1
P 4150 8950
F 0 "R120" H 4180 8970 50  0000 L CNN
F 1 "1K" H 4180 8910 50  0000 L CNN
F 2 "Resistor_SMD:R_0603_1608Metric" H 4150 8950 50  0001 C CNN
F 3 "" H 4150 8950 50  0001 C CNN
	1    4150 8950
	0    1    1    0   
$EndComp
$Comp
L power:GND #PWR?
U 1 1 60CD0AF7
P 3950 8250
AR Path="/5DC24124/60CD0AF7" Ref="#PWR?"  Part="1" 
AR Path="/5DC5AE9C/60CD0AF7" Ref="#PWR0234"  Part="1" 
F 0 "#PWR0234" H 3950 8000 50  0001 C CNN
F 1 "GND" H 3950 8100 50  0000 C CNN
F 2 "" H 3950 8250 50  0000 C CNN
F 3 "" H 3950 8250 50  0000 C CNN
	1    3950 8250
	1    0    0    -1  
$EndComp
$Comp
L power:GND #PWR?
U 1 1 60CD0AFD
P 4300 8250
AR Path="/5DC24124/60CD0AFD" Ref="#PWR?"  Part="1" 
AR Path="/5DC5AE9C/60CD0AFD" Ref="#PWR0235"  Part="1" 
F 0 "#PWR0235" H 4300 8000 50  0001 C CNN
F 1 "GND" H 4300 8100 50  0000 C CNN
F 2 "" H 4300 8250 50  0000 C CNN
F 3 "" H 4300 8250 50  0000 C CNN
	1    4300 8250
	1    0    0    -1  
$EndComp
Wire Wire Line
	4250 7950 4300 7950
Wire Wire Line
	4300 8000 4300 7950
Connection ~ 4300 7950
Wire Wire Line
	3900 7950 3950 7950
Wire Wire Line
	3950 8000 3950 7950
Connection ~ 3950 7950
Wire Wire Line
	3950 7950 4050 7950
$Comp
L Device:R_Small R121
U 1 1 60CD0B0A
P 4750 9100
F 0 "R121" H 4780 9120 50  0000 L CNN
F 1 "1k" H 4780 9060 50  0000 L CNN
F 2 "Resistor_SMD:R_0603_1608Metric" H 4750 9100 50  0001 C CNN
F 3 "" H 4750 9100 50  0001 C CNN
	1    4750 9100
	-1   0    0    1   
$EndComp
Wire Wire Line
	4300 7950 4750 7950
Wire Wire Line
	4750 8000 4750 7950
Connection ~ 4750 7950
Wire Wire Line
	4750 7950 4850 7950
Wire Wire Line
	4750 8200 4750 8250
Wire Wire Line
	4300 8200 4300 8250
Wire Wire Line
	3950 8200 3950 8250
Wire Wire Line
	3700 7950 3650 7950
$Comp
L Device:R_Small R123
U 1 1 60CE3694
P 3800 7950
F 0 "R123" H 3830 7970 50  0000 L CNN
F 1 "10K" H 3830 7910 50  0000 L CNN
F 2 "Resistor_SMD:R_0603_1608Metric" H 3800 7950 50  0001 C CNN
F 3 "" H 3800 7950 50  0001 C CNN
	1    3800 7950
	0    1    1    0   
$EndComp
$Comp
L Device:C_Small C?
U 1 1 60CE369A
P 3950 8100
AR Path="/5DC24124/60CE369A" Ref="C?"  Part="1" 
AR Path="/5DC5AE9C/60CE369A" Ref="C87"  Part="1" 
F 0 "C87" H 3960 8170 50  0000 L CNN
F 1 "1uF" H 3960 8020 50  0000 L CNN
F 2 "Capacitor_SMD:C_0603_1608Metric" H 3950 8100 50  0001 C CNN
F 3 "" H 3950 8100 50  0000 C CNN
	1    3950 8100
	1    0    0    -1  
$EndComp
$Comp
L Device:C_Small C?
U 1 1 60CE36A0
P 4300 8100
AR Path="/5DC24124/60CE36A0" Ref="C?"  Part="1" 
AR Path="/5DC5AE9C/60CE36A0" Ref="C88"  Part="1" 
F 0 "C88" H 4310 8170 50  0000 L CNN
F 1 "0.1uF" H 4310 8020 50  0000 L CNN
F 2 "Capacitor_SMD:C_0603_1608Metric" H 4300 8100 50  0001 C CNN
F 3 "" H 4300 8100 50  0000 C CNN
	1    4300 8100
	1    0    0    -1  
$EndComp
$Comp
L Device:R_Small R124
U 1 1 60CE36A6
P 4150 7950
F 0 "R124" H 4180 7970 50  0000 L CNN
F 1 "1K" H 4180 7910 50  0000 L CNN
F 2 "Resistor_SMD:R_0603_1608Metric" H 4150 7950 50  0001 C CNN
F 3 "" H 4150 7950 50  0001 C CNN
	1    4150 7950
	0    1    1    0   
$EndComp
$Comp
L power:GND #PWR?
U 1 1 60CE36AC
P 3950 9250
AR Path="/5DC24124/60CE36AC" Ref="#PWR?"  Part="1" 
AR Path="/5DC5AE9C/60CE36AC" Ref="#PWR0236"  Part="1" 
F 0 "#PWR0236" H 3950 9000 50  0001 C CNN
F 1 "GND" H 3950 9100 50  0000 C CNN
F 2 "" H 3950 9250 50  0000 C CNN
F 3 "" H 3950 9250 50  0000 C CNN
	1    3950 9250
	1    0    0    -1  
$EndComp
$Comp
L power:GND #PWR?
U 1 1 60CE36B2
P 4300 9250
AR Path="/5DC24124/60CE36B2" Ref="#PWR?"  Part="1" 
AR Path="/5DC5AE9C/60CE36B2" Ref="#PWR0237"  Part="1" 
F 0 "#PWR0237" H 4300 9000 50  0001 C CNN
F 1 "GND" H 4300 9100 50  0000 C CNN
F 2 "" H 4300 9250 50  0000 C CNN
F 3 "" H 4300 9250 50  0000 C CNN
	1    4300 9250
	1    0    0    -1  
$EndComp
Wire Wire Line
	4250 8950 4300 8950
Wire Wire Line
	4300 9000 4300 8950
Connection ~ 4300 8950
Wire Wire Line
	3900 8950 3950 8950
Wire Wire Line
	3950 9000 3950 8950
Connection ~ 3950 8950
Wire Wire Line
	3950 8950 4050 8950
Wire Wire Line
	4300 8950 4750 8950
Wire Wire Line
	4750 9000 4750 8950
Connection ~ 4750 8950
Wire Wire Line
	4750 8950 4850 8950
Wire Wire Line
	4750 9200 4750 9250
Wire Wire Line
	4300 9200 4300 9250
Wire Wire Line
	3950 9200 3950 9250
Wire Wire Line
	3700 8950 3650 8950
$Comp
L Device:R_Small R127
U 1 1 60D12738
P 3800 10050
F 0 "R127" H 3830 10070 50  0000 L CNN
F 1 "10K" H 3830 10010 50  0000 L CNN
F 2 "Resistor_SMD:R_0603_1608Metric" H 3800 10050 50  0001 C CNN
F 3 "" H 3800 10050 50  0001 C CNN
	1    3800 10050
	0    1    1    0   
$EndComp
$Comp
L Device:C_Small C?
U 1 1 60D1273E
P 3950 10200
AR Path="/5DC24124/60D1273E" Ref="C?"  Part="1" 
AR Path="/5DC5AE9C/60D1273E" Ref="C89"  Part="1" 
F 0 "C89" H 3960 10270 50  0000 L CNN
F 1 "1uF" H 3960 10120 50  0000 L CNN
F 2 "Capacitor_SMD:C_0603_1608Metric" H 3950 10200 50  0001 C CNN
F 3 "" H 3950 10200 50  0000 C CNN
	1    3950 10200
	1    0    0    -1  
$EndComp
$Comp
L Device:C_Small C?
U 1 1 60D12744
P 4300 10200
AR Path="/5DC24124/60D12744" Ref="C?"  Part="1" 
AR Path="/5DC5AE9C/60D12744" Ref="C101"  Part="1" 
F 0 "C101" H 4310 10270 50  0000 L CNN
F 1 "0.1uF" H 4310 10120 50  0000 L CNN
F 2 "Capacitor_SMD:C_0603_1608Metric" H 4300 10200 50  0001 C CNN
F 3 "" H 4300 10200 50  0000 C CNN
	1    4300 10200
	1    0    0    -1  
$EndComp
$Comp
L Device:R_Small R128
U 1 1 60D1274A
P 4150 10050
F 0 "R128" H 4180 10070 50  0000 L CNN
F 1 "1K" H 4180 10010 50  0000 L CNN
F 2 "Resistor_SMD:R_0603_1608Metric" H 4150 10050 50  0001 C CNN
F 3 "" H 4150 10050 50  0001 C CNN
	1    4150 10050
	0    1    1    0   
$EndComp
$Comp
L power:GND #PWR?
U 1 1 60D12750
P 3950 10350
AR Path="/5DC24124/60D12750" Ref="#PWR?"  Part="1" 
AR Path="/5DC5AE9C/60D12750" Ref="#PWR0238"  Part="1" 
F 0 "#PWR0238" H 3950 10100 50  0001 C CNN
F 1 "GND" H 3950 10200 50  0000 C CNN
F 2 "" H 3950 10350 50  0000 C CNN
F 3 "" H 3950 10350 50  0000 C CNN
	1    3950 10350
	1    0    0    -1  
$EndComp
$Comp
L power:GND #PWR?
U 1 1 60D12756
P 4300 10350
AR Path="/5DC24124/60D12756" Ref="#PWR?"  Part="1" 
AR Path="/5DC5AE9C/60D12756" Ref="#PWR0239"  Part="1" 
F 0 "#PWR0239" H 4300 10100 50  0001 C CNN
F 1 "GND" H 4300 10200 50  0000 C CNN
F 2 "" H 4300 10350 50  0000 C CNN
F 3 "" H 4300 10350 50  0000 C CNN
	1    4300 10350
	1    0    0    -1  
$EndComp
Wire Wire Line
	4250 10050 4300 10050
Wire Wire Line
	4300 10100 4300 10050
Connection ~ 4300 10050
Wire Wire Line
	3900 10050 3950 10050
Wire Wire Line
	3950 10100 3950 10050
Connection ~ 3950 10050
Wire Wire Line
	3950 10050 4050 10050
Wire Wire Line
	4300 10050 4750 10050
Wire Wire Line
	4750 10100 4750 10050
Connection ~ 4750 10050
Wire Wire Line
	4750 10050 4850 10050
Wire Wire Line
	4750 10300 4750 10350
Wire Wire Line
	4300 10300 4300 10350
Wire Wire Line
	3950 10300 3950 10350
Wire Wire Line
	3700 10050 3650 10050
Wire Wire Line
	3650 6950 3650 7000
Connection ~ 3650 7000
Wire Wire Line
	3650 7000 3600 7000
Text Label 3600 7000 2    60   ~ 0
CurrentSetPWM_20A
$Comp
L Device:R_Small R117
U 1 1 60E1D449
P 4900 7300
F 0 "R117" H 4930 7320 50  0000 L CNN
F 1 "560R" H 4930 7260 50  0000 L CNN
F 2 "Resistor_SMD:R_0603_1608Metric" H 4900 7300 50  0001 C CNN
F 3 "" H 4900 7300 50  0001 C CNN
	1    4900 7300
	0    -1   -1   0   
$EndComp
Wire Wire Line
	4750 7300 4800 7300
Wire Wire Line
	5000 7300 5050 7300
Text Label 3600 7950 2    60   ~ 0
CurrentSetPWM_2A
Text Label 3600 8950 2    60   ~ 0
CurrentSetPWM_0.2A
Text Label 3600 10050 2    60   ~ 0
CurrentSetPWM_0.02A
$Comp
L Device:R_Small R122
U 1 1 60E58899
P 4900 9250
F 0 "R122" H 4930 9270 50  0000 L CNN
F 1 "1k" H 4930 9210 50  0000 L CNN
F 2 "Resistor_SMD:R_0603_1608Metric" H 4900 9250 50  0001 C CNN
F 3 "" H 4900 9250 50  0001 C CNN
	1    4900 9250
	0    -1   -1   0   
$EndComp
$Comp
L Device:R_Small R125
U 1 1 60E58CF5
P 4750 8100
F 0 "R125" H 4780 8120 50  0000 L CNN
F 1 "1k" H 4780 8060 50  0000 L CNN
F 2 "Resistor_SMD:R_0603_1608Metric" H 4750 8100 50  0001 C CNN
F 3 "" H 4750 8100 50  0001 C CNN
	1    4750 8100
	-1   0    0    1   
$EndComp
$Comp
L Device:R_Small R129
U 1 1 60E591EF
P 4750 10200
F 0 "R129" H 4780 10220 50  0000 L CNN
F 1 "1k" H 4780 10160 50  0000 L CNN
F 2 "Resistor_SMD:R_0603_1608Metric" H 4750 10200 50  0001 C CNN
F 3 "" H 4750 10200 50  0001 C CNN
	1    4750 10200
	-1   0    0    1   
$EndComp
$Comp
L Device:R_Small R126
U 1 1 60E7BEDB
P 4900 8250
F 0 "R126" H 4930 8270 50  0000 L CNN
F 1 "1k" H 4930 8210 50  0000 L CNN
F 2 "Resistor_SMD:R_0603_1608Metric" H 4900 8250 50  0001 C CNN
F 3 "" H 4900 8250 50  0001 C CNN
	1    4900 8250
	0    -1   -1   0   
$EndComp
$Comp
L Device:R_Small R130
U 1 1 60E7C237
P 4900 10350
F 0 "R130" H 4930 10370 50  0000 L CNN
F 1 "1k" H 4930 10310 50  0000 L CNN
F 2 "Resistor_SMD:R_0603_1608Metric" H 4900 10350 50  0001 C CNN
F 3 "" H 4900 10350 50  0001 C CNN
	1    4900 10350
	0    -1   -1   0   
$EndComp
$Comp
L power:GND #PWR?
U 1 1 60E7C68A
P 5050 8250
AR Path="/5DC24124/60E7C68A" Ref="#PWR?"  Part="1" 
AR Path="/5DC5AE9C/60E7C68A" Ref="#PWR0240"  Part="1" 
F 0 "#PWR0240" H 5050 8000 50  0001 C CNN
F 1 "GND" H 5050 8100 50  0000 C CNN
F 2 "" H 5050 8250 50  0000 C CNN
F 3 "" H 5050 8250 50  0000 C CNN
	1    5050 8250
	1    0    0    -1  
$EndComp
$Comp
L power:GND #PWR?
U 1 1 60E7CB0A
P 5050 9250
AR Path="/5DC24124/60E7CB0A" Ref="#PWR?"  Part="1" 
AR Path="/5DC5AE9C/60E7CB0A" Ref="#PWR0241"  Part="1" 
F 0 "#PWR0241" H 5050 9000 50  0001 C CNN
F 1 "GND" H 5050 9100 50  0000 C CNN
F 2 "" H 5050 9250 50  0000 C CNN
F 3 "" H 5050 9250 50  0000 C CNN
	1    5050 9250
	1    0    0    -1  
$EndComp
$Comp
L power:GND #PWR?
U 1 1 60E7D013
P 5050 10350
AR Path="/5DC24124/60E7D013" Ref="#PWR?"  Part="1" 
AR Path="/5DC5AE9C/60E7D013" Ref="#PWR0242"  Part="1" 
F 0 "#PWR0242" H 5050 10100 50  0001 C CNN
F 1 "GND" H 5050 10200 50  0000 C CNN
F 2 "" H 5050 10350 50  0000 C CNN
F 3 "" H 5050 10350 50  0000 C CNN
	1    5050 10350
	1    0    0    -1  
$EndComp
Wire Wire Line
	5050 10350 5000 10350
Wire Wire Line
	4750 10350 4800 10350
Wire Wire Line
	4750 9250 4800 9250
Wire Wire Line
	5000 9250 5050 9250
Wire Wire Line
	5050 8250 5000 8250
Wire Wire Line
	4800 8250 4750 8250
Text HLabel 4850 7000 2    60   Output ~ 0
CurrentSet_20A
Text HLabel 4850 7950 2    60   Output ~ 0
CurrentSet_2A
Text HLabel 4850 8950 2    60   Output ~ 0
CurrentSet_0.2A
Text HLabel 4850 10050 2    60   Output ~ 0
CurrentSet_0.02A
$Comp
L Connector:TestPoint_Alt TP69
U 1 1 60F58214
P 3650 8900
F 0 "TP69" H 3650 9200 50  0000 C BNN
F 1 "TEST" H 3650 9150 50  0000 C CNN
F 2 "TestPoint:TestPoint_Pad_D1.0mm" H 3650 8900 50  0001 C CNN
F 3 "" H 3650 8900 50  0001 C CNN
	1    3650 8900
	1    0    0    -1  
$EndComp
Wire Wire Line
	3650 7900 3650 7950
Connection ~ 3650 7950
Wire Wire Line
	3650 7950 3600 7950
$Comp
L Connector:TestPoint_Alt TP71
U 1 1 60F6DAE1
P 3650 7900
F 0 "TP71" H 3650 8200 50  0000 C BNN
F 1 "TEST" H 3650 8150 50  0000 C CNN
F 2 "TestPoint:TestPoint_Pad_D1.0mm" H 3650 7900 50  0001 C CNN
F 3 "" H 3650 7900 50  0001 C CNN
	1    3650 7900
	1    0    0    -1  
$EndComp
Wire Wire Line
	3650 8900 3650 8950
Connection ~ 3650 8950
Wire Wire Line
	3650 8950 3600 8950
$Comp
L Connector:TestPoint_Alt TP73
U 1 1 60F83E60
P 3650 10000
F 0 "TP73" H 3650 10300 50  0000 C BNN
F 1 "TEST" H 3650 10250 50  0000 C CNN
F 2 "TestPoint:TestPoint_Pad_D1.0mm" H 3650 10000 50  0001 C CNN
F 3 "" H 3650 10000 50  0001 C CNN
	1    3650 10000
	1    0    0    -1  
$EndComp
Wire Wire Line
	3650 10000 3650 10050
Connection ~ 3650 10050
Wire Wire Line
	3650 10050 3600 10050
Text Label 4150 4850 2    60   ~ 0
CurrentSetPWM_2A
Text Label 4150 5250 2    60   ~ 0
CurrentSetPWM_0.2A
Text HLabel 12150 3850 2    60   Input ~ 0
CurrentMeas_0.02A
Text HLabel 4150 4750 0    60   Output ~ 0
RangeOn_0.2A
Text HLabel 4150 3750 0    60   Input ~ 0
CurrentMeas_20A_3
Text HLabel 12150 4350 2    60   Input ~ 0
CurrentMeas_20A_2
Text HLabel 12150 4250 2    60   Input ~ 0
CurrentMeas_20A_1
$Comp
L power:+3V0 #PWR0243
U 1 1 61DDE3CA
P 14300 8250
F 0 "#PWR0243" H 14300 8100 50  0001 C CNN
F 1 "+3V0" H 14300 8390 50  0000 C CNN
F 2 "" H 14300 8250 50  0000 C CNN
F 3 "" H 14300 8250 50  0000 C CNN
	1    14300 8250
	1    0    0    -1  
$EndComp
Wire Wire Line
	14300 8350 13850 8350
Wire Wire Line
	13850 8400 13850 8350
$Comp
L power:VSSA #PWR0244
U 1 1 61E068FE
P 13850 8700
F 0 "#PWR0244" H 13850 8550 50  0001 C CNN
F 1 "VSSA" H 13850 8850 50  0000 C CNN
F 2 "" H 13850 8700 50  0001 C CNN
F 3 "" H 13850 8700 50  0001 C CNN
	1    13850 8700
	-1   0    0    1   
$EndComp
$Comp
L Device:R_Small R103
U 1 1 60E46908
P 2250 4350
F 0 "R103" H 2280 4370 50  0000 L CNN
F 1 "100R" H 2280 4310 50  0000 L CNN
F 2 "Resistor_SMD:R_0603_1608Metric" H 2250 4350 50  0001 C CNN
F 3 "" H 2250 4350 50  0001 C CNN
	1    2250 4350
	0    1    -1   0   
$EndComp
$Comp
L Device:R_Small R104
U 1 1 60E4690E
P 2250 4450
F 0 "R104" H 2280 4470 50  0000 L CNN
F 1 "100R" H 2280 4410 50  0000 L CNN
F 2 "Resistor_SMD:R_0603_1608Metric" H 2250 4450 50  0001 C CNN
F 3 "" H 2250 4450 50  0001 C CNN
	1    2250 4450
	0    1    1    0   
$EndComp
$Comp
L Device:D_TVS D27
U 1 1 60E46914
P 2750 4650
F 0 "D27" H 2750 4750 50  0000 C CNN
F 1 "CGA0402MLC-05G" H 2750 4550 50  0001 C CNN
F 2 "Resistor_SMD:R_0402_1005Metric" H 2750 4650 50  0001 C CNN
F 3 "" H 2750 4650 50  0001 C CNN
	1    2750 4650
	0    -1   1    0   
$EndComp
$Comp
L power:GND #PWR0245
U 1 1 60E4691A
P 2750 4850
F 0 "#PWR0245" H 2750 4600 50  0001 C CNN
F 1 "GND" H 2750 4700 50  0000 C CNN
F 2 "" H 2750 4850 50  0001 C CNN
F 3 "" H 2750 4850 50  0001 C CNN
	1    2750 4850
	-1   0    0    -1  
$EndComp
$Comp
L Device:D_TVS D26
U 1 1 60E46920
P 2450 4650
F 0 "D26" H 2450 4750 50  0000 C CNN
F 1 "CGA0402MLC-05G" H 2450 4550 50  0001 C CNN
F 2 "Resistor_SMD:R_0402_1005Metric" H 2450 4650 50  0001 C CNN
F 3 "" H 2450 4650 50  0001 C CNN
	1    2450 4650
	0    -1   1    0   
$EndComp
$Comp
L power:GND #PWR0246
U 1 1 60E46926
P 2450 4850
F 0 "#PWR0246" H 2450 4600 50  0001 C CNN
F 1 "GND" H 2450 4700 50  0000 C CNN
F 2 "" H 2450 4850 50  0001 C CNN
F 3 "" H 2450 4850 50  0001 C CNN
	1    2450 4850
	-1   0    0    -1  
$EndComp
Connection ~ 2750 4350
Wire Wire Line
	2750 4350 2750 4500
Connection ~ 2450 4450
Wire Wire Line
	2450 4450 2450 4500
Wire Wire Line
	2450 4850 2450 4800
Wire Wire Line
	2750 4850 2750 4800
Wire Wire Line
	2750 4350 2350 4350
Wire Wire Line
	2450 4450 2350 4450
Wire Wire Line
	2050 4450 2150 4450
Wire Wire Line
	2050 4350 2150 4350
Wire Wire Line
	2750 4350 4150 4350
Wire Wire Line
	2450 4450 4150 4450
$Comp
L Connector_Generic:Conn_01x03 J22
U 1 1 612662CD
P 14500 8350
F 0 "J22" H 14500 8550 50  0000 C CNN
F 1 "Conn_01x03" H 14500 8150 50  0001 C CNN
F 2 "Connector_PinHeader_2.54mm:PinHeader_1x03_P2.54mm_Vertical" H 14500 8350 50  0001 C CNN
F 3 "" H 14500 8350 50  0001 C CNN
	1    14500 8350
	1    0    0    1   
$EndComp
Text Notes 14600 8350 0    60   ~ 0
LM35-LP
$Comp
L Connector:TestPoint_Alt TP5
U 1 1 6130F8F8
P 8700 1150
F 0 "TP5" H 8700 1450 50  0000 C BNN
F 1 "TEST" H 8700 1400 50  0000 C CNN
F 2 "TestPoint:TestPoint_Pad_D1.0mm" H 8700 1150 50  0001 C CNN
F 3 "" H 8700 1150 50  0001 C CNN
	1    8700 1150
	1    0    0    -1  
$EndComp
Wire Wire Line
	8700 1150 8700 1200
Connection ~ 8700 1200
Wire Wire Line
	8700 1200 8950 1200
$Comp
L Connector:TestPoint_Alt TP8
U 1 1 6133F981
P 8750 5950
F 0 "TP8" H 8750 6250 50  0000 C BNN
F 1 "TEST" H 8750 6200 50  0000 C CNN
F 2 "TestPoint:TestPoint_Pad_D1.0mm" H 8750 5950 50  0001 C CNN
F 3 "" H 8750 5950 50  0001 C CNN
	1    8750 5950
	1    0    0    -1  
$EndComp
Text Label 4150 4950 2    60   ~ 0
CurrentSetPWM_0.02A
Text Label 12150 4450 0    60   ~ 0
NTC1
NoConn ~ 4150 4050
NoConn ~ 4150 3550
NoConn ~ 12150 4550
NoConn ~ 12150 4750
NoConn ~ 12150 4850
NoConn ~ 12150 4950
Wire Wire Line
	13850 8600 13850 8650
Wire Wire Line
	13850 8650 14300 8650
Wire Wire Line
	14300 8650 14300 8450
Connection ~ 13850 8650
Wire Wire Line
	13850 8650 13850 8700
Wire Wire Line
	8050 6400 8050 6350
Wire Wire Line
	8250 5950 8550 5950
Wire Wire Line
	8550 5900 8550 5950
Connection ~ 8550 5950
Wire Wire Line
	8550 5950 8750 5950
Wire Wire Line
	8550 5950 8550 6050
$Comp
L power:GNDPWR #PWR0251
U 1 1 6129A768
P 8550 6300
F 0 "#PWR0251" H 8550 6100 50  0001 C CNN
F 1 "GNDPWR" H 8554 6146 50  0000 C CNN
F 2 "" H 8550 6250 50  0001 C CNN
F 3 "" H 8550 6250 50  0001 C CNN
	1    8550 6300
	1    0    0    -1  
$EndComp
Wire Wire Line
	8550 6250 8550 6300
Text HLabel 4150 4550 0    60   Output ~ 0
SCL
Text HLabel 4150 4650 0    60   BiDi ~ 0
SDA
Wire Wire Line
	14050 5050 14500 5050
Text Label 4150 5050 2    60   ~ 0
CurrentSetPWM_20A
Text HLabel 12150 4750 2    60   Output ~ 0
RangeOn_2A
$EndSCHEMATC
