EESchema Schematic File Version 4
EELAYER 30 0
EELAYER END
$Descr A4 11693 8268
encoding utf-8
Sheet 8 9
Title ""
Date ""
Rev ""
Comp ""
Comment1 ""
Comment2 ""
Comment3 ""
Comment4 ""
$EndDescr
$Comp
L Connector:TestPoint_Alt TP40
U 1 1 5E171371
P 7200 3400
F 0 "TP40" H 7200 3700 50  0000 C BNN
F 1 "TEST" H 7200 3650 50  0000 C CNN
F 2 "TestPoint:TestPoint_Pad_D1.0mm" H 7200 3400 50  0001 C CNN
F 3 "" H 7200 3400 50  0001 C CNN
	1    7200 3400
	1    0    0    -1  
$EndComp
$Comp
L Device:Ferrite_Bead FB5
U 1 1 5E17137D
P 3700 3450
F 0 "FB5" V 3550 3475 50  0000 C CNN
F 1 "Ferrite_Bead" V 3850 3450 50  0000 C CNN
F 2 "Resistor_SMD:R_0603_1608Metric" V 3630 3450 50  0001 C CNN
F 3 "" H 3700 3450 50  0001 C CNN
	1    3700 3450
	0    1    1    0   
$EndComp
$Comp
L Device:Ferrite_Bead FB6
U 1 1 5E171383
P 5900 3450
F 0 "FB6" V 5750 3475 50  0000 C CNN
F 1 "Ferrite_Bead" V 6050 3450 50  0000 C CNN
F 2 "Resistor_SMD:R_0603_1608Metric" V 5830 3450 50  0001 C CNN
F 3 "" H 5900 3450 50  0001 C CNN
	1    5900 3450
	0    1    1    0   
$EndComp
$Comp
L Device:C C58
U 1 1 5E171389
P 4950 3800
F 0 "C58" H 4975 3900 50  0000 L CNN
F 1 "1uF" H 4975 3700 50  0000 L CNN
F 2 "Capacitor_SMD:C_0603_1608Metric" H 4988 3650 50  0001 C CNN
F 3 "" H 4950 3800 50  0001 C CNN
	1    4950 3800
	1    0    0    -1  
$EndComp
$Comp
L power:GND #PWR0107
U 1 1 5E17138F
P 4400 4150
F 0 "#PWR0107" H 4400 3900 50  0001 C CNN
F 1 "GND" H 4400 4000 50  0000 C CNN
F 2 "" H 4400 4150 50  0001 C CNN
F 3 "" H 4400 4150 50  0001 C CNN
	1    4400 4150
	1    0    0    -1  
$EndComp
Wire Wire Line
	4400 4100 4400 4150
Wire Wire Line
	4850 3600 4950 3600
Wire Wire Line
	4950 3600 4950 3650
$Comp
L Device:C C53
U 1 1 5E171398
P 5350 3650
F 0 "C53" H 5375 3750 50  0000 L CNN
F 1 "1uF" H 5375 3550 50  0000 L CNN
F 2 "Capacitor_SMD:C_0603_1608Metric" H 5388 3500 50  0001 C CNN
F 3 "" H 5350 3650 50  0001 C CNN
	1    5350 3650
	1    0    0    -1  
$EndComp
Wire Wire Line
	4850 3950 4950 3950
$Comp
L power:GND #PWR0102
U 1 1 5E17139F
P 5350 3850
F 0 "#PWR0102" H 5350 3600 50  0001 C CNN
F 1 "GND" H 5350 3700 50  0000 C CNN
F 2 "" H 5350 3850 50  0001 C CNN
F 3 "" H 5350 3850 50  0001 C CNN
	1    5350 3850
	1    0    0    -1  
$EndComp
Wire Wire Line
	4850 3450 5350 3450
Wire Wire Line
	5350 3500 5350 3450
Connection ~ 5350 3450
Wire Wire Line
	5350 3450 5750 3450
Wire Wire Line
	4250 3450 4050 3450
$Comp
L power:+5V #PWR0100
U 1 1 5E1713AA
P 3300 3400
F 0 "#PWR0100" H 3300 3250 50  0001 C CNN
F 1 "+5V" H 3300 3540 50  0000 C CNN
F 2 "" H 3300 3400 50  0001 C CNN
F 3 "" H 3300 3400 50  0001 C CNN
	1    3300 3400
	1    0    0    -1  
$EndComp
Wire Wire Line
	5350 3800 5350 3850
$Comp
L Device:C C?
U 1 1 5E1713B8
P 7200 3650
AR Path="/5E564C74/5E1713B8" Ref="C?"  Part="1" 
AR Path="/5E16FCC2/5E1713B8" Ref="C?"  Part="1" 
AR Path="/5E19D482/5E1713B8" Ref="C56"  Part="1" 
F 0 "C56" H 7225 3750 50  0000 L CNN
F 1 "0.1uF" H 7225 3550 50  0000 L CNN
F 2 "Capacitor_SMD:C_0603_1608Metric" H 7238 3500 50  0001 C CNN
F 3 "" H 7200 3650 50  0001 C CNN
	1    7200 3650
	1    0    0    -1  
$EndComp
Wire Wire Line
	7200 3500 7200 3450
Connection ~ 7200 3450
Wire Wire Line
	7200 3450 7550 3450
Wire Wire Line
	7200 3400 7200 3450
$Comp
L power:GND #PWR?
U 1 1 5E1713CC
P 7200 3850
AR Path="/5E564C74/5E1713CC" Ref="#PWR?"  Part="1" 
AR Path="/5E16FCC2/5E1713CC" Ref="#PWR?"  Part="1" 
AR Path="/5E19D482/5E1713CC" Ref="#PWR0105"  Part="1" 
F 0 "#PWR0105" H 7200 3600 50  0001 C CNN
F 1 "GND" H 7200 3700 50  0000 C CNN
F 2 "" H 7200 3850 50  0001 C CNN
F 3 "" H 7200 3850 50  0001 C CNN
	1    7200 3850
	1    0    0    -1  
$EndComp
Wire Wire Line
	7200 3800 7200 3850
$Comp
L power:-5V #PWR?
U 1 1 5E1713D4
P 8300 3450
AR Path="/5E564C74/5E1713D4" Ref="#PWR?"  Part="1" 
AR Path="/5E16FCC2/5E1713D4" Ref="#PWR?"  Part="1" 
AR Path="/5E19D482/5E1713D4" Ref="#PWR0101"  Part="1" 
F 0 "#PWR0101" H 8300 3550 50  0001 C CNN
F 1 "-5V" H 8300 3600 50  0000 C CNN
F 2 "" H 8300 3450 50  0001 C CNN
F 3 "" H 8300 3450 50  0001 C CNN
	1    8300 3450
	1    0    0    -1  
$EndComp
$Comp
L Device:CP C54
U 1 1 5E1713DA
P 6750 3650
F 0 "C54" H 6775 3750 50  0000 L CNN
F 1 "10uF 50V" H 6775 3550 50  0000 L CNN
F 2 "Capacitor_SMD:CP_Elec_5x5.8" H 6788 3500 50  0001 C CNN
F 3 "" H 6750 3650 50  0001 C CNN
	1    6750 3650
	1    0    0    -1  
$EndComp
$Comp
L power:GND #PWR0103
U 1 1 5E1713E0
P 6750 3850
F 0 "#PWR0103" H 6750 3600 50  0001 C CNN
F 1 "GND" H 6750 3700 50  0000 C CNN
F 2 "" H 6750 3850 50  0001 C CNN
F 3 "" H 6750 3850 50  0001 C CNN
	1    6750 3850
	1    0    0    -1  
$EndComp
Wire Wire Line
	6750 3800 6750 3850
Wire Wire Line
	6750 3500 6750 3450
$Comp
L Device:C C?
U 1 1 5E172906
P 7550 3650
AR Path="/5E564C74/5E172906" Ref="C?"  Part="1" 
AR Path="/5E16FCC2/5E172906" Ref="C?"  Part="1" 
AR Path="/5E19D482/5E172906" Ref="C57"  Part="1" 
F 0 "C57" H 7575 3750 50  0000 L CNN
F 1 "10nF" H 7575 3550 50  0000 L CNN
F 2 "Capacitor_SMD:C_0603_1608Metric" H 7588 3500 50  0001 C CNN
F 3 "" H 7550 3650 50  0001 C CNN
	1    7550 3650
	1    0    0    -1  
$EndComp
$Comp
L power:GND #PWR?
U 1 1 5E172C0F
P 7550 3850
AR Path="/5E564C74/5E172C0F" Ref="#PWR?"  Part="1" 
AR Path="/5E16FCC2/5E172C0F" Ref="#PWR?"  Part="1" 
AR Path="/5E19D482/5E172C0F" Ref="#PWR0106"  Part="1" 
F 0 "#PWR0106" H 7550 3600 50  0001 C CNN
F 1 "GND" H 7550 3700 50  0000 C CNN
F 2 "" H 7550 3850 50  0001 C CNN
F 3 "" H 7550 3850 50  0001 C CNN
	1    7550 3850
	1    0    0    -1  
$EndComp
Wire Wire Line
	7550 3850 7550 3800
Wire Wire Line
	7550 3500 7550 3450
Connection ~ 7550 3450
$Comp
L Device:C C?
U 1 1 5F3DBBDC
P 4050 3650
AR Path="/5E564C74/5F3DBBDC" Ref="C?"  Part="1" 
AR Path="/5E16FCC2/5F3DBBDC" Ref="C?"  Part="1" 
AR Path="/5E19D482/5F3DBBDC" Ref="C80"  Part="1" 
F 0 "C80" H 4075 3750 50  0000 L CNN
F 1 "1uF" H 4075 3550 50  0000 L CNN
F 2 "Capacitor_SMD:C_0603_1608Metric" H 4088 3500 50  0001 C CNN
F 3 "" H 4050 3650 50  0001 C CNN
	1    4050 3650
	1    0    0    -1  
$EndComp
$Comp
L power:GND #PWR0149
U 1 1 5F3DCE13
P 4050 3850
F 0 "#PWR0149" H 4050 3600 50  0001 C CNN
F 1 "GND" H 4050 3700 50  0000 C CNN
F 2 "" H 4050 3850 50  0001 C CNN
F 3 "" H 4050 3850 50  0001 C CNN
	1    4050 3850
	1    0    0    -1  
$EndComp
Wire Wire Line
	3550 3450 3300 3450
Wire Wire Line
	3300 3450 3300 3400
Wire Wire Line
	4050 3850 4050 3800
$Comp
L antaveiv:TCM829 U17
U 1 1 5E171377
P 4550 3700
F 0 "U17" H 4550 4175 50  0000 C CNN
F 1 "TPS60402DBVT" H 4550 4084 50  0000 C CNN
F 2 "Package_TO_SOT_SMD:SOT-23-5" H 4600 3200 50  0001 C CNN
F 3 "" H 4250 3950 50  0001 C CNN
	1    4550 3700
	1    0    0    -1  
$EndComp
Wire Wire Line
	4050 3450 4050 3500
Wire Wire Line
	3850 3450 4050 3450
Connection ~ 4050 3450
$Comp
L Device:Polyfuse_Small F?
U 1 1 60907D75
P 6450 3450
AR Path="/5DB5CB48/60907D75" Ref="F?"  Part="1" 
AR Path="/5E19D482/60907D75" Ref="F2"  Part="1" 
F 0 "F2" V 6245 3450 50  0000 C CNN
F 1 "50mA" V 6336 3450 50  0000 C CNN
F 2 "Resistor_SMD:R_1210_3225Metric" H 6500 3250 50  0001 L CNN
F 3 "~" H 6450 3450 50  0001 C CNN
	1    6450 3450
	0    1    1    0   
$EndComp
Wire Wire Line
	6050 3450 6350 3450
Wire Wire Line
	6550 3450 6750 3450
Connection ~ 6750 3450
Wire Wire Line
	6750 3450 7200 3450
Wire Wire Line
	7550 3450 8300 3450
$EndSCHEMATC
