EESchema Schematic File Version 4
EELAYER 30 0
EELAYER END
$Descr A3 16535 11693
encoding utf-8
Sheet 3 9
Title ""
Date ""
Rev ""
Comp ""
Comment1 ""
Comment2 ""
Comment3 ""
Comment4 ""
$EndDescr
$Comp
L Amplifier_Operational:OPA188xxDBV U6
U 1 1 5DC257C2
P 12150 4400
F 0 "U6" H 12150 4600 50  0000 L CNN
F 1 "TS321AILT" H 12150 4200 50  0000 L CNN
F 2 "Package_TO_SOT_SMD:SOT-23-5" H 12150 1700 50  0001 C CNN
F 3 "" H 12150 4400 50  0000 C CNN
	1    12150 4400
	1    0    0    -1  
$EndComp
$Comp
L power:GNDPWR #PWR039
U 1 1 5DC257D0
P 13250 6100
F 0 "#PWR039" H 13250 5900 50  0001 C CNN
F 1 "GNDPWR" H 13250 5970 50  0000 C CNN
F 2 "" H 13250 6050 50  0000 C CNN
F 3 "" H 13250 6050 50  0000 C CNN
	1    13250 6100
	1    0    0    -1  
$EndComp
$Comp
L power:GND #PWR022
U 1 1 5DC257DC
P 12450 4100
F 0 "#PWR022" H 12450 3850 50  0001 C CNN
F 1 "GND" H 12450 3950 50  0000 C CNN
F 2 "" H 12450 4100 50  0000 C CNN
F 3 "" H 12450 4100 50  0000 C CNN
	1    12450 4100
	1    0    0    -1  
$EndComp
$Comp
L Device:C_Small C21
U 1 1 5DC257E2
P 12250 4850
F 0 "C21" H 12260 4920 50  0000 L CNN
F 1 "0.1uF" H 12260 4770 50  0000 L CNN
F 2 "Capacitor_SMD:C_0603_1608Metric" H 12250 4850 50  0001 C CNN
F 3 "" H 12250 4850 50  0000 C CNN
	1    12250 4850
	1    0    0    -1  
$EndComp
$Comp
L Connector:TestPoint_Alt TP?
U 1 1 5DC259AE
P 11800 4250
AR Path="/5DC259AE" Ref="TP?"  Part="1" 
AR Path="/5DC24124/5DC259AE" Ref="TP7"  Part="1" 
F 0 "TP7" H 11800 4520 50  0000 C CNN
F 1 "TEST" H 11800 4450 50  0001 C CNN
F 2 "TestPoint:TestPoint_Pad_D1.0mm" H 12000 4250 50  0001 C CNN
F 3 "" H 12000 4250 50  0001 C CNN
	1    11800 4250
	1    0    0    -1  
$EndComp
$Comp
L Connector:TestPoint_Alt TP?
U 1 1 5DC259B5
P 12950 4350
AR Path="/5DC259B5" Ref="TP?"  Part="1" 
AR Path="/5DC24124/5DC259B5" Ref="TP6"  Part="1" 
F 0 "TP6" H 12950 4620 50  0000 C CNN
F 1 "TEST" H 12950 4550 50  0001 C CNN
F 2 "TestPoint:TestPoint_Pad_D1.0mm" H 13150 4350 50  0001 C CNN
F 3 "" H 13150 4350 50  0001 C CNN
	1    12950 4350
	1    0    0    -1  
$EndComp
$Comp
L Connector:TestPoint_Alt TP?
U 1 1 5DC259BC
P 11850 5200
AR Path="/5DC259BC" Ref="TP?"  Part="1" 
AR Path="/5DC24124/5DC259BC" Ref="TP11"  Part="1" 
F 0 "TP11" H 11850 5470 50  0000 C CNN
F 1 "TEST" H 11850 5400 50  0001 C CNN
F 2 "TestPoint:TestPoint_Pad_D1.0mm" H 12050 5200 50  0001 C CNN
F 3 "" H 12050 5200 50  0001 C CNN
	1    11850 5200
	1    0    0    -1  
$EndComp
$Comp
L power:GND #PWR027
U 1 1 5DC25A6D
P 12650 4700
F 0 "#PWR027" H 12650 4450 50  0001 C CNN
F 1 "GND" H 12650 4550 50  0000 C CNN
F 2 "" H 12650 4700 50  0000 C CNN
F 3 "" H 12650 4700 50  0000 C CNN
	1    12650 4700
	1    0    0    -1  
$EndComp
Text HLabel 1150 2550 0    60   Input ~ 0
~RangeOn_20A
Text HLabel 14800 5400 3    60   Output ~ 0
CurrentMeas_0.2A
$Comp
L power:+12V #PWR019
U 1 1 5DC70EEC
P 12050 3750
F 0 "#PWR019" H 12050 3600 50  0001 C CNN
F 1 "+12V" H 12050 3890 50  0000 C CNN
F 2 "" H 12050 3750 50  0001 C CNN
F 3 "" H 12050 3750 50  0001 C CNN
	1    12050 3750
	1    0    0    -1  
$EndComp
Wire Wire Line
	12050 3750 12050 3850
Wire Wire Line
	12950 4400 12950 4350
Wire Wire Line
	11850 4500 11750 4500
Wire Wire Line
	13250 3550 13250 4200
Wire Wire Line
	12050 3850 12450 3850
Connection ~ 12050 3850
Wire Wire Line
	12450 3900 12450 3850
Connection ~ 13250 5250
Wire Wire Line
	12050 3850 12050 4100
Wire Wire Line
	13250 5250 13550 5250
$Comp
L Device:R_Small R21
U 1 1 5DED7E7A
P 12800 4400
F 0 "R21" H 12830 4420 50  0000 L CNN
F 1 "100R" H 12830 4360 50  0000 L CNN
F 2 "Resistor_SMD:R_0603_1608Metric" H 12800 4400 50  0001 C CNN
F 3 "" H 12800 4400 50  0000 C CNN
	1    12800 4400
	0    -1   -1   0   
$EndComp
Wire Wire Line
	12900 4400 12950 4400
Wire Wire Line
	12050 4700 12050 4750
$Comp
L Device:R_Small R36
U 1 1 5E1DA93C
P 12950 5250
F 0 "R36" H 12980 5270 50  0000 L CNN
F 1 "10K" H 12980 5210 50  0000 L CNN
F 2 "Resistor_SMD:R_0603_1608Metric" H 12950 5250 50  0001 C CNN
F 3 "" H 12950 5250 50  0000 C CNN
	1    12950 5250
	0    -1   -1   0   
$EndComp
Wire Wire Line
	12650 4700 12650 4650
Wire Wire Line
	12700 4400 12650 4400
Wire Wire Line
	12650 4400 12650 4450
Connection ~ 12650 4400
$Comp
L Connector:TestPoint_Alt TP?
U 1 1 5E380A7C
P 14650 5350
AR Path="/5E380A7C" Ref="TP?"  Part="1" 
AR Path="/5DC24124/5E380A7C" Ref="TP47"  Part="1" 
F 0 "TP47" H 14650 5620 50  0000 C CNN
F 1 "TEST" H 14650 5550 50  0001 C CNN
F 2 "TestPoint:TestPoint_Pad_D1.0mm" H 14850 5350 50  0001 C CNN
F 3 "" H 14850 5350 50  0001 C CNN
	1    14650 5350
	1    0    0    -1  
$EndComp
Connection ~ 14650 5350
$Comp
L Device:R_Small R83
U 1 1 5E38113E
P 14350 5350
F 0 "R83" H 14380 5370 50  0000 L CNN
F 1 "1K" H 14380 5310 50  0000 L CNN
F 2 "Resistor_SMD:R_0603_1608Metric" H 14350 5350 50  0001 C CNN
F 3 "" H 14350 5350 50  0000 C CNN
	1    14350 5350
	0    1    1    0   
$EndComp
Wire Wire Line
	14450 5350 14650 5350
$Comp
L Device:C_Small C68
U 1 1 5E381781
P 14650 5500
F 0 "C68" H 14660 5570 50  0000 L CNN
F 1 "0.1uF" H 14660 5420 50  0000 L CNN
F 2 "Capacitor_SMD:C_0603_1608Metric" H 14650 5500 50  0001 C CNN
F 3 "" H 14650 5500 50  0000 C CNN
	1    14650 5500
	-1   0    0    1   
$EndComp
$Comp
L power:GND #PWR0123
U 1 1 5E381E2F
P 14650 5650
F 0 "#PWR0123" H 14650 5400 50  0001 C CNN
F 1 "GND" H 14650 5500 50  0000 C CNN
F 2 "" H 14650 5650 50  0000 C CNN
F 3 "" H 14650 5650 50  0000 C CNN
	1    14650 5650
	1    0    0    -1  
$EndComp
Wire Wire Line
	14650 5350 14650 5400
Wire Wire Line
	14650 5600 14650 5650
$Comp
L Amplifier_Operational:OPA188xxDBV U22
U 1 1 5E6A2FA1
P 13850 5350
F 0 "U22" H 13850 5550 50  0000 L CNN
F 1 "TS321AILT" H 13850 5150 50  0000 L CNN
F 2 "Package_TO_SOT_SMD:SOT-23-5" H 13850 2650 50  0001 C CNN
F 3 "" H 13850 5350 50  0000 C CNN
	1    13850 5350
	1    0    0    -1  
$EndComp
$Comp
L power:-5V #PWR0128
U 1 1 5E6A3949
P 13750 5750
F 0 "#PWR0128" H 13750 5850 50  0001 C CNN
F 1 "-5V" H 13750 5900 50  0000 C CNN
F 2 "" H 13750 5750 50  0001 C CNN
F 3 "" H 13750 5750 50  0001 C CNN
	1    13750 5750
	-1   0    0    1   
$EndComp
Wire Wire Line
	14050 4600 14050 4550
Wire Wire Line
	13750 4450 13750 4550
Wire Wire Line
	14050 4550 13750 4550
Connection ~ 13750 4550
Wire Wire Line
	13750 4550 13750 5050
$Comp
L power:+5V #PWR?
U 1 1 5E6B036A
P 13750 4450
AR Path="/5E25D876/5E6B036A" Ref="#PWR?"  Part="1" 
AR Path="/5DC24124/5E6B036A" Ref="#PWR0129"  Part="1" 
F 0 "#PWR0129" H 13750 4300 50  0001 C CNN
F 1 "+5V" H 13765 4623 50  0000 C CNN
F 2 "" H 13750 4450 50  0001 C CNN
F 3 "" H 13750 4450 50  0001 C CNN
	1    13750 4450
	1    0    0    -1  
$EndComp
$Comp
L power:GND #PWR0130
U 1 1 5E6D1CF4
P 14050 4850
F 0 "#PWR0130" H 14050 4600 50  0001 C CNN
F 1 "GND" H 14050 4700 50  0000 C CNN
F 2 "" H 14050 4850 50  0000 C CNN
F 3 "" H 14050 4850 50  0000 C CNN
	1    14050 4850
	1    0    0    -1  
$EndComp
Wire Wire Line
	14050 4800 14050 4850
$Comp
L Device:C_Small C72
U 1 1 5E6E54FB
P 14050 4700
F 0 "C72" H 14060 4770 50  0000 L CNN
F 1 "0.1uF" H 14060 4620 50  0000 L CNN
F 2 "Capacitor_SMD:C_0603_1608Metric" H 14050 4700 50  0001 C CNN
F 3 "" H 14050 4700 50  0000 C CNN
	1    14050 4700
	1    0    0    -1  
$EndComp
$Comp
L power:GND #PWR0131
U 1 1 5E6FCC00
P 13900 5950
F 0 "#PWR0131" H 13900 5700 50  0001 C CNN
F 1 "GND" H 13900 5800 50  0000 C CNN
F 2 "" H 13900 5950 50  0000 C CNN
F 3 "" H 13900 5950 50  0000 C CNN
	1    13900 5950
	1    0    0    -1  
$EndComp
Wire Wire Line
	13900 5900 13900 5950
$Comp
L Device:C_Small C74
U 1 1 5E6FCC07
P 13900 5800
F 0 "C74" H 13910 5870 50  0000 L CNN
F 1 "0.1uF" H 13910 5720 50  0000 L CNN
F 2 "Capacitor_SMD:C_0603_1608Metric" H 13900 5800 50  0001 C CNN
F 3 "" H 13900 5800 50  0000 C CNN
	1    13900 5800
	1    0    0    -1  
$EndComp
Wire Wire Line
	13750 5650 13750 5700
Wire Wire Line
	13900 5700 13750 5700
Connection ~ 13750 5700
Wire Wire Line
	13750 5700 13750 5750
Wire Wire Line
	14150 5350 14200 5350
Wire Wire Line
	14200 5350 14200 6200
Wire Wire Line
	13500 6200 13500 5450
Wire Wire Line
	13500 5450 13550 5450
Connection ~ 14200 5350
Wire Wire Line
	14200 5350 14250 5350
$Comp
L Device:R_Small R79
U 1 1 5E47CE6E
P 12650 4550
F 0 "R79" H 12680 4570 50  0000 L CNN
F 1 "10K" H 12680 4510 50  0000 L CNN
F 2 "Resistor_SMD:R_0603_1608Metric" H 12650 4550 50  0001 C CNN
F 3 "" H 12650 4550 50  0000 C CNN
	1    12650 4550
	1    0    0    1   
$EndComp
$Comp
L power:-5V #PWR0137
U 1 1 5E96E6ED
P 11350 4800
F 0 "#PWR0137" H 11350 4900 50  0001 C CNN
F 1 "-5V" H 11350 4950 50  0000 C CNN
F 2 "" H 11350 4800 50  0001 C CNN
F 3 "" H 11350 4800 50  0001 C CNN
	1    11350 4800
	-1   0    0    1   
$EndComp
$Comp
L Connector:TestPoint_Alt TP?
U 1 1 5ED2F5DD
P 1500 2500
AR Path="/5ED2F5DD" Ref="TP?"  Part="1" 
AR Path="/5DC24124/5ED2F5DD" Ref="TP51"  Part="1" 
F 0 "TP51" H 1500 2770 50  0000 C CNN
F 1 "TEST" H 1500 2700 50  0001 C CNN
F 2 "TestPoint:TestPoint_Pad_D1.0mm" H 1700 2500 50  0001 C CNN
F 3 "" H 1700 2500 50  0001 C CNN
	1    1500 2500
	-1   0    0    -1  
$EndComp
$Comp
L Device:C_Small C78
U 1 1 5EE38023
P 12450 4000
F 0 "C78" H 12460 4070 50  0000 L CNN
F 1 "0.1uF" H 12460 3920 50  0000 L CNN
F 2 "Capacitor_SMD:C_0603_1608Metric" H 12450 4000 50  0001 C CNN
F 3 "" H 12450 4000 50  0000 C CNN
	1    12450 4000
	1    0    0    -1  
$EndComp
$Comp
L power:GND #PWR0145
U 1 1 5EE38B94
P 12250 5000
F 0 "#PWR0145" H 12250 4750 50  0001 C CNN
F 1 "GND" H 12250 4850 50  0000 C CNN
F 2 "" H 12250 5000 50  0000 C CNN
F 3 "" H 12250 5000 50  0000 C CNN
	1    12250 5000
	1    0    0    -1  
$EndComp
Wire Wire Line
	12250 4750 12050 4750
Wire Wire Line
	12050 4750 12050 5000
Connection ~ 12050 4750
Wire Wire Line
	12250 4950 12250 5000
$Comp
L Connector:TestPoint_Alt TP?
U 1 1 5F00FCBD
P 14200 5350
AR Path="/5F00FCBD" Ref="TP?"  Part="1" 
AR Path="/5DC24124/5F00FCBD" Ref="TP52"  Part="1" 
F 0 "TP52" H 14200 5620 50  0000 C CNN
F 1 "TEST" H 14200 5550 50  0001 C CNN
F 2 "TestPoint:TestPoint_Pad_D1.0mm" H 14400 5350 50  0001 C CNN
F 3 "" H 14400 5350 50  0001 C CNN
	1    14200 5350
	1    0    0    -1  
$EndComp
$Comp
L power:-5V #PWR032
U 1 1 5E1B0924
P 12050 5000
F 0 "#PWR032" H 12050 5100 50  0001 C CNN
F 1 "-5V" H 12050 5150 50  0000 C CNN
F 2 "" H 12050 5000 50  0001 C CNN
F 3 "" H 12050 5000 50  0001 C CNN
	1    12050 5000
	-1   0    0    1   
$EndComp
Wire Wire Line
	13250 4600 13250 5250
$Comp
L Isolator:SFH617A-1X007T U27
U 1 1 5FF2810B
P 11050 4400
F 0 "U27" H 11050 4725 50  0000 C CNN
F 1 "SFH617A-1X007T" H 11050 4634 50  0000 C CNN
F 2 "Package_DIP:SMDIP-4_W9.53mm_Clearance8mm" H 11050 4050 50  0001 C CIN
F 3 "http://www.vishay.com/docs/83740/sfh617a.pdf" H 11050 4350 50  0001 L CNN
	1    11050 4400
	1    0    0    -1  
$EndComp
Wire Wire Line
	11800 4250 11800 4300
Connection ~ 11800 4300
Wire Wire Line
	11800 4300 11850 4300
$Comp
L power:-5V #PWR0138
U 1 1 6011E49D
P 2400 3050
F 0 "#PWR0138" H 2400 3150 50  0001 C CNN
F 1 "-5V" H 2400 3200 50  0000 C CNN
F 2 "" H 2400 3050 50  0001 C CNN
F 3 "" H 2400 3050 50  0001 C CNN
	1    2400 3050
	-1   0    0    1   
$EndComp
$Comp
L power:+3V0 #PWR0141
U 1 1 6011E4A7
P 1700 2250
F 0 "#PWR0141" H 1700 2100 50  0001 C CNN
F 1 "+3V0" H 1700 2390 50  0000 C CNN
F 2 "" H 1700 2250 50  0000 C CNN
F 3 "" H 1700 2250 50  0000 C CNN
	1    1700 2250
	1    0    0    -1  
$EndComp
$Comp
L Isolator:SFH617A-1X007T U26
U 1 1 6011E4B1
P 2100 2650
F 0 "U26" H 2100 2975 50  0000 C CNN
F 1 "SFH617A-1X007T" H 2100 2884 50  0000 C CNN
F 2 "Package_DIP:SMDIP-4_W9.53mm_Clearance8mm" H 2100 2300 50  0001 C CIN
F 3 "http://www.vishay.com/docs/83740/sfh617a.pdf" H 2100 2600 50  0001 L CNN
	1    2100 2650
	1    0    0    -1  
$EndComp
Wire Wire Line
	2400 2750 2400 2800
$Comp
L Device:R_Small R81
U 1 1 60373DA6
P 1700 2400
F 0 "R81" H 1730 2420 50  0000 L CNN
F 1 "10K" H 1730 2360 50  0000 L CNN
F 2 "Resistor_SMD:R_0603_1608Metric" H 1700 2400 50  0001 C CNN
F 3 "" H 1700 2400 50  0000 C CNN
	1    1700 2400
	-1   0    0    1   
$EndComp
Wire Wire Line
	1700 2550 1800 2550
Wire Wire Line
	1700 2250 1700 2300
$Comp
L Device:R_Small R82
U 1 1 603A8A58
P 10500 4150
F 0 "R82" H 10530 4170 50  0000 L CNN
F 1 "10K" H 10530 4110 50  0000 L CNN
F 2 "Resistor_SMD:R_0603_1608Metric" H 10500 4150 50  0001 C CNN
F 3 "" H 10500 4150 50  0000 C CNN
	1    10500 4150
	1    0    0    -1  
$EndComp
Wire Wire Line
	10500 4000 10500 4050
Wire Wire Line
	10500 4250 10500 4300
Wire Wire Line
	10500 4300 10750 4300
$Comp
L power:+3V0 #PWR0139
U 1 1 6052A473
P 10500 4000
F 0 "#PWR0139" H 10500 3850 50  0001 C CNN
F 1 "+3V0" H 10500 4140 50  0000 C CNN
F 2 "" H 10500 4000 50  0000 C CNN
F 3 "" H 10500 4000 50  0000 C CNN
	1    10500 4000
	1    0    0    -1  
$EndComp
$Comp
L Device:R_Small R86
U 1 1 6056294B
P 2400 2900
F 0 "R86" H 2430 2920 50  0000 L CNN
F 1 "1K" H 2430 2860 50  0000 L CNN
F 2 "Resistor_SMD:R_0603_1608Metric" H 2400 2900 50  0001 C CNN
F 3 "" H 2400 2900 50  0000 C CNN
	1    2400 2900
	-1   0    0    -1  
$EndComp
Wire Wire Line
	2400 3000 2400 3050
$Comp
L Device:R_Small R87
U 1 1 60585DFF
P 11350 4650
F 0 "R87" H 11380 4670 50  0000 L CNN
F 1 "1K" H 11380 4610 50  0000 L CNN
F 2 "Resistor_SMD:R_0603_1608Metric" H 11350 4650 50  0001 C CNN
F 3 "" H 11350 4650 50  0000 C CNN
	1    11350 4650
	-1   0    0    1   
$EndComp
Wire Wire Line
	11200 1750 11250 1750
$Comp
L Device:R_Small R99
U 1 1 61D105E9
P 12150 2550
F 0 "R99" H 12180 2570 50  0000 L CNN
F 1 "10K" H 12180 2510 50  0000 L CNN
F 2 "Resistor_SMD:R_0603_1608Metric" H 12150 2550 50  0001 C CNN
F 3 "" H 12150 2550 50  0000 C CNN
	1    12150 2550
	0    -1   -1   0   
$EndComp
Connection ~ 12150 1650
Wire Wire Line
	12150 1700 12150 1650
$Comp
L Amplifier_Operational:OPA188xxDBV U31
U 1 1 61D105DF
P 11550 1650
F 0 "U31" H 11550 1850 50  0000 L CNN
F 1 "TS321AILT" H 11550 1450 50  0000 L CNN
F 2 "Package_TO_SOT_SMD:SOT-23-5" H 11550 -1650 50  0001 C CNN
F 3 "" H 11550 1650 50  0000 C CNN
	1    11550 1650
	1    0    0    -1  
$EndComp
$Comp
L power:GND #PWR0133
U 1 1 61D105D9
P 11850 1400
F 0 "#PWR0133" H 11850 1150 50  0001 C CNN
F 1 "GND" H 11850 1250 50  0000 C CNN
F 2 "" H 11850 1400 50  0000 C CNN
F 3 "" H 11850 1400 50  0000 C CNN
	1    11850 1400
	1    0    0    -1  
$EndComp
$Comp
L Device:C_Small C77
U 1 1 61D105D3
P 11850 1300
F 0 "C77" H 11860 1370 50  0000 L CNN
F 1 "0.1uF" H 11860 1220 50  0000 L CNN
F 2 "Capacitor_SMD:C_0603_1608Metric" H 11850 1300 50  0001 C CNN
F 3 "" H 11850 1300 50  0000 C CNN
	1    11850 1300
	1    0    0    -1  
$EndComp
$Comp
L power:+12V #PWR0135
U 1 1 61D105BB
P 11450 1100
F 0 "#PWR0135" H 11450 950 50  0001 C CNN
F 1 "+12V" H 11450 1240 50  0000 C CNN
F 2 "" H 11450 1100 50  0001 C CNN
F 3 "" H 11450 1100 50  0001 C CNN
	1    11450 1100
	1    0    0    -1  
$EndComp
Wire Wire Line
	11450 1100 11450 1150
Wire Wire Line
	11450 1150 11850 1150
Connection ~ 11450 1150
Wire Wire Line
	11850 1200 11850 1150
Wire Wire Line
	12200 1650 12150 1650
Wire Wire Line
	11450 1150 11450 1350
Wire Wire Line
	11450 1950 11450 2000
$Comp
L Device:C_Small C99
U 1 1 61D105AC
P 11550 2100
F 0 "C99" H 11560 2170 50  0000 L CNN
F 1 "0.1uF" H 11560 2020 50  0000 L CNN
F 2 "Capacitor_SMD:C_0603_1608Metric" H 11550 2100 50  0001 C CNN
F 3 "" H 11550 2100 50  0000 C CNN
	1    11550 2100
	1    0    0    -1  
$EndComp
Wire Wire Line
	11450 2000 11550 2000
Connection ~ 11450 2000
Wire Wire Line
	11450 2000 11450 2100
$Comp
L Device:R_Small R28
U 1 1 61D105A3
P 12300 1650
F 0 "R28" H 12330 1670 50  0000 L CNN
F 1 "100R" H 12330 1610 50  0000 L CNN
F 2 "Resistor_SMD:R_0603_1608Metric" H 12300 1650 50  0001 C CNN
F 3 "" H 12300 1650 50  0000 C CNN
	1    12300 1650
	0    -1   -1   0   
$EndComp
$Comp
L power:GND #PWR0136
U 1 1 61D1059C
P 11550 2300
F 0 "#PWR0136" H 11550 2050 50  0001 C CNN
F 1 "GND" H 11550 2150 50  0000 C CNN
F 2 "" H 11550 2300 50  0000 C CNN
F 3 "" H 11550 2300 50  0000 C CNN
	1    11550 2300
	1    0    0    -1  
$EndComp
$Comp
L power:-5V #PWR0140
U 1 1 61D10596
P 11450 2100
F 0 "#PWR0140" H 11450 2200 50  0001 C CNN
F 1 "-5V" H 11450 2250 50  0000 C CNN
F 2 "" H 11450 2100 50  0001 C CNN
F 3 "" H 11450 2100 50  0001 C CNN
	1    11450 2100
	-1   0    0    1   
$EndComp
Wire Wire Line
	12150 1950 12150 1900
$Comp
L power:GND #PWR0148
U 1 1 61D1058F
P 12150 1950
F 0 "#PWR0148" H 12150 1700 50  0001 C CNN
F 1 "GND" H 12150 1800 50  0000 C CNN
F 2 "" H 12150 1950 50  0000 C CNN
F 3 "" H 12150 1950 50  0000 C CNN
	1    12150 1950
	1    0    0    -1  
$EndComp
$Comp
L Device:R_Small R38
U 1 1 61D10589
P 12150 1800
F 0 "R38" H 12180 1820 50  0000 L CNN
F 1 "10K" H 12180 1760 50  0000 L CNN
F 2 "Resistor_SMD:R_0603_1608Metric" H 12150 1800 50  0001 C CNN
F 3 "" H 12150 1800 50  0000 C CNN
	1    12150 1800
	-1   0    0    1   
$EndComp
Wire Wire Line
	9200 4550 9200 4600
Connection ~ 9200 4550
Wire Wire Line
	7700 3550 7750 3550
Wire Wire Line
	8550 4550 7700 4550
Wire Wire Line
	9200 4550 9050 4550
$Comp
L Device:R_Small R98
U 1 1 61C319CA
P 8650 4550
F 0 "R98" H 8680 4570 50  0000 L CNN
F 1 "10K" H 8680 4510 50  0000 L CNN
F 2 "Resistor_SMD:R_0603_1608Metric" H 8650 4550 50  0001 C CNN
F 3 "" H 8650 4550 50  0000 C CNN
	1    8650 4550
	0    -1   -1   0   
$EndComp
Connection ~ 8650 3450
Wire Wire Line
	8650 3500 8650 3450
$Comp
L Amplifier_Operational:OPA188xxDBV U30
U 1 1 61C319C0
P 8050 3450
F 0 "U30" H 8050 3650 50  0000 L CNN
F 1 "TS321AILT" H 8050 3250 50  0000 L CNN
F 2 "Package_TO_SOT_SMD:SOT-23-5" H 8050 150 50  0001 C CNN
F 3 "" H 8050 3450 50  0000 C CNN
	1    8050 3450
	1    0    0    -1  
$EndComp
$Comp
L power:GND #PWR0168
U 1 1 61C319BA
P 8350 3200
F 0 "#PWR0168" H 8350 2950 50  0001 C CNN
F 1 "GND" H 8350 3050 50  0000 C CNN
F 2 "" H 8350 3200 50  0000 C CNN
F 3 "" H 8350 3200 50  0000 C CNN
	1    8350 3200
	1    0    0    -1  
$EndComp
$Comp
L Device:C_Small C73
U 1 1 61C319B4
P 8350 3100
F 0 "C73" H 8360 3170 50  0000 L CNN
F 1 "0.1uF" H 8360 3020 50  0000 L CNN
F 2 "Capacitor_SMD:C_0603_1608Metric" H 8350 3100 50  0001 C CNN
F 3 "" H 8350 3100 50  0000 C CNN
	1    8350 3100
	1    0    0    -1  
$EndComp
$Comp
L power:+12V #PWR0170
U 1 1 61C3199C
P 7950 2900
F 0 "#PWR0170" H 7950 2750 50  0001 C CNN
F 1 "+12V" H 7950 3040 50  0000 C CNN
F 2 "" H 7950 2900 50  0001 C CNN
F 3 "" H 7950 2900 50  0001 C CNN
	1    7950 2900
	1    0    0    -1  
$EndComp
Wire Wire Line
	7950 2900 7950 2950
Wire Wire Line
	7950 2950 8350 2950
Connection ~ 7950 2950
Wire Wire Line
	8350 3000 8350 2950
Wire Wire Line
	8700 3450 8650 3450
Wire Wire Line
	7950 2950 7950 3150
Wire Wire Line
	7950 3750 7950 3800
$Comp
L Device:C_Small C97
U 1 1 61C3198D
P 8050 3900
F 0 "C97" H 8060 3970 50  0000 L CNN
F 1 "0.1uF" H 8060 3820 50  0000 L CNN
F 2 "Capacitor_SMD:C_0603_1608Metric" H 8050 3900 50  0001 C CNN
F 3 "" H 8050 3900 50  0000 C CNN
	1    8050 3900
	1    0    0    -1  
$EndComp
Wire Wire Line
	7950 3800 8050 3800
Connection ~ 7950 3800
Wire Wire Line
	7950 3800 7950 3900
$Comp
L Device:R_Small R27
U 1 1 61C31984
P 8800 3450
F 0 "R27" H 8830 3470 50  0000 L CNN
F 1 "100R" H 8830 3410 50  0000 L CNN
F 2 "Resistor_SMD:R_0603_1608Metric" H 8800 3450 50  0001 C CNN
F 3 "" H 8800 3450 50  0000 C CNN
	1    8800 3450
	0    -1   -1   0   
$EndComp
$Comp
L power:GND #PWR0171
U 1 1 61C3197D
P 8050 4100
F 0 "#PWR0171" H 8050 3850 50  0001 C CNN
F 1 "GND" H 8050 3950 50  0000 C CNN
F 2 "" H 8050 4100 50  0000 C CNN
F 3 "" H 8050 4100 50  0000 C CNN
	1    8050 4100
	1    0    0    -1  
$EndComp
$Comp
L power:-5V #PWR0172
U 1 1 61C31977
P 7950 3900
F 0 "#PWR0172" H 7950 4000 50  0001 C CNN
F 1 "-5V" H 7950 4050 50  0000 C CNN
F 2 "" H 7950 3900 50  0001 C CNN
F 3 "" H 7950 3900 50  0001 C CNN
	1    7950 3900
	-1   0    0    1   
$EndComp
Wire Wire Line
	8650 3750 8650 3700
$Comp
L power:GND #PWR0173
U 1 1 61C31970
P 8650 3750
F 0 "#PWR0173" H 8650 3500 50  0001 C CNN
F 1 "GND" H 8650 3600 50  0000 C CNN
F 2 "" H 8650 3750 50  0000 C CNN
F 3 "" H 8650 3750 50  0000 C CNN
	1    8650 3750
	1    0    0    -1  
$EndComp
$Comp
L Device:R_Small R37
U 1 1 61C3196A
P 8650 3600
F 0 "R37" H 8680 3620 50  0000 L CNN
F 1 "10K" H 8680 3560 50  0000 L CNN
F 2 "Resistor_SMD:R_0603_1608Metric" H 8650 3600 50  0001 C CNN
F 3 "" H 8650 3600 50  0000 C CNN
	1    8650 3600
	-1   0    0    1   
$EndComp
Wire Wire Line
	7450 4550 7450 4600
Connection ~ 7450 4550
Wire Wire Line
	5700 4550 5700 4600
Connection ~ 5700 4550
Wire Wire Line
	2450 3550 2500 3550
Wire Wire Line
	3300 4550 2450 4550
Wire Wire Line
	3950 4550 3800 4550
$Comp
L Device:R_Small R95
U 1 1 61B90214
P 3400 4550
F 0 "R95" H 3430 4570 50  0000 L CNN
F 1 "10K" H 3430 4510 50  0000 L CNN
F 2 "Resistor_SMD:R_0603_1608Metric" H 3400 4550 50  0001 C CNN
F 3 "" H 3400 4550 50  0000 C CNN
	1    3400 4550
	0    -1   -1   0   
$EndComp
Connection ~ 3400 3450
Wire Wire Line
	3400 3500 3400 3450
$Comp
L power:GND #PWR0174
U 1 1 61B90204
P 3100 3200
F 0 "#PWR0174" H 3100 2950 50  0001 C CNN
F 1 "GND" H 3100 3050 50  0000 C CNN
F 2 "" H 3100 3200 50  0000 C CNN
F 3 "" H 3100 3200 50  0000 C CNN
	1    3100 3200
	1    0    0    -1  
$EndComp
$Comp
L Device:C_Small C22
U 1 1 61B901FE
P 3100 3100
F 0 "C22" H 3110 3170 50  0000 L CNN
F 1 "0.1uF" H 3110 3020 50  0000 L CNN
F 2 "Capacitor_SMD:C_0603_1608Metric" H 3100 3100 50  0001 C CNN
F 3 "" H 3100 3100 50  0000 C CNN
	1    3100 3100
	1    0    0    -1  
$EndComp
$Comp
L power:+12V #PWR0176
U 1 1 61B901E6
P 2700 2900
F 0 "#PWR0176" H 2700 2750 50  0001 C CNN
F 1 "+12V" H 2700 3040 50  0000 C CNN
F 2 "" H 2700 2900 50  0001 C CNN
F 3 "" H 2700 2900 50  0001 C CNN
	1    2700 2900
	1    0    0    -1  
$EndComp
Wire Wire Line
	2700 2900 2700 2950
Wire Wire Line
	2700 2950 3100 2950
Connection ~ 2700 2950
Wire Wire Line
	3100 3000 3100 2950
Wire Wire Line
	3450 3450 3400 3450
Wire Wire Line
	2700 2950 2700 3150
Wire Wire Line
	2700 3750 2700 3800
$Comp
L Device:C_Small C91
U 1 1 61B901D7
P 2800 3900
F 0 "C91" H 2810 3970 50  0000 L CNN
F 1 "0.1uF" H 2810 3820 50  0000 L CNN
F 2 "Capacitor_SMD:C_0603_1608Metric" H 2800 3900 50  0001 C CNN
F 3 "" H 2800 3900 50  0000 C CNN
	1    2800 3900
	1    0    0    -1  
$EndComp
Wire Wire Line
	2700 3800 2800 3800
Connection ~ 2700 3800
Wire Wire Line
	2700 3800 2700 3900
$Comp
L Device:R_Small R20
U 1 1 61B901CE
P 3550 3450
F 0 "R20" H 3580 3470 50  0000 L CNN
F 1 "100R" H 3580 3410 50  0000 L CNN
F 2 "Resistor_SMD:R_0603_1608Metric" H 3550 3450 50  0001 C CNN
F 3 "" H 3550 3450 50  0000 C CNN
	1    3550 3450
	0    -1   -1   0   
$EndComp
$Comp
L power:GND #PWR0177
U 1 1 61B901C7
P 2800 4100
F 0 "#PWR0177" H 2800 3850 50  0001 C CNN
F 1 "GND" H 2800 3950 50  0000 C CNN
F 2 "" H 2800 4100 50  0000 C CNN
F 3 "" H 2800 4100 50  0000 C CNN
	1    2800 4100
	1    0    0    -1  
$EndComp
$Comp
L power:-5V #PWR0178
U 1 1 61B901C1
P 2700 3900
F 0 "#PWR0178" H 2700 4000 50  0001 C CNN
F 1 "-5V" H 2700 4050 50  0000 C CNN
F 2 "" H 2700 3900 50  0001 C CNN
F 3 "" H 2700 3900 50  0001 C CNN
	1    2700 3900
	-1   0    0    1   
$EndComp
Wire Wire Line
	3400 3750 3400 3700
$Comp
L power:GND #PWR0179
U 1 1 61B901BA
P 3400 3750
F 0 "#PWR0179" H 3400 3500 50  0001 C CNN
F 1 "GND" H 3400 3600 50  0000 C CNN
F 2 "" H 3400 3750 50  0000 C CNN
F 3 "" H 3400 3750 50  0000 C CNN
	1    3400 3750
	1    0    0    -1  
$EndComp
$Comp
L Device:R_Small R30
U 1 1 61B901B4
P 3400 3600
F 0 "R30" H 3430 3620 50  0000 L CNN
F 1 "10K" H 3430 3560 50  0000 L CNN
F 2 "Resistor_SMD:R_0603_1608Metric" H 3400 3600 50  0001 C CNN
F 3 "" H 3400 3600 50  0000 C CNN
	1    3400 3600
	-1   0    0    1   
$EndComp
Wire Wire Line
	4200 3550 4250 3550
Wire Wire Line
	5050 4550 4200 4550
Wire Wire Line
	5700 4550 5550 4550
$Comp
L Device:R_Small R96
U 1 1 61B73549
P 5150 4550
F 0 "R96" H 5180 4570 50  0000 L CNN
F 1 "10K" H 5180 4510 50  0000 L CNN
F 2 "Resistor_SMD:R_0603_1608Metric" H 5150 4550 50  0001 C CNN
F 3 "" H 5150 4550 50  0000 C CNN
	1    5150 4550
	0    -1   -1   0   
$EndComp
Connection ~ 5150 3450
Wire Wire Line
	5150 3500 5150 3450
$Comp
L Amplifier_Operational:OPA188xxDBV U8
U 1 1 61B7353F
P 4550 3450
F 0 "U8" H 4550 3650 50  0000 L CNN
F 1 "TS321AILT" H 4550 3250 50  0000 L CNN
F 2 "Package_TO_SOT_SMD:SOT-23-5" H 4550 150 50  0001 C CNN
F 3 "" H 4550 3450 50  0000 C CNN
	1    4550 3450
	1    0    0    -1  
$EndComp
$Comp
L power:GND #PWR0180
U 1 1 61B73539
P 4850 3200
F 0 "#PWR0180" H 4850 2950 50  0001 C CNN
F 1 "GND" H 4850 3050 50  0000 C CNN
F 2 "" H 4850 3200 50  0000 C CNN
F 3 "" H 4850 3200 50  0000 C CNN
	1    4850 3200
	1    0    0    -1  
$EndComp
$Comp
L Device:C_Small C24
U 1 1 61B73533
P 4850 3100
F 0 "C24" H 4860 3170 50  0000 L CNN
F 1 "0.1uF" H 4860 3020 50  0000 L CNN
F 2 "Capacitor_SMD:C_0603_1608Metric" H 4850 3100 50  0001 C CNN
F 3 "" H 4850 3100 50  0000 C CNN
	1    4850 3100
	1    0    0    -1  
$EndComp
$Comp
L power:+12V #PWR0182
U 1 1 61B7351B
P 4450 2900
F 0 "#PWR0182" H 4450 2750 50  0001 C CNN
F 1 "+12V" H 4450 3040 50  0000 C CNN
F 2 "" H 4450 2900 50  0001 C CNN
F 3 "" H 4450 2900 50  0001 C CNN
	1    4450 2900
	1    0    0    -1  
$EndComp
Wire Wire Line
	4450 2900 4450 2950
Wire Wire Line
	4450 2950 4850 2950
Connection ~ 4450 2950
Wire Wire Line
	4850 3000 4850 2950
Wire Wire Line
	5200 3450 5150 3450
Wire Wire Line
	4450 2950 4450 3150
Wire Wire Line
	4450 3750 4450 3800
$Comp
L Device:C_Small C93
U 1 1 61B7350C
P 4550 3900
F 0 "C93" H 4560 3970 50  0000 L CNN
F 1 "0.1uF" H 4560 3820 50  0000 L CNN
F 2 "Capacitor_SMD:C_0603_1608Metric" H 4550 3900 50  0001 C CNN
F 3 "" H 4550 3900 50  0000 C CNN
	1    4550 3900
	1    0    0    -1  
$EndComp
Wire Wire Line
	4450 3800 4550 3800
Connection ~ 4450 3800
Wire Wire Line
	4450 3800 4450 3900
$Comp
L Device:R_Small R25
U 1 1 61B73503
P 5300 3450
F 0 "R25" H 5330 3470 50  0000 L CNN
F 1 "100R" H 5330 3410 50  0000 L CNN
F 2 "Resistor_SMD:R_0603_1608Metric" H 5300 3450 50  0001 C CNN
F 3 "" H 5300 3450 50  0000 C CNN
	1    5300 3450
	0    -1   -1   0   
$EndComp
$Comp
L power:GND #PWR0183
U 1 1 61B734FC
P 4550 4100
F 0 "#PWR0183" H 4550 3850 50  0001 C CNN
F 1 "GND" H 4550 3950 50  0000 C CNN
F 2 "" H 4550 4100 50  0000 C CNN
F 3 "" H 4550 4100 50  0000 C CNN
	1    4550 4100
	1    0    0    -1  
$EndComp
$Comp
L power:-5V #PWR0184
U 1 1 61B734F6
P 4450 3900
F 0 "#PWR0184" H 4450 4000 50  0001 C CNN
F 1 "-5V" H 4450 4050 50  0000 C CNN
F 2 "" H 4450 3900 50  0001 C CNN
F 3 "" H 4450 3900 50  0001 C CNN
	1    4450 3900
	-1   0    0    1   
$EndComp
Wire Wire Line
	5150 3750 5150 3700
$Comp
L power:GND #PWR0185
U 1 1 61B734EF
P 5150 3750
F 0 "#PWR0185" H 5150 3500 50  0001 C CNN
F 1 "GND" H 5150 3600 50  0000 C CNN
F 2 "" H 5150 3750 50  0000 C CNN
F 3 "" H 5150 3750 50  0000 C CNN
	1    5150 3750
	1    0    0    -1  
$EndComp
$Comp
L Device:R_Small R32
U 1 1 61B734E9
P 5150 3600
F 0 "R32" H 5180 3620 50  0000 L CNN
F 1 "10K" H 5180 3560 50  0000 L CNN
F 2 "Resistor_SMD:R_0603_1608Metric" H 5150 3600 50  0001 C CNN
F 3 "" H 5150 3600 50  0000 C CNN
	1    5150 3600
	-1   0    0    1   
$EndComp
Wire Wire Line
	3950 3600 3950 4550
Wire Wire Line
	5700 3600 5700 4550
Wire Wire Line
	5950 3550 6000 3550
Wire Wire Line
	6800 4550 5950 4550
Wire Wire Line
	7450 4550 7300 4550
$Comp
L Device:R_Small R97
U 1 1 61A19BD2
P 6900 4550
F 0 "R97" H 6930 4570 50  0000 L CNN
F 1 "10K" H 6930 4510 50  0000 L CNN
F 2 "Resistor_SMD:R_0603_1608Metric" H 6900 4550 50  0001 C CNN
F 3 "" H 6900 4550 50  0000 C CNN
	1    6900 4550
	0    -1   -1   0   
$EndComp
Connection ~ 6900 3450
Wire Wire Line
	6900 3500 6900 3450
$Comp
L Amplifier_Operational:OPA188xxDBV U23
U 1 1 61A19BC8
P 6300 3450
F 0 "U23" H 6300 3650 50  0000 L CNN
F 1 "TS321AILT" H 6300 3250 50  0000 L CNN
F 2 "Package_TO_SOT_SMD:SOT-23-5" H 6300 150 50  0001 C CNN
F 3 "" H 6300 3450 50  0000 C CNN
	1    6300 3450
	1    0    0    -1  
$EndComp
$Comp
L power:GND #PWR0186
U 1 1 61A19BC2
P 6600 3200
F 0 "#PWR0186" H 6600 2950 50  0001 C CNN
F 1 "GND" H 6600 3050 50  0000 C CNN
F 2 "" H 6600 3200 50  0000 C CNN
F 3 "" H 6600 3200 50  0000 C CNN
	1    6600 3200
	1    0    0    -1  
$EndComp
$Comp
L Device:C_Small C27
U 1 1 61A19BBC
P 6600 3100
F 0 "C27" H 6610 3170 50  0000 L CNN
F 1 "0.1uF" H 6610 3020 50  0000 L CNN
F 2 "Capacitor_SMD:C_0603_1608Metric" H 6600 3100 50  0001 C CNN
F 3 "" H 6600 3100 50  0000 C CNN
	1    6600 3100
	1    0    0    -1  
$EndComp
$Comp
L power:+12V #PWR0188
U 1 1 61A19BA4
P 6200 2900
F 0 "#PWR0188" H 6200 2750 50  0001 C CNN
F 1 "+12V" H 6200 3040 50  0000 C CNN
F 2 "" H 6200 2900 50  0001 C CNN
F 3 "" H 6200 2900 50  0001 C CNN
	1    6200 2900
	1    0    0    -1  
$EndComp
Wire Wire Line
	6200 2900 6200 2950
Wire Wire Line
	6200 2950 6600 2950
Connection ~ 6200 2950
Wire Wire Line
	6600 3000 6600 2950
Wire Wire Line
	6950 3450 6900 3450
Wire Wire Line
	6200 2950 6200 3150
Wire Wire Line
	6200 3750 6200 3800
$Comp
L Device:C_Small C95
U 1 1 61A19B91
P 6300 3900
F 0 "C95" H 6310 3970 50  0000 L CNN
F 1 "0.1uF" H 6310 3820 50  0000 L CNN
F 2 "Capacitor_SMD:C_0603_1608Metric" H 6300 3900 50  0001 C CNN
F 3 "" H 6300 3900 50  0000 C CNN
	1    6300 3900
	1    0    0    -1  
$EndComp
Wire Wire Line
	6200 3800 6300 3800
Connection ~ 6200 3800
Wire Wire Line
	6200 3800 6200 3900
$Comp
L Device:R_Small R26
U 1 1 61A19B88
P 7050 3450
F 0 "R26" H 7080 3470 50  0000 L CNN
F 1 "100R" H 7080 3410 50  0000 L CNN
F 2 "Resistor_SMD:R_0603_1608Metric" H 7050 3450 50  0001 C CNN
F 3 "" H 7050 3450 50  0000 C CNN
	1    7050 3450
	0    -1   -1   0   
$EndComp
$Comp
L power:GND #PWR0189
U 1 1 61A19B81
P 6300 4100
F 0 "#PWR0189" H 6300 3850 50  0001 C CNN
F 1 "GND" H 6300 3950 50  0000 C CNN
F 2 "" H 6300 4100 50  0000 C CNN
F 3 "" H 6300 4100 50  0000 C CNN
	1    6300 4100
	1    0    0    -1  
$EndComp
$Comp
L power:-5V #PWR0190
U 1 1 61A19B7B
P 6200 3900
F 0 "#PWR0190" H 6200 4000 50  0001 C CNN
F 1 "-5V" H 6200 4050 50  0000 C CNN
F 2 "" H 6200 3900 50  0001 C CNN
F 3 "" H 6200 3900 50  0001 C CNN
	1    6200 3900
	-1   0    0    1   
$EndComp
Wire Wire Line
	6900 3750 6900 3700
$Comp
L power:GND #PWR0191
U 1 1 61A19B73
P 6900 3750
F 0 "#PWR0191" H 6900 3500 50  0001 C CNN
F 1 "GND" H 6900 3600 50  0000 C CNN
F 2 "" H 6900 3750 50  0000 C CNN
F 3 "" H 6900 3750 50  0000 C CNN
	1    6900 3750
	1    0    0    -1  
$EndComp
$Comp
L Device:R_Small R34
U 1 1 61A19B6D
P 6900 3600
F 0 "R34" H 6930 3620 50  0000 L CNN
F 1 "10K" H 6930 3560 50  0000 L CNN
F 2 "Resistor_SMD:R_0603_1608Metric" H 6900 3600 50  0001 C CNN
F 3 "" H 6900 3600 50  0000 C CNN
	1    6900 3600
	-1   0    0    1   
$EndComp
Wire Wire Line
	3950 2650 5700 2650
Connection ~ 3950 2650
Wire Wire Line
	3950 3200 3950 2650
Wire Wire Line
	5700 2650 7450 2650
Connection ~ 5700 2650
Wire Wire Line
	3400 2650 3950 2650
Wire Wire Line
	5700 3200 5700 2650
Wire Wire Line
	7450 2650 9200 2650
Connection ~ 7450 2650
Wire Wire Line
	7450 3200 7450 2650
Wire Wire Line
	9200 3200 9200 2650
Wire Wire Line
	7450 3600 7450 4550
Wire Wire Line
	12700 1800 12700 1950
Wire Wire Line
	9200 3600 9200 4550
$Comp
L power:GNDPWR #PWR046
U 1 1 5DC257F6
P 7700 5450
F 0 "#PWR046" H 7700 5250 50  0001 C CNN
F 1 "GNDPWR" H 7500 5400 50  0000 C CNN
F 2 "" H 7700 5400 50  0000 C CNN
F 3 "" H 7700 5400 50  0000 C CNN
	1    7700 5450
	1    0    0    -1  
$EndComp
$Comp
L antaveiv:IRFP250-TO247AC Q16
U 1 1 5F2CA2D0
P 12600 1600
F 0 "Q16" H 12850 1675 50  0000 L CNN
F 1 "IRFP250-TO247AC" H 12850 1600 50  0001 L CNN
F 2 "Package_TO_SOT_THT:TO-247-3_Vertical" H 12850 1525 50  0001 L CIN
F 3 "" H 12600 1600 50  0000 L CNN
	1    12600 1600
	1    0    0    -1  
$EndComp
$Comp
L Device:R R22
U 1 1 5F2CA29E
P 12700 2750
F 0 "R22" V 12780 2750 50  0000 C CNN
F 1 "0R1" V 12700 2750 50  0000 C CNN
F 2 "Resistor_SMD:R_2512_6332Metric" V 12630 2750 50  0001 C CNN
F 3 "" H 12700 2750 50  0001 C CNN
	1    12700 2750
	1    0    0    -1  
$EndComp
Text HLabel 3250 600  0    60   Input ~ 0
DUT+
Wire Wire Line
	5700 5350 7300 5350
Wire Wire Line
	7450 5350 7700 5350
Wire Wire Line
	3950 4900 3950 5350
Connection ~ 5700 5350
Wire Wire Line
	5700 4900 5700 5350
Connection ~ 7450 5350
Wire Wire Line
	9200 5350 9200 4900
Wire Wire Line
	3950 5350 5550 5350
Wire Wire Line
	7450 5350 7450 4900
$Comp
L antaveiv:IRFP250-TO247AC Q4
U 1 1 5DC25ACC
P 9100 3400
F 0 "Q4" H 9350 3475 50  0000 L CNN
F 1 "IRFP250-TO247AC" H 9350 3400 50  0001 L CNN
F 2 "Package_TO_SOT_THT:TO-247-3_Vertical" H 9350 3325 50  0001 L CIN
F 3 "" H 9100 3400 50  0000 L CNN
	1    9100 3400
	1    0    0    -1  
$EndComp
$Comp
L antaveiv:IRFP250-TO247AC Q3
U 1 1 5DC25AC5
P 7350 3400
F 0 "Q3" H 7600 3475 50  0000 L CNN
F 1 "IRFP250-TO247AC" H 7600 3400 50  0001 L CNN
F 2 "Package_TO_SOT_THT:TO-247-3_Vertical" H 7600 3325 50  0001 L CIN
F 3 "" H 7350 3400 50  0000 L CNN
	1    7350 3400
	1    0    0    -1  
$EndComp
$Comp
L antaveiv:IRFP250-TO247AC Q2
U 1 1 5DC25ABE
P 5600 3400
F 0 "Q2" H 5850 3475 50  0000 L CNN
F 1 "IRFP250-TO247AC" H 5850 3400 50  0001 L CNN
F 2 "Package_TO_SOT_THT:TO-247-3_Vertical" H 5850 3325 50  0001 L CIN
F 3 "" H 5600 3400 50  0000 L CNN
	1    5600 3400
	1    0    0    -1  
$EndComp
$Comp
L antaveiv:IRFP250-TO247AC Q1
U 1 1 5DC25AB7
P 3850 3400
F 0 "Q1" H 4100 3475 50  0000 L CNN
F 1 "IRFP250-TO247AC" H 4100 3400 50  0001 L CNN
F 2 "Package_TO_SOT_THT:TO-247-3_Vertical" H 4100 3325 50  0001 L CIN
F 3 "" H 3850 3400 50  0000 L CNN
	1    3850 3400
	1    0    0    -1  
$EndComp
$Comp
L Device:R R35
U 1 1 5DC25877
P 9200 4750
F 0 "R35" V 9280 4750 50  0000 C CNN
F 1 "0R1" V 9200 4750 50  0000 C CNN
F 2 "Resistor_SMD:R_2512_6332Metric" V 9130 4750 50  0001 C CNN
F 3 "" H 9200 4750 50  0001 C CNN
	1    9200 4750
	1    0    0    -1  
$EndComp
$Comp
L Device:R R33
U 1 1 5DC25870
P 7450 4750
F 0 "R33" V 7530 4750 50  0000 C CNN
F 1 "0R1" V 7450 4750 50  0000 C CNN
F 2 "Resistor_SMD:R_2512_6332Metric" V 7380 4750 50  0001 C CNN
F 3 "" H 7450 4750 50  0001 C CNN
	1    7450 4750
	1    0    0    -1  
$EndComp
$Comp
L Device:R R29
U 1 1 5DC25810
P 3950 4750
F 0 "R29" V 4030 4750 50  0000 C CNN
F 1 "0R1" V 3950 4750 50  0000 C CNN
F 2 "Resistor_SMD:R_2512_6332Metric" V 3880 4750 50  0001 C CNN
F 3 "" H 3950 4750 50  0001 C CNN
	1    3950 4750
	1    0    0    -1  
$EndComp
$Comp
L Device:R R31
U 1 1 5DC25809
P 5700 4750
F 0 "R31" V 5780 4750 50  0000 C CNN
F 1 "0R1" V 5700 4750 50  0000 C CNN
F 2 "Resistor_SMD:R_2512_6332Metric" V 5630 4750 50  0001 C CNN
F 3 "" H 5700 4750 50  0001 C CNN
	1    5700 4750
	1    0    0    -1  
$EndComp
Connection ~ 3950 4550
Wire Wire Line
	3950 4550 3950 4600
Connection ~ 12700 2550
Wire Wire Line
	12700 2550 12700 2600
Connection ~ 2500 2550
Wire Wire Line
	4250 2550 6000 2550
Connection ~ 4250 2550
Wire Wire Line
	6000 2550 7750 2550
Connection ~ 6000 2550
Text Notes 1150 3750 0    60   ~ 0
Pull SET voltage negative \nwhen load is off
Wire Wire Line
	13250 5300 13250 5250
Wire Wire Line
	13250 5500 13250 5550
$Comp
L Device:R_Small R18
U 1 1 623958BA
P 13250 5400
F 0 "R18" H 13280 5420 50  0000 L CNN
F 1 "1R" H 13280 5360 50  0000 L CNN
F 2 "Resistor_SMD:R_0603_1608Metric" H 13250 5400 50  0001 C CNN
F 3 "" H 13250 5400 50  0000 C CNN
	1    13250 5400
	1    0    0    -1  
$EndComp
$Comp
L Device:R_Small R19
U 1 1 62396899
P 13250 5650
F 0 "R19" H 13280 5670 50  0000 L CNN
F 1 "1R" H 13280 5610 50  0000 L CNN
F 2 "Resistor_SMD:R_0603_1608Metric" H 13250 5650 50  0001 C CNN
F 3 "" H 13250 5650 50  0000 C CNN
	1    13250 5650
	1    0    0    -1  
$EndComp
Wire Wire Line
	2400 2550 2500 2550
$Comp
L Amplifier_Operational:OPA188xxDBV U34
U 1 1 62AB1B4D
P 12500 7600
F 0 "U34" H 12500 7800 50  0000 L CNN
F 1 "TS321AILT" H 12500 7400 50  0000 L CNN
F 2 "Package_TO_SOT_SMD:SOT-23-5" H 12500 4900 50  0001 C CNN
F 3 "" H 12500 7600 50  0000 C CNN
	1    12500 7600
	1    0    0    -1  
$EndComp
$Comp
L power:GNDPWR #PWR0194
U 1 1 62AB1B53
P 13600 8900
F 0 "#PWR0194" H 13600 8700 50  0001 C CNN
F 1 "GNDPWR" H 13600 8770 50  0000 C CNN
F 2 "" H 13600 8850 50  0000 C CNN
F 3 "" H 13600 8850 50  0000 C CNN
	1    13600 8900
	1    0    0    -1  
$EndComp
$Comp
L power:GND #PWR0195
U 1 1 62AB1B59
P 12800 7300
F 0 "#PWR0195" H 12800 7050 50  0001 C CNN
F 1 "GND" H 12800 7150 50  0000 C CNN
F 2 "" H 12800 7300 50  0000 C CNN
F 3 "" H 12800 7300 50  0000 C CNN
	1    12800 7300
	1    0    0    -1  
$EndComp
$Comp
L Device:C_Small C109
U 1 1 62AB1B5F
P 12600 8050
F 0 "C109" H 12610 8120 50  0000 L CNN
F 1 "0.1uF" H 12610 7970 50  0000 L CNN
F 2 "Capacitor_SMD:C_0603_1608Metric" H 12600 8050 50  0001 C CNN
F 3 "" H 12600 8050 50  0000 C CNN
	1    12600 8050
	1    0    0    -1  
$EndComp
$Comp
L Connector:TestPoint_Alt TP?
U 1 1 62AB1B65
P 12150 7450
AR Path="/62AB1B65" Ref="TP?"  Part="1" 
AR Path="/5DC24124/62AB1B65" Ref="TP56"  Part="1" 
F 0 "TP56" H 12150 7720 50  0000 C CNN
F 1 "TEST" H 12150 7650 50  0001 C CNN
F 2 "TestPoint:TestPoint_Pad_D1.0mm" H 12350 7450 50  0001 C CNN
F 3 "" H 12350 7450 50  0001 C CNN
	1    12150 7450
	1    0    0    -1  
$EndComp
$Comp
L Connector:TestPoint_Alt TP?
U 1 1 62AB1B6B
P 13300 7550
AR Path="/62AB1B6B" Ref="TP?"  Part="1" 
AR Path="/5DC24124/62AB1B6B" Ref="TP57"  Part="1" 
F 0 "TP57" H 13300 7820 50  0000 C CNN
F 1 "TEST" H 13300 7750 50  0001 C CNN
F 2 "TestPoint:TestPoint_Pad_D1.0mm" H 13500 7550 50  0001 C CNN
F 3 "" H 13500 7550 50  0001 C CNN
	1    13300 7550
	1    0    0    -1  
$EndComp
$Comp
L Connector:TestPoint_Alt TP?
U 1 1 62AB1B71
P 12200 8400
AR Path="/62AB1B71" Ref="TP?"  Part="1" 
AR Path="/5DC24124/62AB1B71" Ref="TP60"  Part="1" 
F 0 "TP60" H 12200 8670 50  0000 C CNN
F 1 "TEST" H 12200 8600 50  0001 C CNN
F 2 "TestPoint:TestPoint_Pad_D1.0mm" H 12400 8400 50  0001 C CNN
F 3 "" H 12400 8400 50  0001 C CNN
	1    12200 8400
	1    0    0    -1  
$EndComp
$Comp
L power:GND #PWR0196
U 1 1 62AB1B7D
P 13000 7900
F 0 "#PWR0196" H 13000 7650 50  0001 C CNN
F 1 "GND" H 13000 7750 50  0000 C CNN
F 2 "" H 13000 7900 50  0000 C CNN
F 3 "" H 13000 7900 50  0000 C CNN
	1    13000 7900
	1    0    0    -1  
$EndComp
Text HLabel 10450 7500 0    60   Input ~ 0
~RangeOn_0.02A
Text HLabel 15150 8650 3    60   Output ~ 0
CurrentMeas_0.02A
$Comp
L power:+12V #PWR0197
U 1 1 62AB1B87
P 12400 6950
F 0 "#PWR0197" H 12400 6800 50  0001 C CNN
F 1 "+12V" H 12400 7090 50  0000 C CNN
F 2 "" H 12400 6950 50  0001 C CNN
F 3 "" H 12400 6950 50  0001 C CNN
	1    12400 6950
	1    0    0    -1  
$EndComp
Wire Wire Line
	12400 6950 12400 7050
Wire Wire Line
	13300 7600 13300 7550
Wire Wire Line
	12200 7700 12100 7700
Wire Wire Line
	12400 7050 12800 7050
Connection ~ 12400 7050
Wire Wire Line
	12800 7100 12800 7050
Connection ~ 13600 8450
Wire Wire Line
	12400 7050 12400 7300
Wire Wire Line
	13600 8450 13900 8450
$Comp
L Device:R_Small R108
U 1 1 62AB1B9B
P 13150 7600
F 0 "R108" H 13180 7620 50  0000 L CNN
F 1 "100R" H 13180 7560 50  0000 L CNN
F 2 "Resistor_SMD:R_0603_1608Metric" H 13150 7600 50  0001 C CNN
F 3 "" H 13150 7600 50  0000 C CNN
	1    13150 7600
	0    -1   -1   0   
$EndComp
Wire Wire Line
	13250 7600 13300 7600
Wire Wire Line
	12400 7900 12400 7950
$Comp
L Device:R_Small R112
U 1 1 62AB1BAA
P 13300 8450
F 0 "R112" H 13330 8470 50  0000 L CNN
F 1 "10K" H 13330 8410 50  0000 L CNN
F 2 "Resistor_SMD:R_0603_1608Metric" H 13300 8450 50  0001 C CNN
F 3 "" H 13300 8450 50  0000 C CNN
	1    13300 8450
	0    -1   -1   0   
$EndComp
Wire Wire Line
	13000 7900 13000 7850
Wire Wire Line
	13050 7600 13000 7600
Wire Wire Line
	13000 7600 13000 7650
Connection ~ 13000 7600
$Comp
L Connector:TestPoint_Alt TP?
U 1 1 62AB1BB7
P 15000 8550
AR Path="/62AB1BB7" Ref="TP?"  Part="1" 
AR Path="/5DC24124/62AB1BB7" Ref="TP62"  Part="1" 
F 0 "TP62" H 15000 8820 50  0000 C CNN
F 1 "TEST" H 15000 8750 50  0001 C CNN
F 2 "TestPoint:TestPoint_Pad_D1.0mm" H 15200 8550 50  0001 C CNN
F 3 "" H 15200 8550 50  0001 C CNN
	1    15000 8550
	1    0    0    -1  
$EndComp
Connection ~ 15000 8550
$Comp
L Device:R_Small R113
U 1 1 62AB1BBF
P 14700 8550
F 0 "R113" H 14730 8570 50  0000 L CNN
F 1 "1K" H 14730 8510 50  0000 L CNN
F 2 "Resistor_SMD:R_0603_1608Metric" H 14700 8550 50  0001 C CNN
F 3 "" H 14700 8550 50  0000 C CNN
	1    14700 8550
	0    1    1    0   
$EndComp
Wire Wire Line
	14800 8550 15000 8550
$Comp
L Device:C_Small C113
U 1 1 62AB1BC6
P 15000 8700
F 0 "C113" H 15010 8770 50  0000 L CNN
F 1 "0.1uF" H 15010 8620 50  0000 L CNN
F 2 "Capacitor_SMD:C_0603_1608Metric" H 15000 8700 50  0001 C CNN
F 3 "" H 15000 8700 50  0000 C CNN
	1    15000 8700
	-1   0    0    1   
$EndComp
$Comp
L power:GND #PWR0198
U 1 1 62AB1BCC
P 15000 8850
F 0 "#PWR0198" H 15000 8600 50  0001 C CNN
F 1 "GND" H 15000 8700 50  0000 C CNN
F 2 "" H 15000 8850 50  0000 C CNN
F 3 "" H 15000 8850 50  0000 C CNN
	1    15000 8850
	1    0    0    -1  
$EndComp
Wire Wire Line
	15000 8550 15000 8600
Wire Wire Line
	15000 8800 15000 8850
$Comp
L Amplifier_Operational:OPA188xxDBV U35
U 1 1 62AB1BE5
P 14200 8550
F 0 "U35" H 14200 8750 50  0000 L CNN
F 1 "TS321AILT" H 14200 8350 50  0000 L CNN
F 2 "Package_TO_SOT_SMD:SOT-23-5" H 14200 5850 50  0001 C CNN
F 3 "" H 14200 8550 50  0000 C CNN
	1    14200 8550
	1    0    0    -1  
$EndComp
$Comp
L power:-5V #PWR0199
U 1 1 62AB1BEB
P 14100 8950
F 0 "#PWR0199" H 14100 9050 50  0001 C CNN
F 1 "-5V" H 14100 9100 50  0000 C CNN
F 2 "" H 14100 8950 50  0001 C CNN
F 3 "" H 14100 8950 50  0001 C CNN
	1    14100 8950
	-1   0    0    1   
$EndComp
Wire Wire Line
	14400 7800 14400 7750
Wire Wire Line
	14100 7650 14100 7750
Wire Wire Line
	14400 7750 14100 7750
Connection ~ 14100 7750
Wire Wire Line
	14100 7750 14100 8250
$Comp
L power:+5V #PWR?
U 1 1 62AB1BF6
P 14100 7650
AR Path="/5E25D876/62AB1BF6" Ref="#PWR?"  Part="1" 
AR Path="/5DC24124/62AB1BF6" Ref="#PWR0200"  Part="1" 
F 0 "#PWR0200" H 14100 7500 50  0001 C CNN
F 1 "+5V" H 14115 7823 50  0000 C CNN
F 2 "" H 14100 7650 50  0001 C CNN
F 3 "" H 14100 7650 50  0001 C CNN
	1    14100 7650
	1    0    0    -1  
$EndComp
$Comp
L power:GND #PWR0201
U 1 1 62AB1BFC
P 14400 8050
F 0 "#PWR0201" H 14400 7800 50  0001 C CNN
F 1 "GND" H 14400 7900 50  0000 C CNN
F 2 "" H 14400 8050 50  0000 C CNN
F 3 "" H 14400 8050 50  0000 C CNN
	1    14400 8050
	1    0    0    -1  
$EndComp
Wire Wire Line
	14400 8000 14400 8050
$Comp
L Device:C_Small C110
U 1 1 62AB1C03
P 14400 7900
F 0 "C110" H 14410 7970 50  0000 L CNN
F 1 "0.1uF" H 14410 7820 50  0000 L CNN
F 2 "Capacitor_SMD:C_0603_1608Metric" H 14400 7900 50  0001 C CNN
F 3 "" H 14400 7900 50  0000 C CNN
	1    14400 7900
	1    0    0    -1  
$EndComp
$Comp
L power:GND #PWR0202
U 1 1 62AB1C09
P 14250 9150
F 0 "#PWR0202" H 14250 8900 50  0001 C CNN
F 1 "GND" H 14250 9000 50  0000 C CNN
F 2 "" H 14250 9150 50  0000 C CNN
F 3 "" H 14250 9150 50  0000 C CNN
	1    14250 9150
	1    0    0    -1  
$EndComp
Wire Wire Line
	14250 9100 14250 9150
$Comp
L Device:C_Small C114
U 1 1 62AB1C10
P 14250 9000
F 0 "C114" H 14260 9070 50  0000 L CNN
F 1 "0.1uF" H 14260 8920 50  0000 L CNN
F 2 "Capacitor_SMD:C_0603_1608Metric" H 14250 9000 50  0001 C CNN
F 3 "" H 14250 9000 50  0000 C CNN
	1    14250 9000
	1    0    0    -1  
$EndComp
Wire Wire Line
	14100 8850 14100 8900
Wire Wire Line
	14250 8900 14100 8900
Connection ~ 14100 8900
Wire Wire Line
	14100 8900 14100 8950
Wire Wire Line
	14500 8550 14550 8550
Wire Wire Line
	14550 8550 14550 9400
Wire Wire Line
	13850 9400 13850 8650
Wire Wire Line
	13850 8650 13900 8650
Connection ~ 14550 8550
Wire Wire Line
	14550 8550 14600 8550
$Comp
L Device:R_Small R109
U 1 1 62AB1C21
P 13000 7750
F 0 "R109" H 13030 7770 50  0000 L CNN
F 1 "10K" H 13030 7710 50  0000 L CNN
F 2 "Resistor_SMD:R_0603_1608Metric" H 13000 7750 50  0001 C CNN
F 3 "" H 13000 7750 50  0000 C CNN
	1    13000 7750
	1    0    0    1   
$EndComp
$Comp
L Device:C_Small C108
U 1 1 62AB1C39
P 12800 7200
F 0 "C108" H 12810 7270 50  0000 L CNN
F 1 "0.1uF" H 12810 7120 50  0000 L CNN
F 2 "Capacitor_SMD:C_0603_1608Metric" H 12800 7200 50  0001 C CNN
F 3 "" H 12800 7200 50  0000 C CNN
	1    12800 7200
	1    0    0    -1  
$EndComp
$Comp
L power:GND #PWR0204
U 1 1 62AB1C3F
P 12600 8200
F 0 "#PWR0204" H 12600 7950 50  0001 C CNN
F 1 "GND" H 12600 8050 50  0000 C CNN
F 2 "" H 12600 8200 50  0000 C CNN
F 3 "" H 12600 8200 50  0000 C CNN
	1    12600 8200
	1    0    0    -1  
$EndComp
Wire Wire Line
	12600 7950 12400 7950
Wire Wire Line
	12400 7950 12400 8200
Connection ~ 12400 7950
Wire Wire Line
	12600 8150 12600 8200
$Comp
L Connector:TestPoint_Alt TP?
U 1 1 62AB1C57
P 14550 8550
AR Path="/62AB1C57" Ref="TP?"  Part="1" 
AR Path="/5DC24124/62AB1C57" Ref="TP61"  Part="1" 
F 0 "TP61" H 14550 8820 50  0000 C CNN
F 1 "TEST" H 14550 8750 50  0001 C CNN
F 2 "TestPoint:TestPoint_Pad_D1.0mm" H 14750 8550 50  0001 C CNN
F 3 "" H 14750 8550 50  0001 C CNN
	1    14550 8550
	1    0    0    -1  
$EndComp
$Comp
L power:-5V #PWR0210
U 1 1 62AB1C9A
P 12400 8200
F 0 "#PWR0210" H 12400 8300 50  0001 C CNN
F 1 "-5V" H 12400 8350 50  0000 C CNN
F 2 "" H 12400 8200 50  0001 C CNN
F 3 "" H 12400 8200 50  0001 C CNN
	1    12400 8200
	-1   0    0    1   
$EndComp
Wire Wire Line
	13600 7800 13600 8450
$Comp
L Isolator:SFH617A-1X007T U33
U 1 1 62AB1CA1
P 11450 7600
F 0 "U33" H 11450 7925 50  0000 C CNN
F 1 "SFH617A-1X007T" H 11450 7834 50  0000 C CNN
F 2 "Package_DIP:SMDIP-4_W9.53mm_Clearance8mm" H 11450 7250 50  0001 C CIN
F 3 "http://www.vishay.com/docs/83740/sfh617a.pdf" H 11450 7550 50  0001 L CNN
	1    11450 7600
	1    0    0    -1  
$EndComp
Wire Wire Line
	12150 7450 12150 7500
Connection ~ 12150 7500
Wire Wire Line
	12150 7500 12200 7500
Wire Wire Line
	12050 7100 12050 7500
$Comp
L Device:R_Small R107
U 1 1 62AB1CB5
P 10900 7350
F 0 "R107" H 10930 7370 50  0000 L CNN
F 1 "10K" H 10930 7310 50  0000 L CNN
F 2 "Resistor_SMD:R_0603_1608Metric" H 10900 7350 50  0001 C CNN
F 3 "" H 10900 7350 50  0000 C CNN
	1    10900 7350
	1    0    0    -1  
$EndComp
Wire Wire Line
	10900 7200 10900 7250
Wire Wire Line
	10450 7500 10500 7500
$Comp
L power:+3V0 #PWR0211
U 1 1 62AB1CBE
P 10900 7200
F 0 "#PWR0211" H 10900 7050 50  0001 C CNN
F 1 "+3V0" H 10900 7340 50  0000 C CNN
F 2 "" H 10900 7200 50  0000 C CNN
F 3 "" H 10900 7200 50  0000 C CNN
	1    10900 7200
	1    0    0    -1  
$EndComp
$Comp
L Device:R_Small R110
U 1 1 62AB1CC4
P 11750 7850
F 0 "R110" H 11780 7870 50  0000 L CNN
F 1 "1K" H 11780 7810 50  0000 L CNN
F 2 "Resistor_SMD:R_0603_1608Metric" H 11750 7850 50  0001 C CNN
F 3 "" H 11750 7850 50  0000 C CNN
	1    11750 7850
	-1   0    0    1   
$EndComp
Wire Wire Line
	13600 8800 13600 8850
$Comp
L Device:R_Small R114
U 1 1 62AB1CEE
P 13600 8700
F 0 "R114" H 13630 8720 50  0000 L CNN
F 1 "100R" H 13630 8660 50  0000 L CNN
F 2 "Resistor_SMD:R_0603_1608Metric" H 13600 8700 50  0001 C CNN
F 3 "" H 13600 8700 50  0000 C CNN
	1    13600 8700
	1    0    0    -1  
$EndComp
Wire Wire Line
	13600 7400 13600 7300
Wire Wire Line
	13600 7300 15950 7300
Wire Wire Line
	15950 7300 15950 3550
$Comp
L Connector:TestPoint_Alt TP?
U 1 1 63095C21
P 11250 950
AR Path="/63095C21" Ref="TP?"  Part="1" 
AR Path="/5DC24124/63095C21" Ref="TP66"  Part="1" 
F 0 "TP66" H 11250 1220 50  0000 C CNN
F 1 "TEST" H 11250 1150 50  0001 C CNN
F 2 "TestPoint:TestPoint_Pad_D1.0mm" H 11450 950 50  0001 C CNN
F 3 "" H 11450 950 50  0001 C CNN
	1    11250 950 
	1    0    0    -1  
$EndComp
Wire Wire Line
	2500 2550 2700 2550
NoConn ~ 27150 6400
Wire Wire Line
	12450 4400 12650 4400
Wire Wire Line
	11750 4500 11750 5250
Wire Wire Line
	3100 3450 3400 3450
Wire Wire Line
	12800 7600 13000 7600
Wire Wire Line
	12100 7700 12100 8450
Wire Wire Line
	12100 8450 12200 8450
Wire Wire Line
	11750 5250 11850 5250
Wire Wire Line
	13250 3550 15950 3550
Connection ~ 15950 3550
Wire Wire Line
	15950 3550 15950 600 
Text HLabel 14250 2150 3    60   Output ~ 0
CurrentMeas_2A
Wire Wire Line
	12700 1950 13000 1950
$Comp
L Connector:TestPoint_Alt TP?
U 1 1 6145409D
P 14100 2050
AR Path="/6145409D" Ref="TP?"  Part="1" 
AR Path="/5DC24124/6145409D" Ref="TP13"  Part="1" 
F 0 "TP13" H 14100 2320 50  0000 C CNN
F 1 "TEST" H 14100 2250 50  0001 C CNN
F 2 "TestPoint:TestPoint_Pad_D1.0mm" H 14300 2050 50  0001 C CNN
F 3 "" H 14300 2050 50  0001 C CNN
	1    14100 2050
	1    0    0    -1  
$EndComp
Connection ~ 14100 2050
$Comp
L Device:R_Small R23
U 1 1 614540A5
P 13800 2050
F 0 "R23" H 13830 2070 50  0000 L CNN
F 1 "1K" H 13830 2010 50  0000 L CNN
F 2 "Resistor_SMD:R_0603_1608Metric" H 13800 2050 50  0001 C CNN
F 3 "" H 13800 2050 50  0000 C CNN
	1    13800 2050
	0    1    1    0   
$EndComp
Wire Wire Line
	13900 2050 14100 2050
$Comp
L Device:C_Small C20
U 1 1 614540AC
P 14100 2200
F 0 "C20" H 14110 2270 50  0000 L CNN
F 1 "0.1uF" H 14110 2120 50  0000 L CNN
F 2 "Capacitor_SMD:C_0603_1608Metric" H 14100 2200 50  0001 C CNN
F 3 "" H 14100 2200 50  0000 C CNN
	1    14100 2200
	-1   0    0    1   
$EndComp
$Comp
L power:GND #PWR0104
U 1 1 614540B2
P 14100 2350
F 0 "#PWR0104" H 14100 2100 50  0001 C CNN
F 1 "GND" H 14100 2200 50  0000 C CNN
F 2 "" H 14100 2350 50  0000 C CNN
F 3 "" H 14100 2350 50  0000 C CNN
	1    14100 2350
	1    0    0    -1  
$EndComp
Wire Wire Line
	14100 2050 14100 2100
Wire Wire Line
	14100 2300 14100 2350
$Comp
L Amplifier_Operational:OPA188xxDBV U24
U 1 1 614540BA
P 13300 2050
F 0 "U24" H 13300 2250 50  0000 L CNN
F 1 "TS321AILT" H 13300 1850 50  0000 L CNN
F 2 "Package_TO_SOT_SMD:SOT-23-5" H 13300 -650 50  0001 C CNN
F 3 "" H 13300 2050 50  0000 C CNN
	1    13300 2050
	1    0    0    -1  
$EndComp
$Comp
L power:-5V #PWR0125
U 1 1 614540C0
P 13200 2450
F 0 "#PWR0125" H 13200 2550 50  0001 C CNN
F 1 "-5V" H 13200 2600 50  0000 C CNN
F 2 "" H 13200 2450 50  0001 C CNN
F 3 "" H 13200 2450 50  0001 C CNN
	1    13200 2450
	-1   0    0    1   
$EndComp
Wire Wire Line
	13500 1300 13500 1250
Wire Wire Line
	13200 1150 13200 1250
Wire Wire Line
	13500 1250 13200 1250
Connection ~ 13200 1250
Wire Wire Line
	13200 1250 13200 1750
$Comp
L power:GND #PWR0126
U 1 1 614540CB
P 13500 1550
F 0 "#PWR0126" H 13500 1300 50  0001 C CNN
F 1 "GND" H 13500 1400 50  0000 C CNN
F 2 "" H 13500 1550 50  0000 C CNN
F 3 "" H 13500 1550 50  0000 C CNN
	1    13500 1550
	1    0    0    -1  
$EndComp
Wire Wire Line
	13500 1500 13500 1550
$Comp
L Device:C_Small C19
U 1 1 614540D2
P 13500 1400
F 0 "C19" H 13510 1470 50  0000 L CNN
F 1 "0.1uF" H 13510 1320 50  0000 L CNN
F 2 "Capacitor_SMD:C_0603_1608Metric" H 13500 1400 50  0001 C CNN
F 3 "" H 13500 1400 50  0000 C CNN
	1    13500 1400
	1    0    0    -1  
$EndComp
$Comp
L power:GND #PWR0132
U 1 1 614540D8
P 13350 2650
F 0 "#PWR0132" H 13350 2400 50  0001 C CNN
F 1 "GND" H 13350 2500 50  0000 C CNN
F 2 "" H 13350 2650 50  0000 C CNN
F 3 "" H 13350 2650 50  0000 C CNN
	1    13350 2650
	1    0    0    -1  
$EndComp
Wire Wire Line
	13350 2600 13350 2650
$Comp
L Device:C_Small C25
U 1 1 614540DF
P 13350 2500
F 0 "C25" H 13360 2570 50  0000 L CNN
F 1 "0.1uF" H 13360 2420 50  0000 L CNN
F 2 "Capacitor_SMD:C_0603_1608Metric" H 13350 2500 50  0001 C CNN
F 3 "" H 13350 2500 50  0000 C CNN
	1    13350 2500
	1    0    0    -1  
$EndComp
Wire Wire Line
	13200 2350 13200 2400
Wire Wire Line
	13350 2400 13200 2400
Connection ~ 13200 2400
Wire Wire Line
	13200 2400 13200 2450
Wire Wire Line
	13600 2050 13650 2050
Wire Wire Line
	13650 2050 13650 2900
Wire Wire Line
	12950 2900 12950 2150
Wire Wire Line
	12950 2150 13000 2150
Connection ~ 13650 2050
Wire Wire Line
	13650 2050 13700 2050
$Comp
L Connector:TestPoint_Alt TP?
U 1 1 614540F0
P 13650 2050
AR Path="/614540F0" Ref="TP?"  Part="1" 
AR Path="/5DC24124/614540F0" Ref="TP12"  Part="1" 
F 0 "TP12" H 13650 2320 50  0000 C CNN
F 1 "TEST" H 13650 2250 50  0001 C CNN
F 2 "TestPoint:TestPoint_Pad_D1.0mm" H 13850 2050 50  0001 C CNN
F 3 "" H 13850 2050 50  0001 C CNN
	1    13650 2050
	1    0    0    -1  
$EndComp
$Comp
L power:+5V #PWR?
U 1 1 6147BEB8
P 13200 1150
AR Path="/5E25D876/6147BEB8" Ref="#PWR?"  Part="1" 
AR Path="/5DC24124/6147BEB8" Ref="#PWR0143"  Part="1" 
F 0 "#PWR0143" H 13200 1000 50  0001 C CNN
F 1 "+5V" H 13215 1323 50  0000 C CNN
F 2 "" H 13200 1150 50  0001 C CNN
F 3 "" H 13200 1150 50  0001 C CNN
	1    13200 1150
	1    0    0    -1  
$EndComp
Wire Wire Line
	8350 3450 8650 3450
Wire Wire Line
	6600 3450 6900 3450
Wire Wire Line
	4850 3450 5150 3450
Wire Wire Line
	11850 1650 12150 1650
Connection ~ 12700 1950
Wire Wire Line
	12700 1950 12700 2550
$Comp
L Device:R R44
U 1 1 614D2093
P 3800 4750
F 0 "R44" V 3880 4750 50  0000 C CNN
F 1 "0R1" V 3800 4750 50  0000 C CNN
F 2 "Resistor_SMD:R_2512_6332Metric" V 3730 4750 50  0001 C CNN
F 3 "" H 3800 4750 50  0001 C CNN
	1    3800 4750
	1    0    0    -1  
$EndComp
Wire Wire Line
	3800 4550 3800 4600
Connection ~ 3800 4550
Wire Wire Line
	3800 4550 3650 4550
Wire Wire Line
	3800 4900 3800 5350
Wire Wire Line
	3800 5350 3950 5350
Connection ~ 3950 5350
$Comp
L Device:R R45
U 1 1 6151A943
P 5550 4750
F 0 "R45" V 5630 4750 50  0000 C CNN
F 1 "0R1" V 5550 4750 50  0000 C CNN
F 2 "Resistor_SMD:R_2512_6332Metric" V 5480 4750 50  0001 C CNN
F 3 "" H 5550 4750 50  0001 C CNN
	1    5550 4750
	1    0    0    -1  
$EndComp
Wire Wire Line
	5550 4550 5550 4600
Connection ~ 5550 4550
Wire Wire Line
	5550 4550 5400 4550
Wire Wire Line
	5550 4900 5550 5350
Connection ~ 5550 5350
Wire Wire Line
	5550 5350 5700 5350
$Comp
L Device:R R55
U 1 1 61564E74
P 7300 4750
F 0 "R55" V 7380 4750 50  0000 C CNN
F 1 "0R1" V 7300 4750 50  0000 C CNN
F 2 "Resistor_SMD:R_2512_6332Metric" V 7230 4750 50  0001 C CNN
F 3 "" H 7300 4750 50  0001 C CNN
	1    7300 4750
	1    0    0    -1  
$EndComp
Wire Wire Line
	7300 4550 7300 4600
Connection ~ 7300 4550
Wire Wire Line
	7300 4550 7150 4550
Wire Wire Line
	7300 4900 7300 5350
Connection ~ 7300 5350
Wire Wire Line
	7300 5350 7450 5350
$Comp
L Device:R R56
U 1 1 615B0DC0
P 9050 4750
F 0 "R56" V 9130 4750 50  0000 C CNN
F 1 "0R1" V 9050 4750 50  0000 C CNN
F 2 "Resistor_SMD:R_2512_6332Metric" V 8980 4750 50  0001 C CNN
F 3 "" H 9050 4750 50  0001 C CNN
	1    9050 4750
	1    0    0    -1  
$EndComp
Wire Wire Line
	9050 4550 9050 4600
Connection ~ 9050 4550
Wire Wire Line
	9050 4550 8950 4550
Wire Wire Line
	9050 4900 9050 5350
Connection ~ 9050 5350
Wire Wire Line
	9050 5350 9200 5350
$Comp
L Device:R R42
U 1 1 6160839F
P 12700 3100
F 0 "R42" V 12780 3100 50  0000 C CNN
F 1 "0R1" V 12700 3100 50  0000 C CNN
F 2 "Resistor_SMD:R_2512_6332Metric" V 12630 3100 50  0001 C CNN
F 3 "" H 12700 3100 50  0001 C CNN
	1    12700 3100
	1    0    0    -1  
$EndComp
$Comp
L power:GNDPWR #PWR0144
U 1 1 61637E37
P 12700 3300
F 0 "#PWR0144" H 12700 3100 50  0001 C CNN
F 1 "GNDPWR" H 12500 3250 50  0000 C CNN
F 2 "" H 12700 3250 50  0000 C CNN
F 3 "" H 12700 3250 50  0000 C CNN
	1    12700 3300
	1    0    0    -1  
$EndComp
Wire Wire Line
	13250 6100 13250 5750
$Comp
L Device:R_Small R94
U 1 1 61720A5C
P 13300 8700
F 0 "R94" H 13330 8720 50  0000 L CNN
F 1 "100R" H 13330 8660 50  0000 L CNN
F 2 "Resistor_SMD:R_0603_1608Metric" H 13300 8700 50  0001 C CNN
F 3 "" H 13300 8700 50  0000 C CNN
	1    13300 8700
	1    0    0    -1  
$EndComp
$Comp
L Device:R_Small R93
U 1 1 61721441
P 13000 8700
F 0 "R93" H 13030 8720 50  0000 L CNN
F 1 "100R" H 13030 8660 50  0000 L CNN
F 2 "Resistor_SMD:R_0603_1608Metric" H 13000 8700 50  0001 C CNN
F 3 "" H 13000 8700 50  0000 C CNN
	1    13000 8700
	1    0    0    -1  
$EndComp
$Comp
L Device:R_Small R92
U 1 1 61721855
P 12700 8700
F 0 "R92" H 12730 8720 50  0000 L CNN
F 1 "100R" H 12730 8660 50  0000 L CNN
F 2 "Resistor_SMD:R_0603_1608Metric" H 12700 8700 50  0001 C CNN
F 3 "" H 12700 8700 50  0000 C CNN
	1    12700 8700
	1    0    0    -1  
$EndComp
$Comp
L Device:R_Small R91
U 1 1 61721D15
P 12400 8700
F 0 "R91" H 12430 8720 50  0000 L CNN
F 1 "100R" H 12430 8660 50  0000 L CNN
F 2 "Resistor_SMD:R_0603_1608Metric" H 12400 8700 50  0001 C CNN
F 3 "" H 12400 8700 50  0000 C CNN
	1    12400 8700
	1    0    0    -1  
$EndComp
Wire Wire Line
	13600 8450 13600 8550
Wire Wire Line
	13600 8550 13300 8550
Wire Wire Line
	12400 8550 12400 8600
Connection ~ 13600 8550
Wire Wire Line
	13600 8550 13600 8600
Wire Wire Line
	12700 8600 12700 8550
Connection ~ 12700 8550
Wire Wire Line
	12700 8550 12400 8550
Wire Wire Line
	13000 8600 13000 8550
Connection ~ 13000 8550
Wire Wire Line
	13000 8550 12700 8550
Wire Wire Line
	13300 8600 13300 8550
Connection ~ 13300 8550
Wire Wire Line
	13300 8550 13000 8550
Wire Wire Line
	13600 8850 13300 8850
Wire Wire Line
	12400 8850 12400 8800
Connection ~ 13600 8850
Wire Wire Line
	13600 8850 13600 8900
Wire Wire Line
	12700 8800 12700 8850
Connection ~ 12700 8850
Wire Wire Line
	12700 8850 12400 8850
Wire Wire Line
	13000 8800 13000 8850
Connection ~ 13000 8850
Wire Wire Line
	13000 8850 12700 8850
Wire Wire Line
	13300 8800 13300 8850
Connection ~ 13300 8850
Wire Wire Line
	13300 8850 13000 8850
Text HLabel 2500 1950 0    60   Input ~ 0
CurrentSet_20A
Wire Wire Line
	2500 1950 2500 2550
Text HLabel 10700 1000 0    60   Input ~ 0
CurrentSet_2A
Wire Wire Line
	10700 1000 11250 1000
Text HLabel 10800 3750 0    60   Input ~ 0
CurrentSet_0.2A
Text HLabel 12050 7100 0    60   Input ~ 0
CurrentSet_0.02A
Text HLabel 9750 1550 0    60   Input ~ 0
~RangeOn_2A
Wire Wire Line
	12700 600  12700 1400
Connection ~ 12700 600 
Wire Wire Line
	12700 600  15950 600 
$Comp
L Diode:BAV99 D?
U 1 1 60A4D629
P 15250 5350
AR Path="/5E25D876/60A4D629" Ref="D?"  Part="1" 
AR Path="/5DC24124/60A4D629" Ref="D15"  Part="1" 
F 0 "D15" V 15296 5429 50  0000 L CNN
F 1 "BAV199" V 15205 5429 50  0000 L CNN
F 2 "Package_TO_SOT_SMD:SOT-23" H 15250 4850 50  0001 C CNN
F 3 "https://assets.nexperia.com/documents/data-sheet/BAV99_SER.pdf" H 15250 5350 50  0001 C CNN
	1    15250 5350
	0    1    -1   0   
$EndComp
$Comp
L power:GND #PWR?
U 1 1 60A4D62F
P 15250 5700
AR Path="/5DFD1AFA/60A4D62F" Ref="#PWR?"  Part="1" 
AR Path="/5E5C5B96/60A4D62F" Ref="#PWR?"  Part="1" 
AR Path="/5E25D876/60A4D62F" Ref="#PWR?"  Part="1" 
AR Path="/5DC24124/60A4D62F" Ref="#PWR0146"  Part="1" 
F 0 "#PWR0146" H 15250 5450 50  0001 C CNN
F 1 "GND" H 15255 5527 50  0000 C CNN
F 2 "" H 15250 5700 50  0001 C CNN
F 3 "" H 15250 5700 50  0001 C CNN
	1    15250 5700
	-1   0    0    -1  
$EndComp
Wire Wire Line
	15250 5650 15250 5700
Wire Wire Line
	15250 5000 15250 5050
Wire Wire Line
	14650 5350 14800 5350
Wire Wire Line
	14800 5400 14800 5350
Connection ~ 14800 5350
Wire Wire Line
	14800 5350 15050 5350
$Comp
L Diode:BAV99 D?
U 1 1 60ADBA74
P 14550 2050
AR Path="/5E25D876/60ADBA74" Ref="D?"  Part="1" 
AR Path="/5DC24124/60ADBA74" Ref="D9"  Part="1" 
F 0 "D9" V 14596 2129 50  0000 L CNN
F 1 "BAV199" V 14505 2129 50  0000 L CNN
F 2 "Package_TO_SOT_SMD:SOT-23" H 14550 1550 50  0001 C CNN
F 3 "https://assets.nexperia.com/documents/data-sheet/BAV99_SER.pdf" H 14550 2050 50  0001 C CNN
	1    14550 2050
	0    1    -1   0   
$EndComp
$Comp
L power:GND #PWR?
U 1 1 60ADBA7A
P 14550 2400
AR Path="/5DFD1AFA/60ADBA7A" Ref="#PWR?"  Part="1" 
AR Path="/5E5C5B96/60ADBA7A" Ref="#PWR?"  Part="1" 
AR Path="/5E25D876/60ADBA7A" Ref="#PWR?"  Part="1" 
AR Path="/5DC24124/60ADBA7A" Ref="#PWR0151"  Part="1" 
F 0 "#PWR0151" H 14550 2150 50  0001 C CNN
F 1 "GND" H 14555 2227 50  0000 C CNN
F 2 "" H 14550 2400 50  0001 C CNN
F 3 "" H 14550 2400 50  0001 C CNN
	1    14550 2400
	-1   0    0    -1  
$EndComp
Wire Wire Line
	14550 2350 14550 2400
Wire Wire Line
	14550 1700 14550 1750
Wire Wire Line
	14100 2050 14250 2050
Wire Wire Line
	14250 2150 14250 2050
Connection ~ 14250 2050
Wire Wire Line
	14250 2050 14350 2050
$Comp
L Diode:BAV99 D?
U 1 1 60B68F8B
P 15550 8550
AR Path="/5E25D876/60B68F8B" Ref="D?"  Part="1" 
AR Path="/5DC24124/60B68F8B" Ref="D20"  Part="1" 
F 0 "D20" V 15596 8629 50  0000 L CNN
F 1 "BAV199" V 15505 8629 50  0000 L CNN
F 2 "Package_TO_SOT_SMD:SOT-23" H 15550 8050 50  0001 C CNN
F 3 "https://assets.nexperia.com/documents/data-sheet/BAV99_SER.pdf" H 15550 8550 50  0001 C CNN
	1    15550 8550
	0    1    -1   0   
$EndComp
$Comp
L power:GND #PWR?
U 1 1 60B68F91
P 15550 8900
AR Path="/5DFD1AFA/60B68F91" Ref="#PWR?"  Part="1" 
AR Path="/5E5C5B96/60B68F91" Ref="#PWR?"  Part="1" 
AR Path="/5E25D876/60B68F91" Ref="#PWR?"  Part="1" 
AR Path="/5DC24124/60B68F91" Ref="#PWR0153"  Part="1" 
F 0 "#PWR0153" H 15550 8650 50  0001 C CNN
F 1 "GND" H 15555 8727 50  0000 C CNN
F 2 "" H 15550 8900 50  0001 C CNN
F 3 "" H 15550 8900 50  0001 C CNN
	1    15550 8900
	-1   0    0    -1  
$EndComp
Wire Wire Line
	15550 8850 15550 8900
Wire Wire Line
	15550 8200 15550 8250
Wire Wire Line
	10800 3750 11700 3750
Wire Wire Line
	11700 3750 11700 4300
Connection ~ 11700 4300
Wire Wire Line
	11700 4300 11800 4300
Wire Wire Line
	10700 4500 10750 4500
Wire Wire Line
	10700 4500 10700 4550
$Comp
L Connector:TestPoint_Alt TP?
U 1 1 5E1C3740
P 10350 4250
AR Path="/5E1C3740" Ref="TP?"  Part="1" 
AR Path="/5DC24124/5E1C3740" Ref="TP10"  Part="1" 
F 0 "TP10" H 10350 4520 50  0000 C CNN
F 1 "TEST" H 10350 4450 50  0001 C CNN
F 2 "TestPoint:TestPoint_Pad_D1.0mm" H 10550 4250 50  0001 C CNN
F 3 "" H 10550 4250 50  0001 C CNN
	1    10350 4250
	-1   0    0    -1  
$EndComp
Text HLabel 10050 4300 0    60   Input ~ 0
~RangeOn_0.2A
Text Notes 10050 4450 2    60   ~ 0
Low = range on
Wire Wire Line
	12250 2550 12700 2550
Wire Wire Line
	12700 3300 12700 3250
Wire Wire Line
	12700 2950 12700 2900
$Comp
L Device:R_Small R41
U 1 1 611C6C0D
P 12950 3050
F 0 "R41" H 12980 3070 50  0000 L CNN
F 1 "100R" H 12980 3010 50  0000 L CNN
F 2 "Resistor_SMD:R_0603_1608Metric" H 12950 3050 50  0001 C CNN
F 3 "" H 12950 3050 50  0000 C CNN
	1    12950 3050
	1    0    0    -1  
$EndComp
$Comp
L power:GND #PWR0155
U 1 1 611C7778
P 12950 3200
F 0 "#PWR0155" H 12950 2950 50  0001 C CNN
F 1 "GND" H 12950 3050 50  0000 C CNN
F 2 "" H 12950 3200 50  0000 C CNN
F 3 "" H 12950 3200 50  0000 C CNN
	1    12950 3200
	1    0    0    -1  
$EndComp
$Comp
L Device:R_Small R40
U 1 1 611C846F
P 13300 2900
F 0 "R40" H 13330 2920 50  0000 L CNN
F 1 "560R" H 13330 2860 50  0000 L CNN
F 2 "Resistor_SMD:R_0603_1608Metric" H 13300 2900 50  0001 C CNN
F 3 "" H 13300 2900 50  0000 C CNN
	1    13300 2900
	0    1    1    0   
$EndComp
Wire Wire Line
	13400 2900 13650 2900
Wire Wire Line
	13200 2900 12950 2900
Wire Wire Line
	12950 2900 12950 2950
Connection ~ 12950 2900
Wire Wire Line
	12950 3200 12950 3150
$Comp
L Device:R_Small R58
U 1 1 612BEF85
P 13500 6350
F 0 "R58" H 13530 6370 50  0000 L CNN
F 1 "100R" H 13530 6310 50  0000 L CNN
F 2 "Resistor_SMD:R_0603_1608Metric" H 13500 6350 50  0001 C CNN
F 3 "" H 13500 6350 50  0000 C CNN
	1    13500 6350
	1    0    0    -1  
$EndComp
$Comp
L power:GND #PWR0156
U 1 1 612BEF8B
P 13500 6500
F 0 "#PWR0156" H 13500 6250 50  0001 C CNN
F 1 "GND" H 13500 6350 50  0000 C CNN
F 2 "" H 13500 6500 50  0000 C CNN
F 3 "" H 13500 6500 50  0000 C CNN
	1    13500 6500
	1    0    0    -1  
$EndComp
$Comp
L Device:R_Small R57
U 1 1 612BEF91
P 13850 6200
F 0 "R57" H 13880 6220 50  0000 L CNN
F 1 "560R" H 13880 6160 50  0000 L CNN
F 2 "Resistor_SMD:R_0603_1608Metric" H 13850 6200 50  0001 C CNN
F 3 "" H 13850 6200 50  0000 C CNN
	1    13850 6200
	0    1    1    0   
$EndComp
Wire Wire Line
	13950 6200 14200 6200
Wire Wire Line
	13750 6200 13500 6200
Wire Wire Line
	13500 6200 13500 6250
Wire Wire Line
	13500 6500 13500 6450
Connection ~ 13500 6200
$Comp
L Device:R_Small R101
U 1 1 614A2BE2
P 13850 9550
F 0 "R101" H 13880 9570 50  0000 L CNN
F 1 "100R" H 13880 9510 50  0000 L CNN
F 2 "Resistor_SMD:R_0603_1608Metric" H 13850 9550 50  0001 C CNN
F 3 "" H 13850 9550 50  0000 C CNN
	1    13850 9550
	1    0    0    -1  
$EndComp
$Comp
L power:GND #PWR0157
U 1 1 614A2BE8
P 13850 9700
F 0 "#PWR0157" H 13850 9450 50  0001 C CNN
F 1 "GND" H 13850 9550 50  0000 C CNN
F 2 "" H 13850 9700 50  0000 C CNN
F 3 "" H 13850 9700 50  0000 C CNN
	1    13850 9700
	1    0    0    -1  
$EndComp
$Comp
L Device:R_Small R100
U 1 1 614A2BEE
P 14200 9400
F 0 "R100" H 14230 9420 50  0000 L CNN
F 1 "560R" H 14230 9360 50  0000 L CNN
F 2 "Resistor_SMD:R_0603_1608Metric" H 14200 9400 50  0001 C CNN
F 3 "" H 14200 9400 50  0000 C CNN
	1    14200 9400
	0    1    1    0   
$EndComp
Wire Wire Line
	14300 9400 14550 9400
Wire Wire Line
	14100 9400 13850 9400
Wire Wire Line
	13850 9400 13850 9450
Wire Wire Line
	13850 9700 13850 9650
Connection ~ 8950 4550
Wire Wire Line
	8950 4550 8750 4550
Connection ~ 7150 4550
Wire Wire Line
	7150 4550 7000 4550
Connection ~ 5400 4550
Wire Wire Line
	5400 4550 5250 4550
Connection ~ 3650 4550
Wire Wire Line
	3650 4550 3500 4550
Wire Wire Line
	7700 5350 7700 5450
Connection ~ 7700 5350
Wire Wire Line
	7700 5350 9050 5350
Wire Wire Line
	3250 600  3400 600 
Wire Wire Line
	3400 2650 3400 600 
Connection ~ 3400 600 
Wire Wire Line
	3400 600  12700 600 
Connection ~ 10500 4300
Wire Wire Line
	10050 4300 10100 4300
Wire Wire Line
	10350 4300 10350 4250
Connection ~ 10350 4300
Wire Wire Line
	10350 4300 10500 4300
$Comp
L power:GND #PWR0158
U 1 1 60A30201
P 10700 4550
F 0 "#PWR0158" H 10700 4300 50  0001 C CNN
F 1 "GND" H 10700 4400 50  0000 C CNN
F 2 "" H 10700 4550 50  0000 C CNN
F 3 "" H 10700 4550 50  0000 C CNN
	1    10700 4550
	1    0    0    -1  
$EndComp
Wire Wire Line
	15000 8550 15150 8550
Wire Wire Line
	15150 8650 15150 8550
Connection ~ 15150 8550
Wire Wire Line
	15150 8550 15350 8550
Connection ~ 13850 9400
Wire Wire Line
	11850 5200 11850 5250
Connection ~ 11850 5250
Wire Wire Line
	11850 5250 12850 5250
Wire Wire Line
	13050 5250 13250 5250
Wire Wire Line
	11200 1750 11200 2550
Wire Wire Line
	12200 8400 12200 8450
Connection ~ 12200 8450
Wire Wire Line
	12200 8450 13200 8450
Wire Wire Line
	13400 8450 13600 8450
$Comp
L power:-5V #PWR0159
U 1 1 610108C8
P 11050 2100
F 0 "#PWR0159" H 11050 2200 50  0001 C CNN
F 1 "-5V" H 11050 2250 50  0000 C CNN
F 2 "" H 11050 2100 50  0001 C CNN
F 3 "" H 11050 2100 50  0001 C CNN
	1    11050 2100
	-1   0    0    1   
$EndComp
$Comp
L Isolator:SFH617A-1X007T U7
U 1 1 610108CE
P 10750 1650
F 0 "U7" H 10750 1975 50  0000 C CNN
F 1 "SFH617A-1X007T" H 10750 1884 50  0000 C CNN
F 2 "Package_DIP:SMDIP-4_W9.53mm_Clearance8mm" H 10750 1300 50  0001 C CIN
F 3 "http://www.vishay.com/docs/83740/sfh617a.pdf" H 10750 1600 50  0001 L CNN
	1    10750 1650
	1    0    0    -1  
$EndComp
$Comp
L Device:R_Small R15
U 1 1 610108D4
P 10200 1400
F 0 "R15" H 10230 1420 50  0000 L CNN
F 1 "10K" H 10230 1360 50  0000 L CNN
F 2 "Resistor_SMD:R_0603_1608Metric" H 10200 1400 50  0001 C CNN
F 3 "" H 10200 1400 50  0000 C CNN
	1    10200 1400
	1    0    0    -1  
$EndComp
Wire Wire Line
	10200 1250 10200 1300
Wire Wire Line
	10200 1500 10200 1550
Wire Wire Line
	10200 1550 10450 1550
$Comp
L power:+3V0 #PWR0160
U 1 1 610108DD
P 10200 1250
F 0 "#PWR0160" H 10200 1100 50  0001 C CNN
F 1 "+3V0" H 10200 1390 50  0000 C CNN
F 2 "" H 10200 1250 50  0000 C CNN
F 3 "" H 10200 1250 50  0000 C CNN
	1    10200 1250
	1    0    0    -1  
$EndComp
$Comp
L Device:R_Small R17
U 1 1 610108E3
P 11050 1950
F 0 "R17" H 11080 1970 50  0000 L CNN
F 1 "1K" H 11080 1910 50  0000 L CNN
F 2 "Resistor_SMD:R_0603_1608Metric" H 11050 1950 50  0001 C CNN
F 3 "" H 11050 1950 50  0000 C CNN
	1    11050 1950
	-1   0    0    1   
$EndComp
Wire Wire Line
	11050 1750 11050 1850
Wire Wire Line
	10400 1750 10450 1750
Wire Wire Line
	10400 1750 10400 1800
$Comp
L Connector:TestPoint_Alt TP?
U 1 1 610108FB
P 10050 1500
AR Path="/610108FB" Ref="TP?"  Part="1" 
AR Path="/5DC24124/610108FB" Ref="TP9"  Part="1" 
F 0 "TP9" H 10050 1770 50  0000 C CNN
F 1 "TEST" H 10050 1700 50  0001 C CNN
F 2 "TestPoint:TestPoint_Pad_D1.0mm" H 10250 1500 50  0001 C CNN
F 3 "" H 10250 1500 50  0001 C CNN
	1    10050 1500
	-1   0    0    -1  
$EndComp
Connection ~ 10200 1550
Wire Wire Line
	9750 1550 9800 1550
Wire Wire Line
	10050 1550 10050 1500
Connection ~ 10050 1550
Wire Wire Line
	10050 1550 10200 1550
$Comp
L power:GND #PWR0161
U 1 1 61010907
P 10400 1800
F 0 "#PWR0161" H 10400 1550 50  0001 C CNN
F 1 "GND" H 10400 1650 50  0000 C CNN
F 2 "" H 10400 1800 50  0000 C CNN
F 3 "" H 10400 1800 50  0000 C CNN
	1    10400 1800
	1    0    0    -1  
$EndComp
Wire Wire Line
	11250 950  11250 1000
Connection ~ 11250 1000
Connection ~ 12050 7500
Wire Wire Line
	12050 7500 12150 7500
Wire Wire Line
	10900 7450 10900 7500
Connection ~ 10900 7500
Wire Wire Line
	10900 7500 11150 7500
$Comp
L power:-5V #PWR0162
U 1 1 613031AD
P 11750 8000
F 0 "#PWR0162" H 11750 8100 50  0001 C CNN
F 1 "-5V" H 11750 8150 50  0000 C CNN
F 2 "" H 11750 8000 50  0001 C CNN
F 3 "" H 11750 8000 50  0001 C CNN
	1    11750 8000
	-1   0    0    1   
$EndComp
$Comp
L power:GND #PWR0163
U 1 1 61446735
P 11150 7750
F 0 "#PWR0163" H 11150 7500 50  0001 C CNN
F 1 "GND" H 11150 7600 50  0000 C CNN
F 2 "" H 11150 7750 50  0000 C CNN
F 3 "" H 11150 7750 50  0000 C CNN
	1    11150 7750
	1    0    0    -1  
$EndComp
Wire Wire Line
	11150 7700 11150 7750
$Comp
L Connector:TestPoint_Alt TP?
U 1 1 614F8AC8
P 10750 7450
AR Path="/614F8AC8" Ref="TP?"  Part="1" 
AR Path="/5DC24124/614F8AC8" Ref="TP68"  Part="1" 
F 0 "TP68" H 10750 7720 50  0000 C CNN
F 1 "TEST" H 10750 7650 50  0001 C CNN
F 2 "TestPoint:TestPoint_Pad_D1.0mm" H 10950 7450 50  0001 C CNN
F 3 "" H 10950 7450 50  0001 C CNN
	1    10750 7450
	-1   0    0    -1  
$EndComp
Wire Wire Line
	10750 7450 10750 7500
Connection ~ 10750 7500
Wire Wire Line
	10750 7500 10900 7500
Wire Wire Line
	11350 4500 11350 4550
Wire Wire Line
	11750 7700 11750 7750
Wire Wire Line
	1700 2550 1700 2500
Wire Wire Line
	1700 2550 1500 2550
Connection ~ 1700 2550
Wire Wire Line
	1500 2500 1500 2550
Connection ~ 1500 2550
Wire Wire Line
	1500 2550 1400 2550
$Comp
L power:GND #PWR0164
U 1 1 61A0B9C5
P 1800 2800
F 0 "#PWR0164" H 1800 2550 50  0001 C CNN
F 1 "GND" H 1800 2650 50  0000 C CNN
F 2 "" H 1800 2800 50  0000 C CNN
F 3 "" H 1800 2800 50  0000 C CNN
	1    1800 2800
	1    0    0    -1  
$EndComp
Wire Wire Line
	1800 2750 1800 2800
$Comp
L Device:R_Small R16
U 1 1 61AE8BE3
P 9900 1550
F 0 "R16" H 9930 1570 50  0000 L CNN
F 1 "1K" H 9930 1510 50  0000 L CNN
F 2 "Resistor_SMD:R_0603_1608Metric" H 9900 1550 50  0001 C CNN
F 3 "" H 9900 1550 50  0000 C CNN
	1    9900 1550
	0    1    1    0   
$EndComp
Wire Wire Line
	10000 1550 10050 1550
$Comp
L Device:R_Small R43
U 1 1 61B8E53B
P 10200 4300
F 0 "R43" H 10230 4320 50  0000 L CNN
F 1 "1K" H 10230 4260 50  0000 L CNN
F 2 "Resistor_SMD:R_0603_1608Metric" H 10200 4300 50  0001 C CNN
F 3 "" H 10200 4300 50  0000 C CNN
	1    10200 4300
	0    1    1    0   
$EndComp
Wire Wire Line
	10300 4300 10350 4300
$Comp
L Device:R_Small R90
U 1 1 61C98371
P 10600 7500
F 0 "R90" H 10630 7520 50  0000 L CNN
F 1 "1K" H 10630 7460 50  0000 L CNN
F 2 "Resistor_SMD:R_0603_1608Metric" H 10600 7500 50  0001 C CNN
F 3 "" H 10600 7500 50  0000 C CNN
	1    10600 7500
	0    1    1    0   
$EndComp
Wire Wire Line
	10700 7500 10750 7500
Wire Wire Line
	1050 6750 1250 6750
Wire Wire Line
	1050 5600 1050 6750
Wire Wire Line
	3650 5600 1050 5600
Wire Wire Line
	3650 4550 3650 5600
Wire Wire Line
	3250 6750 3400 6750
Wire Wire Line
	3250 5650 3250 6750
Wire Wire Line
	5400 5650 3250 5650
Wire Wire Line
	5400 4550 5400 5650
Wire Wire Line
	5500 6750 5650 6750
Wire Wire Line
	5500 5600 5500 6750
Wire Wire Line
	7150 5600 5500 5600
Wire Wire Line
	7150 4550 7150 5600
Wire Wire Line
	7450 6750 7700 6750
Wire Wire Line
	7450 5600 7450 6750
Wire Wire Line
	8950 5600 7450 5600
Wire Wire Line
	8950 4550 8950 5600
Connection ~ 8800 6850
Wire Wire Line
	8800 6950 8800 6850
Wire Wire Line
	8650 6800 8650 6850
Connection ~ 8350 6850
Wire Wire Line
	8350 6800 8350 6850
Wire Wire Line
	8650 6850 8800 6850
Wire Wire Line
	9000 6500 9000 6550
Wire Wire Line
	9000 7150 9000 7200
$Comp
L power:GND #PWR?
U 1 1 61A6C64A
P 9000 7200
AR Path="/5DFD1AFA/61A6C64A" Ref="#PWR?"  Part="1" 
AR Path="/5E5C5B96/61A6C64A" Ref="#PWR?"  Part="1" 
AR Path="/5E25D876/61A6C64A" Ref="#PWR?"  Part="1" 
AR Path="/5DC24124/61A6C64A" Ref="#PWR0166"  Part="1" 
F 0 "#PWR0166" H 9000 6950 50  0001 C CNN
F 1 "GND" H 9005 7027 50  0000 C CNN
F 2 "" H 9000 7200 50  0001 C CNN
F 3 "" H 9000 7200 50  0001 C CNN
	1    9000 7200
	-1   0    0    -1  
$EndComp
$Comp
L Diode:BAV99 D?
U 1 1 61A6C644
P 9000 6850
AR Path="/5E25D876/61A6C644" Ref="D?"  Part="1" 
AR Path="/5DC24124/61A6C644" Ref="D19"  Part="1" 
F 0 "D19" V 9046 6929 50  0000 L CNN
F 1 "BAV199" V 8955 6929 50  0000 L CNN
F 2 "Package_TO_SOT_SMD:SOT-23" H 9000 6350 50  0001 C CNN
F 3 "https://assets.nexperia.com/documents/data-sheet/BAV99_SER.pdf" H 9000 6850 50  0001 C CNN
	1    9000 6850
	0    1    -1   0   
$EndComp
$Comp
L Connector:TestPoint_Alt TP?
U 1 1 61A6C63E
P 8350 6800
AR Path="/61A6C63E" Ref="TP?"  Part="1" 
AR Path="/5DC24124/61A6C63E" Ref="TP58"  Part="1" 
F 0 "TP58" H 8350 7070 50  0000 C CNN
F 1 "TEST" H 8350 7000 50  0001 C CNN
F 2 "TestPoint:TestPoint_Pad_D1.0mm" H 8550 6800 50  0001 C CNN
F 3 "" H 8550 6800 50  0001 C CNN
	1    8350 6800
	1    0    0    -1  
$EndComp
Wire Wire Line
	8350 6850 8400 6850
Wire Wire Line
	8650 7300 8650 7350
Wire Wire Line
	8650 6850 8650 7100
$Comp
L power:GND #PWR0167
U 1 1 61A6C635
P 8650 7350
F 0 "#PWR0167" H 8650 7100 50  0001 C CNN
F 1 "GND" H 8650 7200 50  0000 C CNN
F 2 "" H 8650 7350 50  0000 C CNN
F 3 "" H 8650 7350 50  0000 C CNN
	1    8650 7350
	1    0    0    -1  
$EndComp
$Comp
L Device:C_Small C70
U 1 1 61A6C62F
P 8650 7200
F 0 "C70" H 8660 7270 50  0000 L CNN
F 1 "0.1uF" H 8660 7120 50  0000 L CNN
F 2 "Capacitor_SMD:C_0603_1608Metric" H 8650 7200 50  0001 C CNN
F 3 "" H 8650 7200 50  0000 C CNN
	1    8650 7200
	-1   0    0    1   
$EndComp
Wire Wire Line
	8600 6850 8650 6850
$Comp
L Device:R_Small R62
U 1 1 61A6C628
P 8500 6850
F 0 "R62" H 8530 6870 50  0000 L CNN
F 1 "1K" H 8530 6810 50  0000 L CNN
F 2 "Resistor_SMD:R_0603_1608Metric" H 8500 6850 50  0001 C CNN
F 3 "" H 8500 6850 50  0000 C CNN
	1    8500 6850
	0    1    1    0   
$EndComp
Connection ~ 8650 6850
$Comp
L Connector:TestPoint_Alt TP?
U 1 1 61A6C621
P 8650 6800
AR Path="/61A6C621" Ref="TP?"  Part="1" 
AR Path="/5DC24124/61A6C621" Ref="TP67"  Part="1" 
F 0 "TP67" H 8650 7070 50  0000 C CNN
F 1 "TEST" H 8650 7000 50  0001 C CNN
F 2 "TestPoint:TestPoint_Pad_D1.0mm" H 8850 6800 50  0001 C CNN
F 3 "" H 8850 6800 50  0001 C CNN
	1    8650 6800
	1    0    0    -1  
$EndComp
Text HLabel 8800 6950 3    60   Output ~ 0
CurrentMeas_20A_4
Wire Wire Line
	7900 7350 8350 7350
Connection ~ 7650 7350
Wire Wire Line
	7650 6950 7700 6950
Wire Wire Line
	7650 7350 7650 6950
Wire Wire Line
	7650 7350 7650 7400
Wire Wire Line
	7700 7350 7650 7350
Wire Wire Line
	8300 6850 8350 6850
Wire Wire Line
	8350 6850 8350 7350
Wire Wire Line
	7650 7600 7650 7650
$Comp
L power:GND #PWR0192
U 1 1 61A6C611
P 7650 7650
F 0 "#PWR0192" H 7650 7400 50  0001 C CNN
F 1 "GND" H 7650 7500 50  0000 C CNN
F 2 "" H 7650 7650 50  0000 C CNN
F 3 "" H 7650 7650 50  0000 C CNN
	1    7650 7650
	1    0    0    -1  
$EndComp
$Comp
L Device:R_Small R89
U 1 1 61A6C60B
P 7650 7500
F 0 "R89" H 7680 7520 50  0000 L CNN
F 1 "1K" H 7680 7460 50  0000 L CNN
F 2 "Resistor_SMD:R_0603_1608Metric" H 7650 7500 50  0001 C CNN
F 3 "" H 7650 7500 50  0000 C CNN
	1    7650 7500
	1    0    0    -1  
$EndComp
$Comp
L Device:R_Small R70
U 1 1 61A6C605
P 7800 7350
F 0 "R70" H 7830 7370 50  0000 L CNN
F 1 "10K" H 7830 7310 50  0000 L CNN
F 2 "Resistor_SMD:R_0603_1608Metric" H 7800 7350 50  0001 C CNN
F 3 "" H 7800 7350 50  0000 C CNN
	1    7800 7350
	0    -1   -1   0   
$EndComp
$Comp
L power:+5V #PWR?
U 1 1 61A6C5FF
P 7900 6000
AR Path="/5E25D876/61A6C5FF" Ref="#PWR?"  Part="1" 
AR Path="/5DC24124/61A6C5FF" Ref="#PWR0193"  Part="1" 
F 0 "#PWR0193" H 7900 5850 50  0001 C CNN
F 1 "+5V" H 7915 6173 50  0000 C CNN
F 2 "" H 7900 6000 50  0001 C CNN
F 3 "" H 7900 6000 50  0001 C CNN
	1    7900 6000
	1    0    0    -1  
$EndComp
Wire Wire Line
	7900 7150 8000 7150
$Comp
L power:GND #PWR0203
U 1 1 61A6C5F8
P 8000 7150
F 0 "#PWR0203" H 8000 6900 50  0001 C CNN
F 1 "GND" H 8000 7000 50  0000 C CNN
F 2 "" H 8000 7150 50  0000 C CNN
F 3 "" H 8000 7150 50  0000 C CNN
	1    8000 7150
	1    0    0    -1  
$EndComp
$Comp
L Device:C_Small C49
U 1 1 61A6C5F2
P 8200 6250
F 0 "C49" H 8210 6320 50  0000 L CNN
F 1 "0.1uF" H 8210 6170 50  0000 L CNN
F 2 "Capacitor_SMD:C_0603_1608Metric" H 8200 6250 50  0001 C CNN
F 3 "" H 8200 6250 50  0000 C CNN
	1    8200 6250
	1    0    0    -1  
$EndComp
Wire Wire Line
	8200 6350 8200 6400
$Comp
L power:GND #PWR0205
U 1 1 61A6C5EB
P 8200 6400
F 0 "#PWR0205" H 8200 6150 50  0001 C CNN
F 1 "GND" H 8200 6250 50  0000 C CNN
F 2 "" H 8200 6400 50  0000 C CNN
F 3 "" H 8200 6400 50  0000 C CNN
	1    8200 6400
	1    0    0    -1  
$EndComp
Wire Wire Line
	7900 6100 7900 6550
Connection ~ 7900 6100
Wire Wire Line
	8200 6100 7900 6100
Wire Wire Line
	7900 6000 7900 6100
Wire Wire Line
	8200 6150 8200 6100
$Comp
L Amplifier_Operational:OPA188xxDBV U32
U 1 1 61A6C5E0
P 8000 6850
F 0 "U32" H 8000 7050 50  0000 L CNN
F 1 "TS321AILT" H 8000 6650 50  0000 L CNN
F 2 "Package_TO_SOT_SMD:SOT-23-5" H 8000 4150 50  0001 C CNN
F 3 "" H 8000 6850 50  0000 C CNN
	1    8000 6850
	1    0    0    -1  
$EndComp
Connection ~ 6750 6850
Wire Wire Line
	6750 6950 6750 6850
Wire Wire Line
	6600 6800 6600 6850
Connection ~ 6300 6850
Wire Wire Line
	6300 6800 6300 6850
Wire Wire Line
	6600 6850 6750 6850
Wire Wire Line
	6950 6500 6950 6550
Wire Wire Line
	6950 7150 6950 7200
$Comp
L power:GND #PWR?
U 1 1 61A14158
P 6950 7200
AR Path="/5DFD1AFA/61A14158" Ref="#PWR?"  Part="1" 
AR Path="/5E5C5B96/61A14158" Ref="#PWR?"  Part="1" 
AR Path="/5E25D876/61A14158" Ref="#PWR?"  Part="1" 
AR Path="/5DC24124/61A14158" Ref="#PWR0207"  Part="1" 
F 0 "#PWR0207" H 6950 6950 50  0001 C CNN
F 1 "GND" H 6955 7027 50  0000 C CNN
F 2 "" H 6950 7200 50  0001 C CNN
F 3 "" H 6950 7200 50  0001 C CNN
	1    6950 7200
	-1   0    0    -1  
$EndComp
$Comp
L Diode:BAV99 D?
U 1 1 61A14152
P 6950 6850
AR Path="/5E25D876/61A14152" Ref="D?"  Part="1" 
AR Path="/5DC24124/61A14152" Ref="D18"  Part="1" 
F 0 "D18" V 6996 6929 50  0000 L CNN
F 1 "BAV199" V 6905 6929 50  0000 L CNN
F 2 "Package_TO_SOT_SMD:SOT-23" H 6950 6350 50  0001 C CNN
F 3 "https://assets.nexperia.com/documents/data-sheet/BAV99_SER.pdf" H 6950 6850 50  0001 C CNN
	1    6950 6850
	0    1    -1   0   
$EndComp
$Comp
L Connector:TestPoint_Alt TP?
U 1 1 61A1414C
P 6300 6800
AR Path="/61A1414C" Ref="TP?"  Part="1" 
AR Path="/5DC24124/61A1414C" Ref="TP50"  Part="1" 
F 0 "TP50" H 6300 7070 50  0000 C CNN
F 1 "TEST" H 6300 7000 50  0001 C CNN
F 2 "TestPoint:TestPoint_Pad_D1.0mm" H 6500 6800 50  0001 C CNN
F 3 "" H 6500 6800 50  0001 C CNN
	1    6300 6800
	1    0    0    -1  
$EndComp
Wire Wire Line
	6300 6850 6350 6850
Wire Wire Line
	6600 7300 6600 7350
Wire Wire Line
	6600 6850 6600 7100
$Comp
L power:GND #PWR0208
U 1 1 61A14143
P 6600 7350
F 0 "#PWR0208" H 6600 7100 50  0001 C CNN
F 1 "GND" H 6600 7200 50  0000 C CNN
F 2 "" H 6600 7350 50  0000 C CNN
F 3 "" H 6600 7350 50  0000 C CNN
	1    6600 7350
	1    0    0    -1  
$EndComp
$Comp
L Device:C_Small C55
U 1 1 61A1413D
P 6600 7200
F 0 "C55" H 6610 7270 50  0000 L CNN
F 1 "0.1uF" H 6610 7120 50  0000 L CNN
F 2 "Capacitor_SMD:C_0603_1608Metric" H 6600 7200 50  0001 C CNN
F 3 "" H 6600 7200 50  0000 C CNN
	1    6600 7200
	-1   0    0    1   
$EndComp
Wire Wire Line
	6550 6850 6600 6850
$Comp
L Device:R_Small R61
U 1 1 61A14136
P 6450 6850
F 0 "R61" H 6480 6870 50  0000 L CNN
F 1 "1K" H 6480 6810 50  0000 L CNN
F 2 "Resistor_SMD:R_0603_1608Metric" H 6450 6850 50  0001 C CNN
F 3 "" H 6450 6850 50  0000 C CNN
	1    6450 6850
	0    1    1    0   
$EndComp
Connection ~ 6600 6850
$Comp
L Connector:TestPoint_Alt TP?
U 1 1 61A1412F
P 6600 6800
AR Path="/61A1412F" Ref="TP?"  Part="1" 
AR Path="/5DC24124/61A1412F" Ref="TP55"  Part="1" 
F 0 "TP55" H 6600 7070 50  0000 C CNN
F 1 "TEST" H 6600 7000 50  0001 C CNN
F 2 "TestPoint:TestPoint_Pad_D1.0mm" H 6800 6800 50  0001 C CNN
F 3 "" H 6800 6800 50  0001 C CNN
	1    6600 6800
	1    0    0    -1  
$EndComp
Text HLabel 6750 6950 3    60   Output ~ 0
CurrentMeas_20A_3
Wire Wire Line
	5850 7350 6300 7350
Connection ~ 5600 7350
Wire Wire Line
	5600 6950 5650 6950
Wire Wire Line
	5600 7350 5600 6950
Wire Wire Line
	5600 7350 5600 7400
Wire Wire Line
	5650 7350 5600 7350
Wire Wire Line
	6250 6850 6300 6850
Wire Wire Line
	6300 6850 6300 7350
Wire Wire Line
	5600 7600 5600 7650
$Comp
L power:GND #PWR0209
U 1 1 61A1411F
P 5600 7650
F 0 "#PWR0209" H 5600 7400 50  0001 C CNN
F 1 "GND" H 5600 7500 50  0000 C CNN
F 2 "" H 5600 7650 50  0000 C CNN
F 3 "" H 5600 7650 50  0000 C CNN
	1    5600 7650
	1    0    0    -1  
$EndComp
$Comp
L Device:R_Small R88
U 1 1 61A14119
P 5600 7500
F 0 "R88" H 5630 7520 50  0000 L CNN
F 1 "1K" H 5630 7460 50  0000 L CNN
F 2 "Resistor_SMD:R_0603_1608Metric" H 5600 7500 50  0001 C CNN
F 3 "" H 5600 7500 50  0000 C CNN
	1    5600 7500
	1    0    0    -1  
$EndComp
$Comp
L Device:R_Small R69
U 1 1 61A14113
P 5750 7350
F 0 "R69" H 5780 7370 50  0000 L CNN
F 1 "10K" H 5780 7310 50  0000 L CNN
F 2 "Resistor_SMD:R_0603_1608Metric" H 5750 7350 50  0001 C CNN
F 3 "" H 5750 7350 50  0000 C CNN
	1    5750 7350
	0    -1   -1   0   
$EndComp
$Comp
L power:+5V #PWR?
U 1 1 61A1410D
P 5850 6000
AR Path="/5E25D876/61A1410D" Ref="#PWR?"  Part="1" 
AR Path="/5DC24124/61A1410D" Ref="#PWR0212"  Part="1" 
F 0 "#PWR0212" H 5850 5850 50  0001 C CNN
F 1 "+5V" H 5865 6173 50  0000 C CNN
F 2 "" H 5850 6000 50  0001 C CNN
F 3 "" H 5850 6000 50  0001 C CNN
	1    5850 6000
	1    0    0    -1  
$EndComp
Wire Wire Line
	5850 7150 5950 7150
$Comp
L power:GND #PWR0213
U 1 1 61A14106
P 5950 7150
F 0 "#PWR0213" H 5950 6900 50  0001 C CNN
F 1 "GND" H 5950 7000 50  0000 C CNN
F 2 "" H 5950 7150 50  0000 C CNN
F 3 "" H 5950 7150 50  0000 C CNN
	1    5950 7150
	1    0    0    -1  
$EndComp
$Comp
L Device:C_Small C48
U 1 1 61A14100
P 6150 6250
F 0 "C48" H 6160 6320 50  0000 L CNN
F 1 "0.1uF" H 6160 6170 50  0000 L CNN
F 2 "Capacitor_SMD:C_0603_1608Metric" H 6150 6250 50  0001 C CNN
F 3 "" H 6150 6250 50  0000 C CNN
	1    6150 6250
	1    0    0    -1  
$EndComp
Wire Wire Line
	6150 6350 6150 6400
$Comp
L power:GND #PWR0214
U 1 1 61A140F9
P 6150 6400
F 0 "#PWR0214" H 6150 6150 50  0001 C CNN
F 1 "GND" H 6150 6250 50  0000 C CNN
F 2 "" H 6150 6400 50  0000 C CNN
F 3 "" H 6150 6400 50  0000 C CNN
	1    6150 6400
	1    0    0    -1  
$EndComp
Wire Wire Line
	5850 6100 5850 6550
Connection ~ 5850 6100
Wire Wire Line
	6150 6100 5850 6100
Wire Wire Line
	5850 6000 5850 6100
Wire Wire Line
	6150 6150 6150 6100
$Comp
L Amplifier_Operational:OPA188xxDBV U29
U 1 1 61A140EE
P 5950 6850
F 0 "U29" H 5950 7050 50  0000 L CNN
F 1 "TS321AILT" H 5950 6650 50  0000 L CNN
F 2 "Package_TO_SOT_SMD:SOT-23-5" H 5950 4150 50  0001 C CNN
F 3 "" H 5950 6850 50  0000 C CNN
	1    5950 6850
	1    0    0    -1  
$EndComp
Connection ~ 4500 6850
Wire Wire Line
	4500 6950 4500 6850
Wire Wire Line
	4350 6800 4350 6850
Connection ~ 4050 6850
Wire Wire Line
	4050 6800 4050 6850
Wire Wire Line
	4350 6850 4500 6850
Wire Wire Line
	4700 6500 4700 6550
Wire Wire Line
	4700 7150 4700 7200
$Comp
L power:GND #PWR?
U 1 1 619D21F8
P 4700 7200
AR Path="/5DFD1AFA/619D21F8" Ref="#PWR?"  Part="1" 
AR Path="/5E5C5B96/619D21F8" Ref="#PWR?"  Part="1" 
AR Path="/5E25D876/619D21F8" Ref="#PWR?"  Part="1" 
AR Path="/5DC24124/619D21F8" Ref="#PWR0216"  Part="1" 
F 0 "#PWR0216" H 4700 6950 50  0001 C CNN
F 1 "GND" H 4705 7027 50  0000 C CNN
F 2 "" H 4700 7200 50  0001 C CNN
F 3 "" H 4700 7200 50  0001 C CNN
	1    4700 7200
	-1   0    0    -1  
$EndComp
$Comp
L Diode:BAV99 D?
U 1 1 619D21F2
P 4700 6850
AR Path="/5E25D876/619D21F2" Ref="D?"  Part="1" 
AR Path="/5DC24124/619D21F2" Ref="D17"  Part="1" 
F 0 "D17" V 4746 6929 50  0000 L CNN
F 1 "BAV199" V 4655 6929 50  0000 L CNN
F 2 "Package_TO_SOT_SMD:SOT-23" H 4700 6350 50  0001 C CNN
F 3 "https://assets.nexperia.com/documents/data-sheet/BAV99_SER.pdf" H 4700 6850 50  0001 C CNN
	1    4700 6850
	0    1    -1   0   
$EndComp
$Comp
L Connector:TestPoint_Alt TP?
U 1 1 619D21EC
P 4050 6800
AR Path="/619D21EC" Ref="TP?"  Part="1" 
AR Path="/5DC24124/619D21EC" Ref="TP46"  Part="1" 
F 0 "TP46" H 4050 7070 50  0000 C CNN
F 1 "TEST" H 4050 7000 50  0001 C CNN
F 2 "TestPoint:TestPoint_Pad_D1.0mm" H 4250 6800 50  0001 C CNN
F 3 "" H 4250 6800 50  0001 C CNN
	1    4050 6800
	1    0    0    -1  
$EndComp
Wire Wire Line
	4050 6850 4100 6850
Wire Wire Line
	4350 7300 4350 7350
Wire Wire Line
	4350 6850 4350 7100
$Comp
L power:GND #PWR0217
U 1 1 619D21E3
P 4350 7350
F 0 "#PWR0217" H 4350 7100 50  0001 C CNN
F 1 "GND" H 4350 7200 50  0000 C CNN
F 2 "" H 4350 7350 50  0000 C CNN
F 3 "" H 4350 7350 50  0000 C CNN
	1    4350 7350
	1    0    0    -1  
$EndComp
$Comp
L Device:C_Small C52
U 1 1 619D21DD
P 4350 7200
F 0 "C52" H 4360 7270 50  0000 L CNN
F 1 "0.1uF" H 4360 7120 50  0000 L CNN
F 2 "Capacitor_SMD:C_0603_1608Metric" H 4350 7200 50  0001 C CNN
F 3 "" H 4350 7200 50  0000 C CNN
	1    4350 7200
	-1   0    0    1   
$EndComp
Wire Wire Line
	4300 6850 4350 6850
$Comp
L Device:R_Small R60
U 1 1 619D21D6
P 4200 6850
F 0 "R60" H 4230 6870 50  0000 L CNN
F 1 "1K" H 4230 6810 50  0000 L CNN
F 2 "Resistor_SMD:R_0603_1608Metric" H 4200 6850 50  0001 C CNN
F 3 "" H 4200 6850 50  0000 C CNN
	1    4200 6850
	0    1    1    0   
$EndComp
Connection ~ 4350 6850
$Comp
L Connector:TestPoint_Alt TP?
U 1 1 619D21CF
P 4350 6800
AR Path="/619D21CF" Ref="TP?"  Part="1" 
AR Path="/5DC24124/619D21CF" Ref="TP49"  Part="1" 
F 0 "TP49" H 4350 7070 50  0000 C CNN
F 1 "TEST" H 4350 7000 50  0001 C CNN
F 2 "TestPoint:TestPoint_Pad_D1.0mm" H 4550 6800 50  0001 C CNN
F 3 "" H 4550 6800 50  0001 C CNN
	1    4350 6800
	1    0    0    -1  
$EndComp
Text HLabel 4500 6950 3    60   Output ~ 0
CurrentMeas_20A_2
Wire Wire Line
	3600 7350 4050 7350
Connection ~ 3350 7350
Wire Wire Line
	3350 6950 3400 6950
Wire Wire Line
	3350 7350 3350 6950
Wire Wire Line
	3350 7350 3350 7400
Wire Wire Line
	3400 7350 3350 7350
Wire Wire Line
	4000 6850 4050 6850
Wire Wire Line
	4050 6850 4050 7350
Wire Wire Line
	3350 7600 3350 7650
$Comp
L power:GND #PWR0218
U 1 1 619D21BF
P 3350 7650
F 0 "#PWR0218" H 3350 7400 50  0001 C CNN
F 1 "GND" H 3350 7500 50  0000 C CNN
F 2 "" H 3350 7650 50  0000 C CNN
F 3 "" H 3350 7650 50  0000 C CNN
	1    3350 7650
	1    0    0    -1  
$EndComp
$Comp
L Device:R_Small R85
U 1 1 619D21B9
P 3350 7500
F 0 "R85" H 3380 7520 50  0000 L CNN
F 1 "1K" H 3380 7460 50  0000 L CNN
F 2 "Resistor_SMD:R_0603_1608Metric" H 3350 7500 50  0001 C CNN
F 3 "" H 3350 7500 50  0000 C CNN
	1    3350 7500
	1    0    0    -1  
$EndComp
$Comp
L Device:R_Small R68
U 1 1 619D21B3
P 3500 7350
F 0 "R68" H 3530 7370 50  0000 L CNN
F 1 "10K" H 3530 7310 50  0000 L CNN
F 2 "Resistor_SMD:R_0603_1608Metric" H 3500 7350 50  0001 C CNN
F 3 "" H 3500 7350 50  0000 C CNN
	1    3500 7350
	0    -1   -1   0   
$EndComp
$Comp
L power:+5V #PWR?
U 1 1 619D21AD
P 3600 6000
AR Path="/5E25D876/619D21AD" Ref="#PWR?"  Part="1" 
AR Path="/5DC24124/619D21AD" Ref="#PWR0219"  Part="1" 
F 0 "#PWR0219" H 3600 5850 50  0001 C CNN
F 1 "+5V" H 3615 6173 50  0000 C CNN
F 2 "" H 3600 6000 50  0001 C CNN
F 3 "" H 3600 6000 50  0001 C CNN
	1    3600 6000
	1    0    0    -1  
$EndComp
Wire Wire Line
	3600 7150 3700 7150
$Comp
L power:GND #PWR0220
U 1 1 619D21A6
P 3700 7150
F 0 "#PWR0220" H 3700 6900 50  0001 C CNN
F 1 "GND" H 3700 7000 50  0000 C CNN
F 2 "" H 3700 7150 50  0000 C CNN
F 3 "" H 3700 7150 50  0000 C CNN
	1    3700 7150
	1    0    0    -1  
$EndComp
$Comp
L Device:C_Small C47
U 1 1 619D21A0
P 3900 6250
F 0 "C47" H 3910 6320 50  0000 L CNN
F 1 "0.1uF" H 3910 6170 50  0000 L CNN
F 2 "Capacitor_SMD:C_0603_1608Metric" H 3900 6250 50  0001 C CNN
F 3 "" H 3900 6250 50  0000 C CNN
	1    3900 6250
	1    0    0    -1  
$EndComp
Wire Wire Line
	3900 6350 3900 6400
$Comp
L power:GND #PWR0221
U 1 1 619D2199
P 3900 6400
F 0 "#PWR0221" H 3900 6150 50  0001 C CNN
F 1 "GND" H 3900 6250 50  0000 C CNN
F 2 "" H 3900 6400 50  0000 C CNN
F 3 "" H 3900 6400 50  0000 C CNN
	1    3900 6400
	1    0    0    -1  
$EndComp
Wire Wire Line
	3600 6100 3600 6550
Connection ~ 3600 6100
Wire Wire Line
	3900 6100 3600 6100
Wire Wire Line
	3600 6000 3600 6100
Wire Wire Line
	3900 6150 3900 6100
$Comp
L Amplifier_Operational:OPA188xxDBV U28
U 1 1 619D218E
P 3700 6850
F 0 "U28" H 3700 7050 50  0000 L CNN
F 1 "TS321AILT" H 3700 6650 50  0000 L CNN
F 2 "Package_TO_SOT_SMD:SOT-23-5" H 3700 4150 50  0001 C CNN
F 3 "" H 3700 6850 50  0000 C CNN
	1    3700 6850
	1    0    0    -1  
$EndComp
Connection ~ 2350 6850
Wire Wire Line
	2350 6950 2350 6850
Wire Wire Line
	2200 6800 2200 6850
Connection ~ 1900 6850
Wire Wire Line
	1900 6800 1900 6850
Wire Wire Line
	2200 6850 2350 6850
Wire Wire Line
	2550 6500 2550 6550
Wire Wire Line
	2550 7150 2550 7200
$Comp
L power:GND #PWR?
U 1 1 617050BC
P 2550 7200
AR Path="/5DFD1AFA/617050BC" Ref="#PWR?"  Part="1" 
AR Path="/5E5C5B96/617050BC" Ref="#PWR?"  Part="1" 
AR Path="/5E25D876/617050BC" Ref="#PWR?"  Part="1" 
AR Path="/5DC24124/617050BC" Ref="#PWR0223"  Part="1" 
F 0 "#PWR0223" H 2550 6950 50  0001 C CNN
F 1 "GND" H 2555 7027 50  0000 C CNN
F 2 "" H 2550 7200 50  0001 C CNN
F 3 "" H 2550 7200 50  0001 C CNN
	1    2550 7200
	-1   0    0    -1  
$EndComp
$Comp
L Diode:BAV99 D?
U 1 1 617050B6
P 2550 6850
AR Path="/5E25D876/617050B6" Ref="D?"  Part="1" 
AR Path="/5DC24124/617050B6" Ref="D16"  Part="1" 
F 0 "D16" V 2596 6929 50  0000 L CNN
F 1 "BAV199" V 2505 6929 50  0000 L CNN
F 2 "Package_TO_SOT_SMD:SOT-23" H 2550 6350 50  0001 C CNN
F 3 "https://assets.nexperia.com/documents/data-sheet/BAV99_SER.pdf" H 2550 6850 50  0001 C CNN
	1    2550 6850
	0    1    -1   0   
$EndComp
$Comp
L Connector:TestPoint_Alt TP?
U 1 1 617050B0
P 1900 6800
AR Path="/617050B0" Ref="TP?"  Part="1" 
AR Path="/5DC24124/617050B0" Ref="TP34"  Part="1" 
F 0 "TP34" H 1900 7070 50  0000 C CNN
F 1 "TEST" H 1900 7000 50  0001 C CNN
F 2 "TestPoint:TestPoint_Pad_D1.0mm" H 2100 6800 50  0001 C CNN
F 3 "" H 2100 6800 50  0001 C CNN
	1    1900 6800
	1    0    0    -1  
$EndComp
Wire Wire Line
	1900 6850 1950 6850
Wire Wire Line
	2200 7300 2200 7350
Wire Wire Line
	2200 6850 2200 7100
$Comp
L power:GND #PWR0224
U 1 1 617050A4
P 2200 7350
F 0 "#PWR0224" H 2200 7100 50  0001 C CNN
F 1 "GND" H 2200 7200 50  0000 C CNN
F 2 "" H 2200 7350 50  0000 C CNN
F 3 "" H 2200 7350 50  0000 C CNN
	1    2200 7350
	1    0    0    -1  
$EndComp
$Comp
L Device:C_Small C50
U 1 1 6170509E
P 2200 7200
F 0 "C50" H 2210 7270 50  0000 L CNN
F 1 "0.1uF" H 2210 7120 50  0000 L CNN
F 2 "Capacitor_SMD:C_0603_1608Metric" H 2200 7200 50  0001 C CNN
F 3 "" H 2200 7200 50  0000 C CNN
	1    2200 7200
	-1   0    0    1   
$EndComp
Wire Wire Line
	2150 6850 2200 6850
$Comp
L Device:R_Small R59
U 1 1 61705097
P 2050 6850
F 0 "R59" H 2080 6870 50  0000 L CNN
F 1 "1K" H 2080 6810 50  0000 L CNN
F 2 "Resistor_SMD:R_0603_1608Metric" H 2050 6850 50  0001 C CNN
F 3 "" H 2050 6850 50  0000 C CNN
	1    2050 6850
	0    1    1    0   
$EndComp
Connection ~ 2200 6850
$Comp
L Connector:TestPoint_Alt TP?
U 1 1 61705090
P 2200 6800
AR Path="/61705090" Ref="TP?"  Part="1" 
AR Path="/5DC24124/61705090" Ref="TP35"  Part="1" 
F 0 "TP35" H 2200 7070 50  0000 C CNN
F 1 "TEST" H 2200 7000 50  0001 C CNN
F 2 "TestPoint:TestPoint_Pad_D1.0mm" H 2400 6800 50  0001 C CNN
F 3 "" H 2400 6800 50  0001 C CNN
	1    2200 6800
	1    0    0    -1  
$EndComp
Text HLabel 2350 6950 3    60   Output ~ 0
CurrentMeas_20A_1
Wire Wire Line
	1450 7350 1900 7350
Connection ~ 1200 7350
Wire Wire Line
	1200 6950 1250 6950
Wire Wire Line
	1200 7350 1200 6950
Wire Wire Line
	1200 7350 1200 7400
Wire Wire Line
	1250 7350 1200 7350
Wire Wire Line
	1850 6850 1900 6850
Wire Wire Line
	1900 6850 1900 7350
Wire Wire Line
	1200 7600 1200 7650
$Comp
L power:GND #PWR0225
U 1 1 60F93511
P 1200 7650
F 0 "#PWR0225" H 1200 7400 50  0001 C CNN
F 1 "GND" H 1200 7500 50  0000 C CNN
F 2 "" H 1200 7650 50  0000 C CNN
F 3 "" H 1200 7650 50  0000 C CNN
	1    1200 7650
	1    0    0    -1  
$EndComp
$Comp
L Device:R_Small R84
U 1 1 60F5F371
P 1200 7500
F 0 "R84" H 1230 7520 50  0000 L CNN
F 1 "1K" H 1230 7460 50  0000 L CNN
F 2 "Resistor_SMD:R_0603_1608Metric" H 1200 7500 50  0001 C CNN
F 3 "" H 1200 7500 50  0000 C CNN
	1    1200 7500
	1    0    0    -1  
$EndComp
$Comp
L Device:R_Small R63
U 1 1 60F5E5AA
P 1350 7350
F 0 "R63" H 1380 7370 50  0000 L CNN
F 1 "10K" H 1380 7310 50  0000 L CNN
F 2 "Resistor_SMD:R_0603_1608Metric" H 1350 7350 50  0001 C CNN
F 3 "" H 1350 7350 50  0000 C CNN
	1    1350 7350
	0    -1   -1   0   
$EndComp
$Comp
L power:+5V #PWR?
U 1 1 60F25261
P 1450 6000
AR Path="/5E25D876/60F25261" Ref="#PWR?"  Part="1" 
AR Path="/5DC24124/60F25261" Ref="#PWR0226"  Part="1" 
F 0 "#PWR0226" H 1450 5850 50  0001 C CNN
F 1 "+5V" H 1465 6173 50  0000 C CNN
F 2 "" H 1450 6000 50  0001 C CNN
F 3 "" H 1450 6000 50  0001 C CNN
	1    1450 6000
	1    0    0    -1  
$EndComp
Wire Wire Line
	1450 7150 1550 7150
$Comp
L power:GND #PWR0227
U 1 1 60F2524F
P 1550 7150
F 0 "#PWR0227" H 1550 6900 50  0001 C CNN
F 1 "GND" H 1550 7000 50  0000 C CNN
F 2 "" H 1550 7150 50  0000 C CNN
F 3 "" H 1550 7150 50  0000 C CNN
	1    1550 7150
	1    0    0    -1  
$EndComp
$Comp
L Device:C_Small C28
U 1 1 60F25249
P 1750 6250
F 0 "C28" H 1760 6320 50  0000 L CNN
F 1 "0.1uF" H 1760 6170 50  0000 L CNN
F 2 "Capacitor_SMD:C_0603_1608Metric" H 1750 6250 50  0001 C CNN
F 3 "" H 1750 6250 50  0000 C CNN
	1    1750 6250
	1    0    0    -1  
$EndComp
Wire Wire Line
	1750 6350 1750 6400
$Comp
L power:GND #PWR0228
U 1 1 60F25242
P 1750 6400
F 0 "#PWR0228" H 1750 6150 50  0001 C CNN
F 1 "GND" H 1750 6250 50  0000 C CNN
F 2 "" H 1750 6400 50  0000 C CNN
F 3 "" H 1750 6400 50  0000 C CNN
	1    1750 6400
	1    0    0    -1  
$EndComp
Wire Wire Line
	1450 6100 1450 6550
Connection ~ 1450 6100
Wire Wire Line
	1750 6100 1450 6100
Wire Wire Line
	1450 6000 1450 6100
Wire Wire Line
	1750 6150 1750 6100
$Comp
L Amplifier_Operational:OPA188xxDBV U25
U 1 1 60F25231
P 1550 6850
F 0 "U25" H 1550 7050 50  0000 L CNN
F 1 "TS321AILT" H 1550 6650 50  0000 L CNN
F 2 "Package_TO_SOT_SMD:SOT-23-5" H 1550 4150 50  0001 C CNN
F 3 "" H 1550 6850 50  0000 C CNN
	1    1550 6850
	1    0    0    -1  
$EndComp
$Comp
L Device:R_Small R24
U 1 1 621FAF7C
P 1300 2550
F 0 "R24" H 1330 2570 50  0000 L CNN
F 1 "1K" H 1330 2510 50  0000 L CNN
F 2 "Resistor_SMD:R_0603_1608Metric" H 1300 2550 50  0001 C CNN
F 3 "" H 1300 2550 50  0000 C CNN
	1    1300 2550
	0    1    1    0   
$EndComp
Wire Wire Line
	1200 2550 1150 2550
Wire Wire Line
	7750 2550 7750 3350
Wire Wire Line
	7700 3550 7700 4550
Wire Wire Line
	6000 2550 6000 3350
Wire Wire Line
	5950 3550 5950 4550
Wire Wire Line
	4200 3550 4200 4550
Wire Wire Line
	4250 2550 4250 3350
Wire Wire Line
	2500 2550 2500 3350
Wire Wire Line
	2450 3550 2450 4550
$Comp
L Amplifier_Operational:OPA188xxDBV U5
U 1 1 61B9020A
P 2800 3450
F 0 "U5" H 2800 3650 50  0000 L CNN
F 1 "TS321AILT" H 2800 3250 50  0000 L CNN
F 2 "Package_TO_SOT_SMD:SOT-23-5" H 2800 150 50  0001 C CNN
F 3 "" H 2800 3450 50  0000 C CNN
	1    2800 3450
	1    0    0    -1  
$EndComp
Wire Wire Line
	2800 4000 2800 4100
Wire Wire Line
	4550 4000 4550 4100
Wire Wire Line
	6300 4000 6300 4100
Wire Wire Line
	8050 4000 8050 4100
Wire Wire Line
	11550 2200 11550 2300
Wire Wire Line
	11200 2550 12050 2550
Wire Wire Line
	11050 2050 11050 2100
Wire Wire Line
	11250 1000 11250 1550
Wire Wire Line
	11050 1550 11250 1550
Connection ~ 11250 1550
Wire Wire Line
	11350 4750 11350 4800
Wire Wire Line
	11350 4300 11700 4300
Wire Wire Line
	11750 7950 11750 8000
Wire Wire Line
	11750 7500 12050 7500
$Comp
L Connector:TestPoint_Alt TP?
U 1 1 61001808
P 2700 2500
AR Path="/61001808" Ref="TP?"  Part="1" 
AR Path="/5DC24124/61001808" Ref="TP4"  Part="1" 
F 0 "TP4" H 2700 2770 50  0000 C CNN
F 1 "TEST" H 2700 2700 50  0001 C CNN
F 2 "TestPoint:TestPoint_Pad_D1.0mm" H 2900 2500 50  0001 C CNN
F 3 "" H 2900 2500 50  0001 C CNN
	1    2700 2500
	-1   0    0    -1  
$EndComp
Wire Wire Line
	2700 2500 2700 2550
Connection ~ 2700 2550
Wire Wire Line
	2700 2550 4250 2550
$Comp
L power:+3V0 #PWR?
U 1 1 60AC8631
P 15550 8200
AR Path="/5DC5AE9C/60AC8631" Ref="#PWR?"  Part="1" 
AR Path="/5DC24124/60AC8631" Ref="#PWR0134"  Part="1" 
F 0 "#PWR0134" H 15550 8050 50  0001 C CNN
F 1 "+3V0" H 15550 8340 50  0000 C CNN
F 2 "" H 15550 8200 50  0000 C CNN
F 3 "" H 15550 8200 50  0000 C CNN
	1    15550 8200
	1    0    0    -1  
$EndComp
$Comp
L power:+3V0 #PWR?
U 1 1 60B217CB
P 15250 5000
AR Path="/5DC5AE9C/60B217CB" Ref="#PWR?"  Part="1" 
AR Path="/5DC24124/60B217CB" Ref="#PWR0150"  Part="1" 
F 0 "#PWR0150" H 15250 4850 50  0001 C CNN
F 1 "+3V0" H 15250 5140 50  0000 C CNN
F 2 "" H 15250 5000 50  0000 C CNN
F 3 "" H 15250 5000 50  0000 C CNN
	1    15250 5000
	1    0    0    -1  
$EndComp
$Comp
L power:+3V0 #PWR?
U 1 1 60B261A3
P 14550 1700
AR Path="/5DC5AE9C/60B261A3" Ref="#PWR?"  Part="1" 
AR Path="/5DC24124/60B261A3" Ref="#PWR0152"  Part="1" 
F 0 "#PWR0152" H 14550 1550 50  0001 C CNN
F 1 "+3V0" H 14550 1840 50  0000 C CNN
F 2 "" H 14550 1700 50  0000 C CNN
F 3 "" H 14550 1700 50  0000 C CNN
	1    14550 1700
	1    0    0    -1  
$EndComp
$Comp
L power:+3V0 #PWR?
U 1 1 60B2759B
P 9000 6500
AR Path="/5DC5AE9C/60B2759B" Ref="#PWR?"  Part="1" 
AR Path="/5DC24124/60B2759B" Ref="#PWR0154"  Part="1" 
F 0 "#PWR0154" H 9000 6350 50  0001 C CNN
F 1 "+3V0" H 9000 6640 50  0000 C CNN
F 2 "" H 9000 6500 50  0000 C CNN
F 3 "" H 9000 6500 50  0000 C CNN
	1    9000 6500
	1    0    0    -1  
$EndComp
$Comp
L power:+3V0 #PWR?
U 1 1 60B3407B
P 6950 6500
AR Path="/5DC5AE9C/60B3407B" Ref="#PWR?"  Part="1" 
AR Path="/5DC24124/60B3407B" Ref="#PWR0165"  Part="1" 
F 0 "#PWR0165" H 6950 6350 50  0001 C CNN
F 1 "+3V0" H 6950 6640 50  0000 C CNN
F 2 "" H 6950 6500 50  0000 C CNN
F 3 "" H 6950 6500 50  0000 C CNN
	1    6950 6500
	1    0    0    -1  
$EndComp
$Comp
L power:+3V0 #PWR?
U 1 1 60B3A30A
P 4700 6500
AR Path="/5DC5AE9C/60B3A30A" Ref="#PWR?"  Part="1" 
AR Path="/5DC24124/60B3A30A" Ref="#PWR0169"  Part="1" 
F 0 "#PWR0169" H 4700 6350 50  0001 C CNN
F 1 "+3V0" H 4700 6640 50  0000 C CNN
F 2 "" H 4700 6500 50  0000 C CNN
F 3 "" H 4700 6500 50  0000 C CNN
	1    4700 6500
	1    0    0    -1  
$EndComp
$Comp
L power:+3V0 #PWR?
U 1 1 60B3AA52
P 2550 6500
AR Path="/5DC5AE9C/60B3AA52" Ref="#PWR?"  Part="1" 
AR Path="/5DC24124/60B3AA52" Ref="#PWR0175"  Part="1" 
F 0 "#PWR0175" H 2550 6350 50  0001 C CNN
F 1 "+3V0" H 2550 6640 50  0000 C CNN
F 2 "" H 2550 6500 50  0000 C CNN
F 3 "" H 2550 6500 50  0000 C CNN
	1    2550 6500
	1    0    0    -1  
$EndComp
$Comp
L Transistor_FET:QM6006D Q5
U 1 1 616A0E3A
P 13150 4400
F 0 "Q5" H 13354 4446 50  0000 L CNN
F 1 "QM6006D" H 13354 4355 50  0000 L CNN
F 2 "Package_TO_SOT_SMD:TO-252-2" H 13350 4325 50  0001 L CIN
F 3 "http://www.jaolen.com/images/pdf/QM6006D.pdf" H 13150 4400 50  0001 L CNN
	1    13150 4400
	1    0    0    -1  
$EndComp
Connection ~ 12950 4400
$Comp
L Transistor_FET:QM6006D Q6
U 1 1 616B3E5D
P 13500 7600
F 0 "Q6" H 13704 7646 50  0000 L CNN
F 1 "QM6006D" H 13704 7555 50  0000 L CNN
F 2 "Package_TO_SOT_SMD:TO-252-2" H 13700 7525 50  0001 L CIN
F 3 "http://www.jaolen.com/images/pdf/QM6006D.pdf" H 13500 7600 50  0001 L CNN
	1    13500 7600
	1    0    0    -1  
$EndComp
Connection ~ 13300 7600
$EndSCHEMATC
