EESchema Schematic File Version 4
EELAYER 30 0
EELAYER END
$Descr A4 8268 11693 portrait
encoding utf-8
Sheet 9 9
Title ""
Date ""
Rev ""
Comp ""
Comment1 ""
Comment2 ""
Comment3 ""
Comment4 ""
$EndDescr
Text HLabel 6850 4100 2    50   Output ~ 0
voltageMeas
Text Notes 2250 650  0    50   ~ 0
buffer for eliminating DUT current draw
Text HLabel 1250 4550 0    50   Input ~ 0
EXT-
Text HLabel 1200 2250 0    50   Input ~ 0
EXT+
$Comp
L Amplifier_Operational:MCP6001-OT U?
U 1 1 5E1B54A4
P 3950 3400
AR Path="/5DFD1AFA/5E1B54A4" Ref="U?"  Part="1" 
AR Path="/5E5C5B96/5E1B54A4" Ref="U?"  Part="1" 
AR Path="/5E25D876/5E1B54A4" Ref="U19"  Part="1" 
F 0 "U19" H 3950 3881 50  0000 C CNN
F 1 "TS321AILT" H 3950 3790 50  0000 C CNN
F 2 "Package_TO_SOT_SMD:SOT-23-5" H 3850 3200 50  0001 L CNN
F 3 "http://ww1.microchip.com/downloads/en/DeviceDoc/21733j.pdf" H 3950 3600 50  0001 C CNN
	1    3950 3400
	1    0    0    -1  
$EndComp
$Comp
L power:-5V #PWR?
U 1 1 5E1B54AE
P 3850 4050
AR Path="/5DFD1AFA/5E1B54AE" Ref="#PWR?"  Part="1" 
AR Path="/5E5C5B96/5E1B54AE" Ref="#PWR?"  Part="1" 
AR Path="/5E25D876/5E1B54AE" Ref="#PWR0118"  Part="1" 
F 0 "#PWR0118" H 3850 4150 50  0001 C CNN
F 1 "-5V" H 3865 4223 50  0000 C CNN
F 2 "" H 3850 4050 50  0001 C CNN
F 3 "" H 3850 4050 50  0001 C CNN
	1    3850 4050
	1    0    0    1   
$EndComp
$Comp
L Device:C C?
U 1 1 5E1B54B8
P 4100 3950
AR Path="/5DFD1AFA/5E1B54B8" Ref="C?"  Part="1" 
AR Path="/5E5C5B96/5E1B54B8" Ref="C?"  Part="1" 
AR Path="/5E25D876/5E1B54B8" Ref="C65"  Part="1" 
F 0 "C65" H 4215 3996 50  0000 L CNN
F 1 "0.1uF" H 4215 3905 50  0000 L CNN
F 2 "Capacitor_SMD:C_0603_1608Metric" H 4138 3800 50  0001 C CNN
F 3 "~" H 4100 3950 50  0001 C CNN
	1    4100 3950
	-1   0    0    -1  
$EndComp
$Comp
L Device:C C?
U 1 1 5E1B54C2
P 4450 3950
AR Path="/5DFD1AFA/5E1B54C2" Ref="C?"  Part="1" 
AR Path="/5E5C5B96/5E1B54C2" Ref="C?"  Part="1" 
AR Path="/5E25D876/5E1B54C2" Ref="C66"  Part="1" 
F 0 "C66" H 4565 3996 50  0000 L CNN
F 1 "1uF" H 4565 3905 50  0000 L CNN
F 2 "Capacitor_SMD:C_0603_1608Metric" H 4488 3800 50  0001 C CNN
F 3 "~" H 4450 3950 50  0001 C CNN
	1    4450 3950
	-1   0    0    -1  
$EndComp
Wire Wire Line
	3850 3700 3850 3750
Wire Wire Line
	3850 3750 4100 3750
Wire Wire Line
	4450 3750 4450 3800
Wire Wire Line
	4100 3800 4100 3750
Connection ~ 4100 3750
Wire Wire Line
	4100 3750 4450 3750
Wire Wire Line
	3850 4050 3850 3750
Connection ~ 3850 3750
$Comp
L power:GND #PWR?
U 1 1 5E1B54D4
P 4100 4200
AR Path="/5DFD1AFA/5E1B54D4" Ref="#PWR?"  Part="1" 
AR Path="/5E5C5B96/5E1B54D4" Ref="#PWR?"  Part="1" 
AR Path="/5E25D876/5E1B54D4" Ref="#PWR0120"  Part="1" 
F 0 "#PWR0120" H 4100 3950 50  0001 C CNN
F 1 "GND" H 4105 4027 50  0000 C CNN
F 2 "" H 4100 4200 50  0001 C CNN
F 3 "" H 4100 4200 50  0001 C CNN
	1    4100 4200
	-1   0    0    -1  
$EndComp
Wire Wire Line
	4100 4150 4450 4150
Wire Wire Line
	4450 4150 4450 4100
Wire Wire Line
	4100 4200 4100 4150
Wire Wire Line
	4100 4150 4100 4100
Connection ~ 4100 4150
Wire Wire Line
	4600 4400 4600 3400
Wire Wire Line
	4600 3400 4250 3400
$Comp
L Device:R R?
U 1 1 5E1B54E5
P 5850 3400
AR Path="/5DFD1AFA/5E1B54E5" Ref="R?"  Part="1" 
AR Path="/5E5C5B96/5E1B54E5" Ref="R?"  Part="1" 
AR Path="/5E25D876/5E1B54E5" Ref="R75"  Part="1" 
F 0 "R75" V 6057 3400 50  0000 C CNN
F 1 "1K" V 5966 3400 50  0000 C CNN
F 2 "Resistor_SMD:R_0603_1608Metric" V 5780 3400 50  0001 C CNN
F 3 "~" H 5850 3400 50  0001 C CNN
	1    5850 3400
	0    1    -1   0   
$EndComp
$Comp
L Device:C C?
U 1 1 5E1B54EF
P 6200 3600
AR Path="/5DFD1AFA/5E1B54EF" Ref="C?"  Part="1" 
AR Path="/5E5C5B96/5E1B54EF" Ref="C?"  Part="1" 
AR Path="/5E25D876/5E1B54EF" Ref="C63"  Part="1" 
F 0 "C63" H 6315 3646 50  0000 L CNN
F 1 "0.1uF" H 6315 3555 50  0000 L CNN
F 2 "Capacitor_SMD:C_0603_1608Metric" H 6238 3450 50  0001 C CNN
F 3 "~" H 6200 3600 50  0001 C CNN
	1    6200 3600
	-1   0    0    -1  
$EndComp
$Comp
L power:GND #PWR?
U 1 1 5E1B54F9
P 6200 3800
AR Path="/5DFD1AFA/5E1B54F9" Ref="#PWR?"  Part="1" 
AR Path="/5E5C5B96/5E1B54F9" Ref="#PWR?"  Part="1" 
AR Path="/5E25D876/5E1B54F9" Ref="#PWR0117"  Part="1" 
F 0 "#PWR0117" H 6200 3550 50  0001 C CNN
F 1 "GND" H 6205 3627 50  0000 C CNN
F 2 "" H 6200 3800 50  0001 C CNN
F 3 "" H 6200 3800 50  0001 C CNN
	1    6200 3800
	-1   0    0    -1  
$EndComp
Connection ~ 4600 3400
Wire Wire Line
	6200 3450 6200 3400
Connection ~ 6200 3400
Wire Wire Line
	6200 3800 6200 3750
$Comp
L Device:C C?
U 1 1 5E1B550A
P 4600 2750
AR Path="/5DFD1AFA/5E1B550A" Ref="C?"  Part="1" 
AR Path="/5E5C5B96/5E1B550A" Ref="C?"  Part="1" 
AR Path="/5E25D876/5E1B550A" Ref="C61"  Part="1" 
F 0 "C61" H 4715 2796 50  0000 L CNN
F 1 "0.1uF" H 4715 2705 50  0000 L CNN
F 2 "Capacitor_SMD:C_0603_1608Metric" H 4638 2600 50  0001 C CNN
F 3 "~" H 4600 2750 50  0001 C CNN
	1    4600 2750
	-1   0    0    -1  
$EndComp
$Comp
L Device:C C?
U 1 1 5E1B5514
P 4150 2750
AR Path="/5DFD1AFA/5E1B5514" Ref="C?"  Part="1" 
AR Path="/5E5C5B96/5E1B5514" Ref="C?"  Part="1" 
AR Path="/5E25D876/5E1B5514" Ref="C60"  Part="1" 
F 0 "C60" H 4265 2796 50  0000 L CNN
F 1 "1uF" H 4265 2705 50  0000 L CNN
F 2 "Capacitor_SMD:C_0603_1608Metric" H 4188 2600 50  0001 C CNN
F 3 "~" H 4150 2750 50  0001 C CNN
	1    4150 2750
	-1   0    0    -1  
$EndComp
$Comp
L power:GND #PWR?
U 1 1 5E1B551E
P 4600 3000
AR Path="/5DFD1AFA/5E1B551E" Ref="#PWR?"  Part="1" 
AR Path="/5E5C5B96/5E1B551E" Ref="#PWR?"  Part="1" 
AR Path="/5E25D876/5E1B551E" Ref="#PWR0113"  Part="1" 
F 0 "#PWR0113" H 4600 2750 50  0001 C CNN
F 1 "GND" H 4605 2827 50  0000 C CNN
F 2 "" H 4600 3000 50  0001 C CNN
F 3 "" H 4600 3000 50  0001 C CNN
	1    4600 3000
	-1   0    0    -1  
$EndComp
Wire Wire Line
	4150 2950 4600 2950
Wire Wire Line
	4600 2950 4600 2900
Wire Wire Line
	4150 2950 4150 2900
Wire Wire Line
	4150 2600 4150 2550
Wire Wire Line
	4150 2550 4600 2550
Wire Wire Line
	4600 2550 4600 2600
Wire Wire Line
	3650 3300 3500 3300
$Comp
L Connector:TestPoint_Alt TP?
U 1 1 5E1B552F
P 6200 3350
AR Path="/5DFD1AFA/5E1B552F" Ref="TP?"  Part="1" 
AR Path="/5E5C5B96/5E1B552F" Ref="TP?"  Part="1" 
AR Path="/5E25D876/5E1B552F" Ref="TP43"  Part="1" 
F 0 "TP43" H 6258 3422 50  0000 L CNN
F 1 "TestPoint_Alt" H 6258 3377 50  0001 L CNN
F 2 "TestPoint:TestPoint_Pad_D1.0mm" H 6400 3350 50  0001 C CNN
F 3 "~" H 6400 3350 50  0001 C CNN
	1    6200 3350
	-1   0    0    -1  
$EndComp
Wire Wire Line
	6200 3350 6200 3400
$Comp
L Device:R R73
U 1 1 5E1B5544
P 3500 3050
F 0 "R73" H 3570 3096 50  0000 L CNN
F 1 "1K" H 3570 3005 50  0000 L CNN
F 2 "Resistor_SMD:R_0603_1608Metric" V 3430 3050 50  0001 C CNN
F 3 "~" H 3500 3050 50  0001 C CNN
	1    3500 3050
	1    0    0    -1  
$EndComp
$Comp
L Device:R R74
U 1 1 5E1B554E
P 3250 3300
F 0 "R74" V 3043 3300 50  0000 C CNN
F 1 "10K" V 3134 3300 50  0000 C CNN
F 2 "Resistor_SMD:R_0603_1608Metric" V 3180 3300 50  0001 C CNN
F 3 "~" H 3250 3300 50  0001 C CNN
	1    3250 3300
	0    1    1    0   
$EndComp
$Comp
L Device:R R76
U 1 1 5E1B5558
P 3250 3500
F 0 "R76" V 3043 3500 50  0000 C CNN
F 1 "10K" V 3134 3500 50  0000 C CNN
F 2 "Resistor_SMD:R_0603_1608Metric" V 3180 3500 50  0001 C CNN
F 3 "~" H 3250 3500 50  0001 C CNN
	1    3250 3500
	0    1    1    0   
$EndComp
$Comp
L Device:R R77
U 1 1 5E1B5562
P 3500 3900
F 0 "R77" H 3430 3854 50  0000 R CNN
F 1 "1K" H 3430 3945 50  0000 R CNN
F 2 "Resistor_SMD:R_0603_1608Metric" V 3430 3900 50  0001 C CNN
F 3 "~" H 3500 3900 50  0001 C CNN
	1    3500 3900
	-1   0    0    1   
$EndComp
Wire Wire Line
	3500 4050 3500 4400
Wire Wire Line
	3500 4400 4600 4400
Wire Wire Line
	3500 3750 3500 3500
Wire Wire Line
	3500 3500 3650 3500
Wire Wire Line
	3500 2800 3500 2900
Wire Wire Line
	3500 3200 3500 3300
Connection ~ 3500 3300
Wire Wire Line
	3500 3300 3400 3300
Wire Wire Line
	3400 3500 3500 3500
Connection ~ 3500 3500
Text Notes 3000 2150 0    50   ~ 0
differential amplifier with gain of 0.1
Wire Wire Line
	3850 2450 3850 2550
Wire Wire Line
	4150 2550 3850 2550
Connection ~ 4150 2550
Connection ~ 3850 2550
Wire Wire Line
	3850 2550 3850 3100
Wire Wire Line
	4600 3000 4600 2950
Connection ~ 4600 2950
$Comp
L Amplifier_Operational:MCP6001-OT U?
U 1 1 5E1B55B2
P 1850 2350
AR Path="/5DFD1AFA/5E1B55B2" Ref="U?"  Part="1" 
AR Path="/5E5C5B96/5E1B55B2" Ref="U?"  Part="1" 
AR Path="/5E25D876/5E1B55B2" Ref="U18"  Part="1" 
F 0 "U18" H 1850 2831 50  0000 C CNN
F 1 "TS321AILT" H 1850 2740 50  0000 C CNN
F 2 "Package_TO_SOT_SMD:SOT-23-5" H 1750 2150 50  0001 L CNN
F 3 "http://ww1.microchip.com/downloads/en/DeviceDoc/21733j.pdf" H 1850 2550 50  0001 C CNN
	1    1850 2350
	1    0    0    -1  
$EndComp
$Comp
L power:GND #PWR?
U 1 1 5E1B55BC
P 2200 1850
AR Path="/5DFD1AFA/5E1B55BC" Ref="#PWR?"  Part="1" 
AR Path="/5E5C5B96/5E1B55BC" Ref="#PWR?"  Part="1" 
AR Path="/5E25D876/5E1B55BC" Ref="#PWR0110"  Part="1" 
F 0 "#PWR0110" H 2200 1600 50  0001 C CNN
F 1 "GND" H 2205 1677 50  0000 C CNN
F 2 "" H 2200 1850 50  0001 C CNN
F 3 "" H 2200 1850 50  0001 C CNN
	1    2200 1850
	-1   0    0    -1  
$EndComp
$Comp
L power:+24V #PWR0109
U 1 1 5E1B55C6
P 1750 1400
F 0 "#PWR0109" H 1750 1250 50  0001 C CNN
F 1 "+24V" H 1765 1573 50  0000 C CNN
F 2 "" H 1750 1400 50  0001 C CNN
F 3 "" H 1750 1400 50  0001 C CNN
	1    1750 1400
	1    0    0    -1  
$EndComp
$Comp
L Device:C C?
U 1 1 5E1B55D0
P 2150 2850
AR Path="/5DFD1AFA/5E1B55D0" Ref="C?"  Part="1" 
AR Path="/5E5C5B96/5E1B55D0" Ref="C?"  Part="1" 
AR Path="/5E25D876/5E1B55D0" Ref="C62"  Part="1" 
F 0 "C62" H 2265 2896 50  0000 L CNN
F 1 "0.1uF" H 2265 2805 50  0000 L CNN
F 2 "Capacitor_SMD:C_0603_1608Metric" H 2188 2700 50  0001 C CNN
F 3 "~" H 2150 2850 50  0001 C CNN
	1    2150 2850
	-1   0    0    -1  
$EndComp
$Comp
L power:-5V #PWR?
U 1 1 5E1B55DA
P 1750 3050
AR Path="/5DFD1AFA/5E1B55DA" Ref="#PWR?"  Part="1" 
AR Path="/5E5C5B96/5E1B55DA" Ref="#PWR?"  Part="1" 
AR Path="/5E25D876/5E1B55DA" Ref="#PWR0114"  Part="1" 
F 0 "#PWR0114" H 1750 3150 50  0001 C CNN
F 1 "-5V" H 1765 3223 50  0000 C CNN
F 2 "" H 1750 3050 50  0001 C CNN
F 3 "" H 1750 3050 50  0001 C CNN
	1    1750 3050
	1    0    0    1   
$EndComp
$Comp
L power:GND #PWR?
U 1 1 5E1B55E4
P 2150 3050
AR Path="/5DFD1AFA/5E1B55E4" Ref="#PWR?"  Part="1" 
AR Path="/5E5C5B96/5E1B55E4" Ref="#PWR?"  Part="1" 
AR Path="/5E25D876/5E1B55E4" Ref="#PWR0115"  Part="1" 
F 0 "#PWR0115" H 2150 2800 50  0001 C CNN
F 1 "GND" H 2155 2877 50  0000 C CNN
F 2 "" H 2150 3050 50  0001 C CNN
F 3 "" H 2150 3050 50  0001 C CNN
	1    2150 3050
	-1   0    0    -1  
$EndComp
Wire Wire Line
	2150 3050 2150 3000
Wire Wire Line
	2150 2700 1750 2700
Wire Wire Line
	1750 2700 1750 2650
Wire Wire Line
	1750 3050 1750 2700
Connection ~ 1750 2700
$Comp
L Device:C C?
U 1 1 5E1B55F3
P 2200 1650
AR Path="/5DFD1AFA/5E1B55F3" Ref="C?"  Part="1" 
AR Path="/5E5C5B96/5E1B55F3" Ref="C?"  Part="1" 
AR Path="/5E25D876/5E1B55F3" Ref="C59"  Part="1" 
F 0 "C59" H 2315 1696 50  0000 L CNN
F 1 "0.1uF" H 2315 1605 50  0000 L CNN
F 2 "Capacitor_SMD:C_0603_1608Metric" H 2238 1500 50  0001 C CNN
F 3 "~" H 2200 1650 50  0001 C CNN
	1    2200 1650
	-1   0    0    -1  
$EndComp
Wire Wire Line
	1750 1400 1750 1500
Wire Wire Line
	2200 1500 1750 1500
Connection ~ 1750 1500
Wire Wire Line
	1750 1500 1750 2050
Wire Wire Line
	2200 1800 2200 1850
Wire Wire Line
	2150 2350 2400 2350
Wire Wire Line
	2400 2350 2400 3300
Wire Wire Line
	2400 3300 1450 3300
Wire Wire Line
	1450 3300 1450 2450
Wire Wire Line
	1450 2450 1550 2450
Connection ~ 2400 3300
$Comp
L Amplifier_Operational:MCP6001-OT U?
U 1 1 5E1B5609
P 1850 4650
AR Path="/5DFD1AFA/5E1B5609" Ref="U?"  Part="1" 
AR Path="/5E5C5B96/5E1B5609" Ref="U?"  Part="1" 
AR Path="/5E25D876/5E1B5609" Ref="U20"  Part="1" 
F 0 "U20" H 1850 5131 50  0000 C CNN
F 1 "TS321AILT" H 1850 5040 50  0000 C CNN
F 2 "Package_TO_SOT_SMD:SOT-23-5" H 1750 4450 50  0001 L CNN
F 3 "http://ww1.microchip.com/downloads/en/DeviceDoc/21733j.pdf" H 1850 4850 50  0001 C CNN
	1    1850 4650
	1    0    0    -1  
$EndComp
$Comp
L power:GND #PWR?
U 1 1 5E1B5613
P 2200 4150
AR Path="/5DFD1AFA/5E1B5613" Ref="#PWR?"  Part="1" 
AR Path="/5E5C5B96/5E1B5613" Ref="#PWR?"  Part="1" 
AR Path="/5E25D876/5E1B5613" Ref="#PWR0119"  Part="1" 
F 0 "#PWR0119" H 2200 3900 50  0001 C CNN
F 1 "GND" H 2205 3977 50  0000 C CNN
F 2 "" H 2200 4150 50  0001 C CNN
F 3 "" H 2200 4150 50  0001 C CNN
	1    2200 4150
	-1   0    0    -1  
$EndComp
$Comp
L power:+24V #PWR0116
U 1 1 5E1B561D
P 1750 3700
F 0 "#PWR0116" H 1750 3550 50  0001 C CNN
F 1 "+24V" H 1765 3873 50  0000 C CNN
F 2 "" H 1750 3700 50  0001 C CNN
F 3 "" H 1750 3700 50  0001 C CNN
	1    1750 3700
	1    0    0    -1  
$EndComp
$Comp
L Device:C C?
U 1 1 5E1B5627
P 2150 5150
AR Path="/5DFD1AFA/5E1B5627" Ref="C?"  Part="1" 
AR Path="/5E5C5B96/5E1B5627" Ref="C?"  Part="1" 
AR Path="/5E25D876/5E1B5627" Ref="C67"  Part="1" 
F 0 "C67" H 2265 5196 50  0000 L CNN
F 1 "0.1uF" H 2265 5105 50  0000 L CNN
F 2 "Capacitor_SMD:C_0603_1608Metric" H 2188 5000 50  0001 C CNN
F 3 "~" H 2150 5150 50  0001 C CNN
	1    2150 5150
	-1   0    0    -1  
$EndComp
$Comp
L power:-5V #PWR?
U 1 1 5E1B5631
P 1750 5350
AR Path="/5DFD1AFA/5E1B5631" Ref="#PWR?"  Part="1" 
AR Path="/5E5C5B96/5E1B5631" Ref="#PWR?"  Part="1" 
AR Path="/5E25D876/5E1B5631" Ref="#PWR0121"  Part="1" 
F 0 "#PWR0121" H 1750 5450 50  0001 C CNN
F 1 "-5V" H 1765 5523 50  0000 C CNN
F 2 "" H 1750 5350 50  0001 C CNN
F 3 "" H 1750 5350 50  0001 C CNN
	1    1750 5350
	1    0    0    1   
$EndComp
$Comp
L power:GND #PWR?
U 1 1 5E1B563B
P 2150 5350
AR Path="/5DFD1AFA/5E1B563B" Ref="#PWR?"  Part="1" 
AR Path="/5E5C5B96/5E1B563B" Ref="#PWR?"  Part="1" 
AR Path="/5E25D876/5E1B563B" Ref="#PWR0122"  Part="1" 
F 0 "#PWR0122" H 2150 5100 50  0001 C CNN
F 1 "GND" H 2155 5177 50  0000 C CNN
F 2 "" H 2150 5350 50  0001 C CNN
F 3 "" H 2150 5350 50  0001 C CNN
	1    2150 5350
	-1   0    0    -1  
$EndComp
Wire Wire Line
	2150 5350 2150 5300
Wire Wire Line
	2150 5000 1750 5000
Wire Wire Line
	1750 5000 1750 4950
Wire Wire Line
	1750 5350 1750 5000
Connection ~ 1750 5000
$Comp
L Device:C C?
U 1 1 5E1B564A
P 2200 3950
AR Path="/5DFD1AFA/5E1B564A" Ref="C?"  Part="1" 
AR Path="/5E5C5B96/5E1B564A" Ref="C?"  Part="1" 
AR Path="/5E25D876/5E1B564A" Ref="C64"  Part="1" 
F 0 "C64" H 2315 3996 50  0000 L CNN
F 1 "0.1uF" H 2315 3905 50  0000 L CNN
F 2 "Capacitor_SMD:C_0603_1608Metric" H 2238 3800 50  0001 C CNN
F 3 "~" H 2200 3950 50  0001 C CNN
	1    2200 3950
	-1   0    0    -1  
$EndComp
Wire Wire Line
	1750 3700 1750 3800
Wire Wire Line
	2200 3800 1750 3800
Connection ~ 1750 3800
Wire Wire Line
	1750 3800 1750 4350
Wire Wire Line
	2200 4100 2200 4150
Wire Wire Line
	2150 4650 2400 4650
Wire Wire Line
	2400 4650 2400 5600
Wire Wire Line
	2400 5600 1450 5600
Wire Wire Line
	1450 5600 1450 4750
Wire Wire Line
	1450 4750 1550 4750
Wire Wire Line
	1250 4550 1350 4550
Wire Wire Line
	2400 3500 2400 4650
Connection ~ 2400 4650
$Comp
L Connector:TestPoint_Alt TP?
U 1 1 5E1B5663
P 1250 2200
AR Path="/5DFD1AFA/5E1B5663" Ref="TP?"  Part="1" 
AR Path="/5E5C5B96/5E1B5663" Ref="TP?"  Part="1" 
AR Path="/5E25D876/5E1B5663" Ref="TP41"  Part="1" 
F 0 "TP41" H 1308 2272 50  0000 L CNN
F 1 "TestPoint_Alt" H 1308 2227 50  0001 L CNN
F 2 "TestPoint:TestPoint_Pad_D1.0mm" H 1450 2200 50  0001 C CNN
F 3 "~" H 1450 2200 50  0001 C CNN
	1    1250 2200
	-1   0    0    -1  
$EndComp
Wire Wire Line
	1250 2200 1250 2250
Wire Wire Line
	1250 2250 1550 2250
$Comp
L Connector:TestPoint_Alt TP?
U 1 1 5E1B5670
P 1350 4500
AR Path="/5DFD1AFA/5E1B5670" Ref="TP?"  Part="1" 
AR Path="/5E5C5B96/5E1B5670" Ref="TP?"  Part="1" 
AR Path="/5E25D876/5E1B5670" Ref="TP45"  Part="1" 
F 0 "TP45" H 1408 4572 50  0000 L CNN
F 1 "TestPoint_Alt" H 1408 4527 50  0001 L CNN
F 2 "TestPoint:TestPoint_Pad_D1.0mm" H 1550 4500 50  0001 C CNN
F 3 "~" H 1550 4500 50  0001 C CNN
	1    1350 4500
	-1   0    0    -1  
$EndComp
Wire Wire Line
	1350 4500 1350 4550
Connection ~ 1350 4550
Wire Wire Line
	1350 4550 1550 4550
Wire Wire Line
	1200 2250 1250 2250
Connection ~ 1250 2250
$Comp
L Diode:BAV99 D29
U 1 1 6087A930
P 6650 3400
F 0 "D29" V 6696 3479 50  0000 L CNN
F 1 "BAV199" V 6605 3479 50  0000 L CNN
F 2 "Package_TO_SOT_SMD:SOT-23" H 6650 2900 50  0001 C CNN
F 3 "https://assets.nexperia.com/documents/data-sheet/BAV99_SER.pdf" H 6650 3400 50  0001 C CNN
	1    6650 3400
	0    1    -1   0   
$EndComp
Wire Wire Line
	6200 3400 6400 3400
Wire Wire Line
	6400 3400 6450 3400
Connection ~ 6400 3400
$Comp
L power:GND #PWR?
U 1 1 608876F6
P 6650 3750
AR Path="/5DFD1AFA/608876F6" Ref="#PWR?"  Part="1" 
AR Path="/5E5C5B96/608876F6" Ref="#PWR?"  Part="1" 
AR Path="/5E25D876/608876F6" Ref="#PWR0247"  Part="1" 
F 0 "#PWR0247" H 6650 3500 50  0001 C CNN
F 1 "GND" H 6655 3577 50  0000 C CNN
F 2 "" H 6650 3750 50  0001 C CNN
F 3 "" H 6650 3750 50  0001 C CNN
	1    6650 3750
	-1   0    0    -1  
$EndComp
Wire Wire Line
	6650 3700 6650 3750
Wire Wire Line
	6650 3050 6650 3100
Wire Wire Line
	2400 3500 3100 3500
Wire Wire Line
	2400 3300 3100 3300
$Comp
L power:GND #PWR?
U 1 1 610E74B1
P 3350 2800
AR Path="/5DFD1AFA/610E74B1" Ref="#PWR?"  Part="1" 
AR Path="/5E5C5B96/610E74B1" Ref="#PWR?"  Part="1" 
AR Path="/5E25D876/610E74B1" Ref="#PWR0112"  Part="1" 
F 0 "#PWR0112" H 3350 2550 50  0001 C CNN
F 1 "GND" H 3355 2627 50  0000 C CNN
F 2 "" H 3350 2800 50  0001 C CNN
F 3 "" H 3350 2800 50  0001 C CNN
	1    3350 2800
	-1   0    0    -1  
$EndComp
Wire Wire Line
	3350 2800 3500 2800
$Comp
L power:+3V0 #PWR0248
U 1 1 610F74D2
P 6650 3050
F 0 "#PWR0248" H 6650 2900 50  0001 C CNN
F 1 "+3V0" H 6665 3223 50  0000 C CNN
F 2 "" H 6650 3050 50  0001 C CNN
F 3 "" H 6650 3050 50  0001 C CNN
	1    6650 3050
	1    0    0    -1  
$EndComp
$Comp
L Analog_ADC:MCP3426-xSN U36
U 1 1 6131372E
P 4850 5950
F 0 "U36" H 4850 6531 50  0000 C CNN
F 1 "MCP3426-xSN_NM" H 4850 6440 50  0000 C CNN
F 2 "Package_SO:SOIC-8_3.9x4.9mm_P1.27mm" H 4850 5950 50  0001 C CNN
F 3 "http://ww1.microchip.com/downloads/en/DeviceDoc/22226a.pdf" H 4850 5950 50  0001 C CNN
	1    4850 5950
	-1   0    0    -1  
$EndComp
$Comp
L power:VSSA #PWR0252
U 1 1 613166B6
P 5600 5800
F 0 "#PWR0252" H 5600 5650 50  0001 C CNN
F 1 "VSSA" H 5617 5973 50  0000 C CNN
F 2 "" H 5600 5800 50  0001 C CNN
F 3 "" H 5600 5800 50  0001 C CNN
	1    5600 5800
	-1   0    0    -1  
$EndComp
Wire Wire Line
	5600 5850 5250 5850
$Comp
L Device:R R118
U 1 1 6131C26E
P 4300 5550
F 0 "R118" V 4093 5550 50  0000 C CNN
F 1 "10K" V 4184 5550 50  0000 C CNN
F 2 "Resistor_SMD:R_0603_1608Metric" V 4230 5550 50  0001 C CNN
F 3 "~" H 4300 5550 50  0001 C CNN
	1    4300 5550
	-1   0    0    -1  
$EndComp
$Comp
L Device:R R115
U 1 1 6131CA62
P 4100 5550
F 0 "R115" V 3893 5550 50  0000 C CNN
F 1 "10K" V 3984 5550 50  0000 C CNN
F 2 "Resistor_SMD:R_0603_1608Metric" V 4030 5550 50  0001 C CNN
F 3 "~" H 4100 5550 50  0001 C CNN
	1    4100 5550
	1    0    0    1   
$EndComp
Wire Wire Line
	4450 5750 4300 5750
Wire Wire Line
	4300 5750 4300 5700
Wire Wire Line
	4300 5750 3450 5750
Connection ~ 4300 5750
Wire Wire Line
	4450 5850 4100 5850
Wire Wire Line
	4100 5700 4100 5850
Connection ~ 4100 5850
Wire Wire Line
	4100 5850 3450 5850
$Comp
L power:+3V0 #PWR0253
U 1 1 61326AD7
P 4850 4950
F 0 "#PWR0253" H 4850 4800 50  0001 C CNN
F 1 "+3V0" H 4865 5123 50  0000 C CNN
F 2 "" H 4850 4950 50  0001 C CNN
F 3 "" H 4850 4950 50  0001 C CNN
	1    4850 4950
	-1   0    0    -1  
$EndComp
Wire Wire Line
	4850 4950 4300 4950
Wire Wire Line
	4300 4950 4300 5400
Wire Wire Line
	4300 4950 4100 4950
Wire Wire Line
	4100 4950 4100 5400
Connection ~ 4300 4950
Wire Wire Line
	4850 4950 4850 5550
Connection ~ 4850 4950
$Comp
L Device:C C?
U 1 1 6133D830
P 3750 5150
AR Path="/5DFD1AFA/6133D830" Ref="C?"  Part="1" 
AR Path="/5E5C5B96/6133D830" Ref="C?"  Part="1" 
AR Path="/5E25D876/6133D830" Ref="C2"  Part="1" 
F 0 "C2" H 3865 5196 50  0000 L CNN
F 1 "0.1uF_NM" H 3865 5105 50  0000 L CNN
F 2 "Capacitor_SMD:C_0603_1608Metric" H 3788 5000 50  0001 C CNN
F 3 "~" H 3750 5150 50  0001 C CNN
	1    3750 5150
	-1   0    0    -1  
$EndComp
Wire Wire Line
	3750 5000 3750 4950
Wire Wire Line
	3750 4950 4100 4950
Connection ~ 4100 4950
$Comp
L Device:CP C1
U 1 1 6136055A
P 2800 5150
F 0 "C1" H 2918 5196 50  0000 L CNN
F 1 "10uF_NM" H 2918 5105 50  0000 L CNN
F 2 "Capacitor_Tantalum_SMD:CP_EIA-3216-18_Kemet-A" H 2838 5000 50  0001 C CNN
F 3 "~" H 2800 5150 50  0001 C CNN
	1    2800 5150
	1    0    0    -1  
$EndComp
$Comp
L power:GND #PWR?
U 1 1 61361434
P 4850 6300
AR Path="/5DFD1AFA/61361434" Ref="#PWR?"  Part="1" 
AR Path="/5E5C5B96/61361434" Ref="#PWR?"  Part="1" 
AR Path="/5E25D876/61361434" Ref="#PWR0254"  Part="1" 
F 0 "#PWR0254" H 4850 6050 50  0001 C CNN
F 1 "GND" H 4855 6127 50  0000 C CNN
F 2 "" H 4850 6300 50  0001 C CNN
F 3 "" H 4850 6300 50  0001 C CNN
	1    4850 6300
	-1   0    0    -1  
$EndComp
Wire Wire Line
	4850 6250 4850 6300
$Comp
L power:GND #PWR?
U 1 1 61369FC6
P 2800 5350
AR Path="/5DFD1AFA/61369FC6" Ref="#PWR?"  Part="1" 
AR Path="/5E5C5B96/61369FC6" Ref="#PWR?"  Part="1" 
AR Path="/5E25D876/61369FC6" Ref="#PWR0255"  Part="1" 
F 0 "#PWR0255" H 2800 5100 50  0001 C CNN
F 1 "GND" H 2805 5177 50  0000 C CNN
F 2 "" H 2800 5350 50  0001 C CNN
F 3 "" H 2800 5350 50  0001 C CNN
	1    2800 5350
	-1   0    0    -1  
$EndComp
$Comp
L power:GND #PWR?
U 1 1 6136A412
P 3750 5350
AR Path="/5DFD1AFA/6136A412" Ref="#PWR?"  Part="1" 
AR Path="/5E5C5B96/6136A412" Ref="#PWR?"  Part="1" 
AR Path="/5E25D876/6136A412" Ref="#PWR0256"  Part="1" 
F 0 "#PWR0256" H 3750 5100 50  0001 C CNN
F 1 "GND" H 3755 5177 50  0000 C CNN
F 2 "" H 3750 5350 50  0001 C CNN
F 3 "" H 3750 5350 50  0001 C CNN
	1    3750 5350
	-1   0    0    -1  
$EndComp
Wire Wire Line
	3750 5300 3750 5350
Wire Wire Line
	2800 5300 2800 5350
Wire Wire Line
	2800 5000 2800 4950
Wire Wire Line
	2800 4950 3750 4950
Connection ~ 3750 4950
Text HLabel 3250 5750 0    60   Input ~ 0
SCL
Text HLabel 3250 5850 0    60   BiDi ~ 0
SDA
Wire Wire Line
	5600 5800 5600 5850
Wire Wire Line
	5600 6050 5250 6050
Connection ~ 5600 5850
Wire Wire Line
	5600 5850 5600 5950
Wire Wire Line
	5250 5950 5600 5950
Connection ~ 5600 5950
Wire Wire Line
	5600 5950 5600 6050
$Comp
L Device:R R?
U 1 1 613B9544
P 4850 3700
AR Path="/5DFD1AFA/613B9544" Ref="R?"  Part="1" 
AR Path="/5E5C5B96/613B9544" Ref="R?"  Part="1" 
AR Path="/5E25D876/613B9544" Ref="R105"  Part="1" 
F 0 "R105" V 5057 3700 50  0000 C CNN
F 1 "1K" V 4966 3700 50  0000 C CNN
F 2 "Resistor_SMD:R_0603_1608Metric" V 4780 3700 50  0001 C CNN
F 3 "~" H 4850 3700 50  0001 C CNN
	1    4850 3700
	0    -1   1    0   
$EndComp
$Comp
L power:+3V0 #PWR0111
U 1 1 613EE014
P 3850 2450
F 0 "#PWR0111" H 3850 2300 50  0001 C CNN
F 1 "+3V0" H 3865 2623 50  0000 C CNN
F 2 "" H 3850 2450 50  0001 C CNN
F 3 "" H 3850 2450 50  0001 C CNN
	1    3850 2450
	1    0    0    -1  
$EndComp
Wire Wire Line
	6400 4100 6400 3400
Wire Wire Line
	6000 3400 6200 3400
Wire Wire Line
	6400 4100 6850 4100
Wire Wire Line
	4600 3400 4700 3400
$Comp
L Device:C C?
U 1 1 6144E4BC
P 5100 4100
AR Path="/5DFD1AFA/6144E4BC" Ref="C?"  Part="1" 
AR Path="/5E5C5B96/6144E4BC" Ref="C?"  Part="1" 
AR Path="/5E25D876/6144E4BC" Ref="C23"  Part="1" 
F 0 "C23" H 5215 4146 50  0000 L CNN
F 1 "0.1uF" H 5215 4055 50  0000 L CNN
F 2 "Capacitor_SMD:C_0603_1608Metric" H 5138 3950 50  0001 C CNN
F 3 "~" H 5100 4100 50  0001 C CNN
	1    5100 4100
	-1   0    0    -1  
$EndComp
$Comp
L power:GND #PWR?
U 1 1 6144EC31
P 5100 4300
AR Path="/5DFD1AFA/6144EC31" Ref="#PWR?"  Part="1" 
AR Path="/5E5C5B96/6144EC31" Ref="#PWR?"  Part="1" 
AR Path="/5E25D876/6144EC31" Ref="#PWR0257"  Part="1" 
F 0 "#PWR0257" H 5100 4050 50  0001 C CNN
F 1 "GND" H 5105 4127 50  0000 C CNN
F 2 "" H 5100 4300 50  0001 C CNN
F 3 "" H 5100 4300 50  0001 C CNN
	1    5100 4300
	-1   0    0    -1  
$EndComp
Wire Wire Line
	5100 4250 5100 4300
Wire Wire Line
	5250 5750 5300 5750
Wire Wire Line
	5300 5750 5300 3700
Wire Wire Line
	4700 3700 4700 3400
Connection ~ 4700 3400
Wire Wire Line
	4700 3400 5700 3400
Wire Wire Line
	5000 3700 5100 3700
Wire Wire Line
	5100 3700 5100 3950
Connection ~ 5100 3700
Wire Wire Line
	5100 3700 5300 3700
$Comp
L Connector:TestPoint_Alt TP?
U 1 1 614B2F43
P 3450 5700
AR Path="/5DFD1AFA/614B2F43" Ref="TP?"  Part="1" 
AR Path="/5E5C5B96/614B2F43" Ref="TP?"  Part="1" 
AR Path="/5E25D876/614B2F43" Ref="TP14"  Part="1" 
F 0 "TP14" H 3508 5772 50  0000 L CNN
F 1 "TestPoint_Alt" H 3508 5727 50  0001 L CNN
F 2 "TestPoint:TestPoint_Pad_D1.0mm" H 3650 5700 50  0001 C CNN
F 3 "~" H 3650 5700 50  0001 C CNN
	1    3450 5700
	-1   0    0    -1  
$EndComp
Wire Wire Line
	3450 5700 3450 5750
Connection ~ 3450 5750
Wire Wire Line
	3450 5750 3250 5750
$Comp
L Connector:TestPoint_Alt TP?
U 1 1 614B76D0
P 3450 5900
AR Path="/5DFD1AFA/614B76D0" Ref="TP?"  Part="1" 
AR Path="/5E5C5B96/614B76D0" Ref="TP?"  Part="1" 
AR Path="/5E25D876/614B76D0" Ref="TP15"  Part="1" 
F 0 "TP15" H 3508 5972 50  0000 L CNN
F 1 "TestPoint_Alt" H 3508 5927 50  0001 L CNN
F 2 "TestPoint:TestPoint_Pad_D1.0mm" H 3650 5900 50  0001 C CNN
F 3 "~" H 3650 5900 50  0001 C CNN
	1    3450 5900
	1    0    0    1   
$EndComp
Wire Wire Line
	3450 5900 3450 5850
Connection ~ 3450 5850
Wire Wire Line
	3450 5850 3250 5850
$EndSCHEMATC
